test/top.vcd
$version Generated by VerilatedVcd $end
$date Sun Dec  4 18:58:47 2022 $end
$timescale 1ps $end

 $scope module TOP $end
  $var wire  1 %! Eq $end
  $var wire 32 #! a0 [31:0] $end
  $var wire  3 '! aluCtrl [2:0] $end
  $var wire  1 &! alusrc $end
  $var wire  1 !! clk $end
  $var wire 32 (! extout [31:0] $end
  $var wire  1 "! rst $end
  $var wire  1 $! wr_en $end
  $scope module top $end
   $var wire 32 )! ADDRESS_WIDTH [31:0] $end
   $var wire  1 E ALUSrc $end
   $var wire  3 F ALU_ctrl [2:0] $end
   $var wire 32 )! DATA_WIDTH [31:0] $end
   $var wire  1 G EQ $end
   $var wire  1 %! Eq $end
   $var wire 32 H ImmOp [31:0] $end
   $var wire  2 I ImmSrc [1:0] $end
   $var wire  1 J MemWrite $end
   $var wire 32 @ PC_instr [31:0] $end
   $var wire  1 A PCsrc $end
   $var wire  1 K ResultSrc $end
   $var wire 32 #! a0 [31:0] $end
   $var wire  3 '! aluCtrl [2:0] $end
   $var wire  1 &! alusrc $end
   $var wire  1 !! clk $end
   $var wire 32 (! extout [31:0] $end
   $var wire 13 ,! imm_branch [12:0] $end
   $var wire 12 +! imm_imm [11:0] $end
   $var wire  5 D rd [4:0] $end
   $var wire  5 B rs1 [4:0] $end
   $var wire  5 C rs2 [4:0] $end
   $var wire  1 "! rst $end
   $var wire  1 $! wr_en $end
   $var wire 32 *! write_data [31:0] $end
   $var wire  1 ? write_en $end
   $scope module ALU $end
    $var wire 32 O ALUOp2 [31:0] $end
    $var wire  1 E ALUSrc $end
    $var wire  1 L ALU_ctrl $end
    $var wire 32 P ALUout [31:0] $end
    $var wire 32 .! Address_Width_RAM [31:0] $end
    $var wire 32 -! Address_Width_RegFile [31:0] $end
    $var wire 32 )! Data_Width [31:0] $end
    $var wire 32 H ImmOp [31:0] $end
    $var wire  1 J MemWrite $end
    $var wire 32 )! NumberOfReg [31:0] $end
    $var wire 32 R ReadData [31:0] $end
    $var wire  1 K ResultSrc $end
    $var wire  1 !! clk $end
    $var wire 32 Q dinTest [31:0] $end
    $var wire  1 G eq $end
    $var wire  5 D rd [4:0] $end
    $var wire 32 M rd1 [31:0] $end
    $var wire 32 N rd2 [31:0] $end
    $var wire  1 ? regFileWen $end
    $var wire  5 B rs1 [4:0] $end
    $var wire  5 C rs2 [4:0] $end
    $scope module alu1 $end
     $var wire  1 L ALU_ctrl $end
     $var wire 32 P ALUout [31:0] $end
     $var wire 32 -! Address_Width [31:0] $end
     $var wire 32 )! Data_Width [31:0] $end
     $var wire  1 G eq $end
     $var wire 32 M op1 [31:0] $end
     $var wire 32 O op2 [31:0] $end
    $upscope $end
    $scope module mux1 $end
     $var wire 32 O ALUOp2 [31:0] $end
     $var wire  1 E ALUSrc $end
     $var wire 32 )! Data_Width [31:0] $end
     $var wire 32 H ImmOp [31:0] $end
     $var wire 32 N regOp2 [31:0] $end
    $upscope $end
    $scope module ram1 $end
     $var wire  8 S A [7:0] $end
     $var wire 32 .! Address_Width [31:0] $end
     $var wire 32 )! Data_Width [31:0] $end
     $var wire 32 R RD [31:0] $end
     $var wire 32 N WD [31:0] $end
     $var wire  1 J WE $end
     $var wire  1 !! clk $end
    $upscope $end
    $scope module regFile1 $end
     $var wire 32 -! Address_Width [31:0] $end
     $var wire 32 )! Data_Width [31:0] $end
     $var wire 32 )! NumberOfReg [31:0] $end
     $var wire  1 !! clk $end
     $var wire 32 Q din [31:0] $end
     $var wire  1 ? en $end
     $var wire  5 D rd [4:0] $end
     $var wire 32 M rd1 [31:0] $end
     $var wire 32 N rd2 [31:0] $end
     $var wire 32 T regFile_array[0] [31:0] $end
     $var wire 32 ^ regFile_array[10] [31:0] $end
     $var wire 32 _ regFile_array[11] [31:0] $end
     $var wire 32 ` regFile_array[12] [31:0] $end
     $var wire 32 a regFile_array[13] [31:0] $end
     $var wire 32 b regFile_array[14] [31:0] $end
     $var wire 32 c regFile_array[15] [31:0] $end
     $var wire 32 d regFile_array[16] [31:0] $end
     $var wire 32 e regFile_array[17] [31:0] $end
     $var wire 32 f regFile_array[18] [31:0] $end
     $var wire 32 g regFile_array[19] [31:0] $end
     $var wire 32 U regFile_array[1] [31:0] $end
     $var wire 32 h regFile_array[20] [31:0] $end
     $var wire 32 i regFile_array[21] [31:0] $end
     $var wire 32 j regFile_array[22] [31:0] $end
     $var wire 32 k regFile_array[23] [31:0] $end
     $var wire 32 l regFile_array[24] [31:0] $end
     $var wire 32 m regFile_array[25] [31:0] $end
     $var wire 32 n regFile_array[26] [31:0] $end
     $var wire 32 o regFile_array[27] [31:0] $end
     $var wire 32 p regFile_array[28] [31:0] $end
     $var wire 32 q regFile_array[29] [31:0] $end
     $var wire 32 V regFile_array[2] [31:0] $end
     $var wire 32 r regFile_array[30] [31:0] $end
     $var wire 32 s regFile_array[31] [31:0] $end
     $var wire 32 W regFile_array[3] [31:0] $end
     $var wire 32 X regFile_array[4] [31:0] $end
     $var wire 32 Y regFile_array[5] [31:0] $end
     $var wire 32 Z regFile_array[6] [31:0] $end
     $var wire 32 [ regFile_array[7] [31:0] $end
     $var wire 32 \ regFile_array[8] [31:0] $end
     $var wire 32 ] regFile_array[9] [31:0] $end
     $var wire  5 B rs1 [4:0] $end
     $var wire  5 C rs2 [4:0] $end
    $upscope $end
    $scope module resultMux1 $end
     $var wire 32 P ALUResult [31:0] $end
     $var wire 32 )! Data_Width [31:0] $end
     $var wire 32 R ReadData [31:0] $end
     $var wire 32 Q Result [31:0] $end
     $var wire  1 K ResultSrc $end
    $upscope $end
   $upscope $end
   $scope module control_unit $end
    $var wire  3 F ALUControl [2:0] $end
    $var wire  2 x ALUOp [1:0] $end
    $var wire  1 E ALUSrc $end
    $var wire  1 w Branch $end
    $var wire  2 I ImmSrc [1:0] $end
    $var wire  1 J MemWrite $end
    $var wire  1 A PCSrc $end
    $var wire  1 ? RegWrite $end
    $var wire  1 K ResultSrc $end
    $var wire  1 G Zero $end
    $var wire  3 u funct3 [2:0] $end
    $var wire  1 v funct75 $end
    $var wire  7 t op [6:0] $end
    $scope module a $end
     $var wire  3 F ALUControl [2:0] $end
     $var wire  2 x ALUOp [1:0] $end
     $var wire  3 u funct3 [2:0] $end
     $var wire  1 v funct75 $end
     $var wire  1 y op5 $end
    $upscope $end
    $scope module m $end
     $var wire  2 x ALUOp [1:0] $end
     $var wire  1 E ALUSrc $end
     $var wire  1 w Branch $end
     $var wire  2 I ImmSrc [1:0] $end
     $var wire  1 J MemWrite $end
     $var wire  1 ? RegWrite $end
     $var wire  1 K ResultSrc $end
     $var wire  7 t op [6:0] $end
    $upscope $end
   $upscope $end
   $scope module myPC $end
    $var wire 32 )! ADDRESS_WIDTH [31:0] $end
    $var wire 32 )! DATA_WIDTH [31:0] $end
    $var wire 32 H ImmOp [31:0] $end
    $var wire 32 z PC [31:0] $end
    $var wire  1 A PCsrc $end
    $var wire  1 !! clk $end
    $var wire 32 @ instr [31:0] $end
    $var wire  1 "! rst $end
    $scope module myPCreg $end
     $var wire 32 )! ADDRESS_WIDTH [31:0] $end
     $var wire 32 H ImmOp [31:0] $end
     $var wire 32 z PC [31:0] $end
     $var wire  1 A PCsrc $end
     $var wire 32 { branch_PC [31:0] $end
     $var wire  1 !! clk $end
     $var wire 32 | inc_PC [31:0] $end
     $var wire 32 } next_PC [31:0] $end
     $var wire  1 "! rst $end
    $upscope $end
    $scope module myRom $end
     $var wire 32 )! ADDRESS_WIDTH [31:0] $end
     $var wire 32 .! DATA_WIDTH [31:0] $end
     $var wire 32 z PC [31:0] $end
     $var wire 32 @ instr [31:0] $end
     $var wire  8 # rom_array[0] [7:0] $end
     $var wire  8 - rom_array[10] [7:0] $end
     $var wire  8 . rom_array[11] [7:0] $end
     $var wire  8 / rom_array[12] [7:0] $end
     $var wire  8 0 rom_array[13] [7:0] $end
     $var wire  8 1 rom_array[14] [7:0] $end
     $var wire  8 2 rom_array[15] [7:0] $end
     $var wire  8 3 rom_array[16] [7:0] $end
     $var wire  8 4 rom_array[17] [7:0] $end
     $var wire  8 5 rom_array[18] [7:0] $end
     $var wire  8 6 rom_array[19] [7:0] $end
     $var wire  8 $ rom_array[1] [7:0] $end
     $var wire  8 7 rom_array[20] [7:0] $end
     $var wire  8 8 rom_array[21] [7:0] $end
     $var wire  8 9 rom_array[22] [7:0] $end
     $var wire  8 : rom_array[23] [7:0] $end
     $var wire  8 ; rom_array[24] [7:0] $end
     $var wire  8 < rom_array[25] [7:0] $end
     $var wire  8 = rom_array[26] [7:0] $end
     $var wire  8 > rom_array[27] [7:0] $end
     $var wire  8 % rom_array[2] [7:0] $end
     $var wire  8 & rom_array[3] [7:0] $end
     $var wire  8 ' rom_array[4] [7:0] $end
     $var wire  8 ( rom_array[5] [7:0] $end
     $var wire  8 ) rom_array[6] [7:0] $end
     $var wire  8 * rom_array[7] [7:0] $end
     $var wire  8 + rom_array[8] [7:0] $end
     $var wire  8 , rom_array[9] [7:0] $end
    $upscope $end
   $upscope $end
   $scope module sign_extend $end
    $var wire 32 H ImmExt [31:0] $end
    $var wire  2 I ImmSrc [1:0] $end
    $var wire 25 ~ imm [31:7] $end
   $upscope $end
  $upscope $end
 $upscope $end
$enddefinitions $end


#0
b00000000 #
b00000000 $
b00000000 %
b00000000 &
b00000000 '
b00000000 (
b00000000 )
b00000000 *
b00000000 +
b00000000 ,
b00000000 -
b00000000 .
b00000000 /
b00000000 0
b00000000 1
b00000000 2
b00000000 3
b00000000 4
b00000000 5
b00000000 6
b00000000 7
b00000000 8
b00000000 9
b00000000 :
b00000000 ;
b00000000 <
b00000000 =
b00000000 >
0?
b00000000000000000000000000000000 @
0A
b00000 B
b00000 C
b00000 D
0E
b000 F
0G
b00000000000000000000000000000000 H
b00 I
0J
0K
0L
b00000000000000000000000000000000 M
b00000000000000000000000000000000 N
b00000000000000000000000000000000 O
b00000000000000000000000000000000 P
b00000000000000000000000000000000 Q
b00000000000000000000000000000000 R
b00000000 S
b00000000000000000000000000000000 T
b00000000000000000000000000000000 U
b00000000000000000000000000000000 V
b00000000000000000000000000000000 W
b00000000000000000000000000000000 X
b00000000000000000000000000000000 Y
b00000000000000000000000000000000 Z
b00000000000000000000000000000000 [
b00000000000000000000000000000000 \
b00000000000000000000000000000000 ]
b00000000000000000000000000000000 ^
b00000000000000000000000000000000 _
b00000000000000000000000000000000 `
b00000000000000000000000000000000 a
b00000000000000000000000000000000 b
b00000000000000000000000000000000 c
b00000000000000000000000000000000 d
b00000000000000000000000000000000 e
b00000000000000000000000000000000 f
b00000000000000000000000000000000 g
b00000000000000000000000000000000 h
b00000000000000000000000000000000 i
b00000000000000000000000000000000 j
b00000000000000000000000000000000 k
b00000000000000000000000000000000 l
b00000000000000000000000000000000 m
b00000000000000000000000000000000 n
b00000000000000000000000000000000 o
b00000000000000000000000000000000 p
b00000000000000000000000000000000 q
b00000000000000000000000000000000 r
b00000000000000000000000000000000 s
b0000000 t
b000 u
0v
0w
b00 x
0y
b00000000000000000000000000000000 z
b00000000000000000000000000000000 {
b00000000000000000000000000000100 |
b00000000000000000000000000000100 }
b0000000000000000000000000 ~
1!!
1"!
b00000000000000000000000000000000 #!
0$!
0%!
0&!
b000 '!
b00000000000000000000000000000000 (!
b00000000000000000000000000100000 )!
b00000000000000000000000000000000 *!
b000000000000 +!
b0000000000000 ,!
b00000000000000000000000000000101 -!
b00000000000000000000000000001000 .!
#1
0!!
#2
1!!
0"!
#3
0!!
#4
b00000000000000000000000000000100 z
b00000000000000000000000000000100 {
b00000000000000000000000000001000 |
b00000000000000000000000000001000 }
1!!
#5
0!!
#6
b00000000000000000000000000001000 z
b00000000000000000000000000001000 {
b00000000000000000000000000001100 |
b00000000000000000000000000001100 }
1!!
#7
0!!
#8
b00000000000000000000000000001100 z
b00000000000000000000000000001100 {
b00000000000000000000000000010000 |
b00000000000000000000000000010000 }
1!!
#9
0!!
#10
b00000000000000000000000000010000 z
b00000000000000000000000000010000 {
b00000000000000000000000000010100 |
b00000000000000000000000000010100 }
1!!
#11
0!!
#12
b00000000000000000000000000010100 z
b00000000000000000000000000010100 {
b00000000000000000000000000011000 |
b00000000000000000000000000011000 }
1!!
#13
0!!
#14
b00000000000000000000000000011000 z
b00000000000000000000000000011000 {
b00000000000000000000000000011100 |
b00000000000000000000000000011100 }
1!!
#15
0!!
#16
b00000000000000000000000000011100 z
b00000000000000000000000000011100 {
b00000000000000000000000000100000 |
b00000000000000000000000000100000 }
1!!
#17
0!!
#18
b00000000000000000000000000100000 z
b00000000000000000000000000100000 {
b00000000000000000000000000100100 |
b00000000000000000000000000100100 }
1!!
#19
0!!
#20
b00000000000000000000000000100100 z
b00000000000000000000000000100100 {
b00000000000000000000000000101000 |
b00000000000000000000000000101000 }
1!!
#21
0!!
#22
b00000000000000000000000000101000 z
b00000000000000000000000000101000 {
b00000000000000000000000000101100 |
b00000000000000000000000000101100 }
1!!
#23
0!!
#24
b00000000000000000000000000101100 z
b00000000000000000000000000101100 {
b00000000000000000000000000110000 |
b00000000000000000000000000110000 }
1!!
#25
0!!
#26
b00000000000000000000000000110000 z
b00000000000000000000000000110000 {
b00000000000000000000000000110100 |
b00000000000000000000000000110100 }
1!!
#27
0!!
#28
b00000000000000000000000000110100 z
b00000000000000000000000000110100 {
b00000000000000000000000000111000 |
b00000000000000000000000000111000 }
1!!
#29
0!!
#30
b00000000000000000000000000111000 z
b00000000000000000000000000111000 {
b00000000000000000000000000111100 |
b00000000000000000000000000111100 }
1!!
#31
0!!
#32
b00000000000000000000000000111100 z
b00000000000000000000000000111100 {
b00000000000000000000000001000000 |
b00000000000000000000000001000000 }
1!!
#33
0!!
#34
b00000000000000000000000001000000 z
b00000000000000000000000001000000 {
b00000000000000000000000001000100 |
b00000000000000000000000001000100 }
1!!
#35
0!!
#36
b00000000000000000000000001000100 z
b00000000000000000000000001000100 {
b00000000000000000000000001001000 |
b00000000000000000000000001001000 }
1!!
#37
0!!
#38
b00000000000000000000000001001000 z
b00000000000000000000000001001000 {
b00000000000000000000000001001100 |
b00000000000000000000000001001100 }
1!!
#39
0!!
#40
b00000000000000000000000001001100 z
b00000000000000000000000001001100 {
b00000000000000000000000001010000 |
b00000000000000000000000001010000 }
1!!
#41
0!!
#42
b00000000000000000000000001010000 z
b00000000000000000000000001010000 {
b00000000000000000000000001010100 |
b00000000000000000000000001010100 }
1!!
#43
0!!
#44
b00000000000000000000000001010100 z
b00000000000000000000000001010100 {
b00000000000000000000000001011000 |
b00000000000000000000000001011000 }
1!!
#45
0!!
#46
b00000000000000000000000001011000 z
b00000000000000000000000001011000 {
b00000000000000000000000001011100 |
b00000000000000000000000001011100 }
1!!
#47
0!!
#48
b00000000000000000000000001011100 z
b00000000000000000000000001011100 {
b00000000000000000000000001100000 |
b00000000000000000000000001100000 }
1!!
#49
0!!
#50
b00000000000000000000000001100000 z
b00000000000000000000000001100000 {
b00000000000000000000000001100100 |
b00000000000000000000000001100100 }
1!!
#51
0!!
#52
b00000000000000000000000001100100 z
b00000000000000000000000001100100 {
b00000000000000000000000001101000 |
b00000000000000000000000001101000 }
1!!
#53
0!!
#54
b00000000000000000000000001101000 z
b00000000000000000000000001101000 {
b00000000000000000000000001101100 |
b00000000000000000000000001101100 }
1!!
#55
0!!
#56
b00000000000000000000000001101100 z
b00000000000000000000000001101100 {
b00000000000000000000000001110000 |
b00000000000000000000000001110000 }
1!!
#57
0!!
#58
b00000000000000000000000001110000 z
b00000000000000000000000001110000 {
b00000000000000000000000001110100 |
b00000000000000000000000001110100 }
1!!
#59
0!!
#60
b00000000000000000000000001110100 z
b00000000000000000000000001110100 {
b00000000000000000000000001111000 |
b00000000000000000000000001111000 }
1!!
#61
0!!
#62
b00000000000000000000000001111000 z
b00000000000000000000000001111000 {
b00000000000000000000000001111100 |
b00000000000000000000000001111100 }
1!!
#63
0!!
#64
b00000000000000000000000001111100 z
b00000000000000000000000001111100 {
b00000000000000000000000010000000 |
b00000000000000000000000010000000 }
1!!
#65
0!!
#66
b00000000000000000000000010000000 z
b00000000000000000000000010000000 {
b00000000000000000000000010000100 |
b00000000000000000000000010000100 }
1!!
#67
0!!
#68
b00000000000000000000000010000100 z
b00000000000000000000000010000100 {
b00000000000000000000000010001000 |
b00000000000000000000000010001000 }
1!!
#69
0!!
#70
b00000000000000000000000010001000 z
b00000000000000000000000010001000 {
b00000000000000000000000010001100 |
b00000000000000000000000010001100 }
1!!
#71
0!!
#72
b00000000000000000000000010001100 z
b00000000000000000000000010001100 {
b00000000000000000000000010010000 |
b00000000000000000000000010010000 }
1!!
#73
0!!
#74
b00000000000000000000000010010000 z
b00000000000000000000000010010000 {
b00000000000000000000000010010100 |
b00000000000000000000000010010100 }
1!!
#75
0!!
#76
b00000000000000000000000010010100 z
b00000000000000000000000010010100 {
b00000000000000000000000010011000 |
b00000000000000000000000010011000 }
1!!
#77
0!!
#78
b00000000000000000000000010011000 z
b00000000000000000000000010011000 {
b00000000000000000000000010011100 |
b00000000000000000000000010011100 }
1!!
#79
0!!
#80
b00000000000000000000000010011100 z
b00000000000000000000000010011100 {
b00000000000000000000000010100000 |
b00000000000000000000000010100000 }
1!!
#81
0!!
#82
b00000000000000000000000010100000 z
b00000000000000000000000010100000 {
b00000000000000000000000010100100 |
b00000000000000000000000010100100 }
1!!
#83
0!!
#84
b00000000000000000000000010100100 z
b00000000000000000000000010100100 {
b00000000000000000000000010101000 |
b00000000000000000000000010101000 }
1!!
#85
0!!
#86
b00000000000000000000000010101000 z
b00000000000000000000000010101000 {
b00000000000000000000000010101100 |
b00000000000000000000000010101100 }
1!!
#87
0!!
#88
b00000000000000000000000010101100 z
b00000000000000000000000010101100 {
b00000000000000000000000010110000 |
b00000000000000000000000010110000 }
1!!
#89
0!!
#90
b00000000000000000000000010110000 z
b00000000000000000000000010110000 {
b00000000000000000000000010110100 |
b00000000000000000000000010110100 }
1!!
#91
0!!
#92
b00000000000000000000000010110100 z
b00000000000000000000000010110100 {
b00000000000000000000000010111000 |
b00000000000000000000000010111000 }
1!!
#93
0!!
#94
b00000000000000000000000010111000 z
b00000000000000000000000010111000 {
b00000000000000000000000010111100 |
b00000000000000000000000010111100 }
1!!
#95
0!!
#96
b00000000000000000000000010111100 z
b00000000000000000000000010111100 {
b00000000000000000000000011000000 |
b00000000000000000000000011000000 }
1!!
#97
0!!
#98
b00000000000000000000000011000000 z
b00000000000000000000000011000000 {
b00000000000000000000000011000100 |
b00000000000000000000000011000100 }
1!!
#99
0!!
#100
b00000000000000000000000011000100 z
b00000000000000000000000011000100 {
b00000000000000000000000011001000 |
b00000000000000000000000011001000 }
1!!
#101
0!!
#102
b00000000000000000000000011001000 z
b00000000000000000000000011001000 {
b00000000000000000000000011001100 |
b00000000000000000000000011001100 }
1!!
#103
0!!
#104
b00000000000000000000000011001100 z
b00000000000000000000000011001100 {
b00000000000000000000000011010000 |
b00000000000000000000000011010000 }
1!!
#105
0!!
#106
b00000000000000000000000011010000 z
b00000000000000000000000011010000 {
b00000000000000000000000011010100 |
b00000000000000000000000011010100 }
1!!
#107
0!!
#108
b00000000000000000000000011010100 z
b00000000000000000000000011010100 {
b00000000000000000000000011011000 |
b00000000000000000000000011011000 }
1!!
#109
0!!
#110
b00000000000000000000000011011000 z
b00000000000000000000000011011000 {
b00000000000000000000000011011100 |
b00000000000000000000000011011100 }
1!!
#111
0!!
#112
b00000000000000000000000011011100 z
b00000000000000000000000011011100 {
b00000000000000000000000011100000 |
b00000000000000000000000011100000 }
1!!
#113
0!!
#114
b00000000000000000000000011100000 z
b00000000000000000000000011100000 {
b00000000000000000000000011100100 |
b00000000000000000000000011100100 }
1!!
#115
0!!
#116
b00000000000000000000000011100100 z
b00000000000000000000000011100100 {
b00000000000000000000000011101000 |
b00000000000000000000000011101000 }
1!!
#117
0!!
#118
b00000000000000000000000011101000 z
b00000000000000000000000011101000 {
b00000000000000000000000011101100 |
b00000000000000000000000011101100 }
1!!
#119
0!!
#120
b00000000000000000000000011101100 z
b00000000000000000000000011101100 {
b00000000000000000000000011110000 |
b00000000000000000000000011110000 }
1!!
#121
0!!
#122
b00000000000000000000000011110000 z
b00000000000000000000000011110000 {
b00000000000000000000000011110100 |
b00000000000000000000000011110100 }
1!!
#123
0!!
#124
b00000000000000000000000011110100 z
b00000000000000000000000011110100 {
b00000000000000000000000011111000 |
b00000000000000000000000011111000 }
1!!
#125
0!!
#126
b00000000000000000000000011111000 z
b00000000000000000000000011111000 {
b00000000000000000000000011111100 |
b00000000000000000000000011111100 }
1!!
#127
0!!
#128
b00000000000000000000000011111100 z
b00000000000000000000000011111100 {
b00000000000000000000000100000000 |
b00000000000000000000000100000000 }
1!!
#129
0!!
#130
b00000000000000000000000100000000 z
b00000000000000000000000100000000 {
b00000000000000000000000100000100 |
b00000000000000000000000100000100 }
1!!
#131
0!!
#132
b00000000000000000000000100000100 z
b00000000000000000000000100000100 {
b00000000000000000000000100001000 |
b00000000000000000000000100001000 }
1!!
#133
0!!
#134
b00000000000000000000000100001000 z
b00000000000000000000000100001000 {
b00000000000000000000000100001100 |
b00000000000000000000000100001100 }
1!!
#135
0!!
#136
b00000000000000000000000100001100 z
b00000000000000000000000100001100 {
b00000000000000000000000100010000 |
b00000000000000000000000100010000 }
1!!
#137
0!!
#138
b00000000000000000000000100010000 z
b00000000000000000000000100010000 {
b00000000000000000000000100010100 |
b00000000000000000000000100010100 }
1!!
#139
0!!
#140
b00000000000000000000000100010100 z
b00000000000000000000000100010100 {
b00000000000000000000000100011000 |
b00000000000000000000000100011000 }
1!!
#141
0!!
#142
b00000000000000000000000100011000 z
b00000000000000000000000100011000 {
b00000000000000000000000100011100 |
b00000000000000000000000100011100 }
1!!
#143
0!!
#144
b00000000000000000000000100011100 z
b00000000000000000000000100011100 {
b00000000000000000000000100100000 |
b00000000000000000000000100100000 }
1!!
#145
0!!
#146
b00000000000000000000000100100000 z
b00000000000000000000000100100000 {
b00000000000000000000000100100100 |
b00000000000000000000000100100100 }
1!!
#147
0!!
#148
b00000000000000000000000100100100 z
b00000000000000000000000100100100 {
b00000000000000000000000100101000 |
b00000000000000000000000100101000 }
1!!
#149
0!!
#150
b00000000000000000000000100101000 z
b00000000000000000000000100101000 {
b00000000000000000000000100101100 |
b00000000000000000000000100101100 }
1!!
#151
0!!
#152
b00000000000000000000000100101100 z
b00000000000000000000000100101100 {
b00000000000000000000000100110000 |
b00000000000000000000000100110000 }
1!!
#153
0!!
#154
b00000000000000000000000100110000 z
b00000000000000000000000100110000 {
b00000000000000000000000100110100 |
b00000000000000000000000100110100 }
1!!
#155
0!!
#156
b00000000000000000000000100110100 z
b00000000000000000000000100110100 {
b00000000000000000000000100111000 |
b00000000000000000000000100111000 }
1!!
#157
0!!
#158
b00000000000000000000000100111000 z
b00000000000000000000000100111000 {
b00000000000000000000000100111100 |
b00000000000000000000000100111100 }
1!!
#159
0!!
#160
b00000000000000000000000100111100 z
b00000000000000000000000100111100 {
b00000000000000000000000101000000 |
b00000000000000000000000101000000 }
1!!
#161
0!!
#162
b00000000000000000000000101000000 z
b00000000000000000000000101000000 {
b00000000000000000000000101000100 |
b00000000000000000000000101000100 }
1!!
#163
0!!
#164
b00000000000000000000000101000100 z
b00000000000000000000000101000100 {
b00000000000000000000000101001000 |
b00000000000000000000000101001000 }
1!!
#165
0!!
#166
b00000000000000000000000101001000 z
b00000000000000000000000101001000 {
b00000000000000000000000101001100 |
b00000000000000000000000101001100 }
1!!
#167
0!!
#168
b00000000000000000000000101001100 z
b00000000000000000000000101001100 {
b00000000000000000000000101010000 |
b00000000000000000000000101010000 }
1!!
#169
0!!
#170
b00000000000000000000000101010000 z
b00000000000000000000000101010000 {
b00000000000000000000000101010100 |
b00000000000000000000000101010100 }
1!!
#171
0!!
#172
b00000000000000000000000101010100 z
b00000000000000000000000101010100 {
b00000000000000000000000101011000 |
b00000000000000000000000101011000 }
1!!
#173
0!!
#174
b00000000000000000000000101011000 z
b00000000000000000000000101011000 {
b00000000000000000000000101011100 |
b00000000000000000000000101011100 }
1!!
#175
0!!
#176
b00000000000000000000000101011100 z
b00000000000000000000000101011100 {
b00000000000000000000000101100000 |
b00000000000000000000000101100000 }
1!!
#177
0!!
#178
b00000000000000000000000101100000 z
b00000000000000000000000101100000 {
b00000000000000000000000101100100 |
b00000000000000000000000101100100 }
1!!
#179
0!!
#180
b00000000000000000000000101100100 z
b00000000000000000000000101100100 {
b00000000000000000000000101101000 |
b00000000000000000000000101101000 }
1!!
#181
0!!
#182
b00000000000000000000000101101000 z
b00000000000000000000000101101000 {
b00000000000000000000000101101100 |
b00000000000000000000000101101100 }
1!!
#183
0!!
#184
b00000000000000000000000101101100 z
b00000000000000000000000101101100 {
b00000000000000000000000101110000 |
b00000000000000000000000101110000 }
1!!
#185
0!!
#186
b00000000000000000000000101110000 z
b00000000000000000000000101110000 {
b00000000000000000000000101110100 |
b00000000000000000000000101110100 }
1!!
#187
0!!
#188
b00000000000000000000000101110100 z
b00000000000000000000000101110100 {
b00000000000000000000000101111000 |
b00000000000000000000000101111000 }
1!!
#189
0!!
#190
b00000000000000000000000101111000 z
b00000000000000000000000101111000 {
b00000000000000000000000101111100 |
b00000000000000000000000101111100 }
1!!
#191
0!!
#192
b00000000000000000000000101111100 z
b00000000000000000000000101111100 {
b00000000000000000000000110000000 |
b00000000000000000000000110000000 }
1!!
#193
0!!
#194
b00000000000000000000000110000000 z
b00000000000000000000000110000000 {
b00000000000000000000000110000100 |
b00000000000000000000000110000100 }
1!!
#195
0!!
#196
b00000000000000000000000110000100 z
b00000000000000000000000110000100 {
b00000000000000000000000110001000 |
b00000000000000000000000110001000 }
1!!
#197
0!!
#198
b00000000000000000000000110001000 z
b00000000000000000000000110001000 {
b00000000000000000000000110001100 |
b00000000000000000000000110001100 }
1!!
#199
0!!
#200
b00000000000000000000000110001100 z
b00000000000000000000000110001100 {
b00000000000000000000000110010000 |
b00000000000000000000000110010000 }
1!!
#201
0!!
#202
b00000000000000000000000110010000 z
b00000000000000000000000110010000 {
b00000000000000000000000110010100 |
b00000000000000000000000110010100 }
1!!
#203
0!!
#204
b00000000000000000000000110010100 z
b00000000000000000000000110010100 {
b00000000000000000000000110011000 |
b00000000000000000000000110011000 }
1!!
#205
0!!
#206
b00000000000000000000000110011000 z
b00000000000000000000000110011000 {
b00000000000000000000000110011100 |
b00000000000000000000000110011100 }
1!!
#207
0!!
#208
b00000000000000000000000110011100 z
b00000000000000000000000110011100 {
b00000000000000000000000110100000 |
b00000000000000000000000110100000 }
1!!
#209
0!!
#210
b00000000000000000000000110100000 z
b00000000000000000000000110100000 {
b00000000000000000000000110100100 |
b00000000000000000000000110100100 }
1!!
#211
0!!
#212
b00000000000000000000000110100100 z
b00000000000000000000000110100100 {
b00000000000000000000000110101000 |
b00000000000000000000000110101000 }
1!!
#213
0!!
#214
b00000000000000000000000110101000 z
b00000000000000000000000110101000 {
b00000000000000000000000110101100 |
b00000000000000000000000110101100 }
1!!
#215
0!!
#216
b00000000000000000000000110101100 z
b00000000000000000000000110101100 {
b00000000000000000000000110110000 |
b00000000000000000000000110110000 }
1!!
#217
0!!
#218
b00000000000000000000000110110000 z
b00000000000000000000000110110000 {
b00000000000000000000000110110100 |
b00000000000000000000000110110100 }
1!!
#219
0!!
#220
b00000000000000000000000110110100 z
b00000000000000000000000110110100 {
b00000000000000000000000110111000 |
b00000000000000000000000110111000 }
1!!
#221
0!!
#222
b00000000000000000000000110111000 z
b00000000000000000000000110111000 {
b00000000000000000000000110111100 |
b00000000000000000000000110111100 }
1!!
#223
0!!
#224
b00000000000000000000000110111100 z
b00000000000000000000000110111100 {
b00000000000000000000000111000000 |
b00000000000000000000000111000000 }
1!!
#225
0!!
#226
b00000000000000000000000111000000 z
b00000000000000000000000111000000 {
b00000000000000000000000111000100 |
b00000000000000000000000111000100 }
1!!
#227
0!!
#228
b00000000000000000000000111000100 z
b00000000000000000000000111000100 {
b00000000000000000000000111001000 |
b00000000000000000000000111001000 }
1!!
#229
0!!
#230
b00000000000000000000000111001000 z
b00000000000000000000000111001000 {
b00000000000000000000000111001100 |
b00000000000000000000000111001100 }
1!!
#231
0!!
#232
b00000000000000000000000111001100 z
b00000000000000000000000111001100 {
b00000000000000000000000111010000 |
b00000000000000000000000111010000 }
1!!
#233
0!!
#234
b00000000000000000000000111010000 z
b00000000000000000000000111010000 {
b00000000000000000000000111010100 |
b00000000000000000000000111010100 }
1!!
#235
0!!
#236
b00000000000000000000000111010100 z
b00000000000000000000000111010100 {
b00000000000000000000000111011000 |
b00000000000000000000000111011000 }
1!!
#237
0!!
#238
b00000000000000000000000111011000 z
b00000000000000000000000111011000 {
b00000000000000000000000111011100 |
b00000000000000000000000111011100 }
1!!
#239
0!!
#240
b00000000000000000000000111011100 z
b00000000000000000000000111011100 {
b00000000000000000000000111100000 |
b00000000000000000000000111100000 }
1!!
#241
0!!
#242
b00000000000000000000000111100000 z
b00000000000000000000000111100000 {
b00000000000000000000000111100100 |
b00000000000000000000000111100100 }
1!!
#243
0!!
#244
b00000000000000000000000111100100 z
b00000000000000000000000111100100 {
b00000000000000000000000111101000 |
b00000000000000000000000111101000 }
1!!
#245
0!!
#246
b00000000000000000000000111101000 z
b00000000000000000000000111101000 {
b00000000000000000000000111101100 |
b00000000000000000000000111101100 }
1!!
#247
0!!
#248
b00000000000000000000000111101100 z
b00000000000000000000000111101100 {
b00000000000000000000000111110000 |
b00000000000000000000000111110000 }
1!!
#249
0!!
#250
b00000000000000000000000111110000 z
b00000000000000000000000111110000 {
b00000000000000000000000111110100 |
b00000000000000000000000111110100 }
1!!
#251
0!!
