top.vcd
$version Generated by VerilatedVcd $end
$date Wed Dec  7 23:41:59 2022 $end
$timescale 1ps $end

 $scope module TOP $end
  $var wire 32 k a0 [31:0] $end
  $var wire  1 i clk $end
  $var wire  1 j rst $end
  $var wire  1 h trigger $end
  $scope module top $end
   $var wire 32 l ADDRESS_WIDTH [31:0] $end
   $var wire  1 ) ALUSrc $end
   $var wire  4 * ALU_ctrl [3:0] $end
   $var wire 32 l DATA_WIDTH [31:0] $end
   $var wire  2 , DataType [1:0] $end
   $var wire  1 + EQ $end
   $var wire 32 . ImmOp [31:0] $end
   $var wire  2 0 ImmSrc [1:0] $end
   $var wire  1 - J $end
   $var wire  1 1 MemWrite $end
   $var wire 32 $ PC_instr [31:0] $end
   $var wire  1 % PCsrc $end
   $var wire  1 # RegWrite $end
   $var wire  1 2 ResultSrc $end
   $var wire 32 k a0 [31:0] $end
   $var wire  1 i clk $end
   $var wire 32 / next_PC [31:0] $end
   $var wire  5 ( rd [4:0] $end
   $var wire  5 & rs1 [4:0] $end
   $var wire  5 ' rs2 [4:0] $end
   $var wire  1 j rst $end
   $var wire  1 h trigger $end
   $scope module ALU $end
    $var wire 32 5 ALUOp2 [31:0] $end
    $var wire  1 ) ALUSrc $end
    $var wire  4 * ALU_ctrl [3:0] $end
    $var wire 32 6 ALUout [31:0] $end
    $var wire 32 m Address_Width_RegFile [31:0] $end
    $var wire 32 l Data_Width [31:0] $end
    $var wire 32 . ImmOp [31:0] $end
    $var wire  1 - JumpSel $end
    $var wire  1 1 MemWrite $end
    $var wire 32 7 ReadData [31:0] $end
    $var wire 32 8 ResultSrcOutput [31:0] $end
    $var wire  1 2 SrcSel $end
    $var wire 32 k a0 [31:0] $end
    $var wire  1 i clk $end
    $var wire  2 , dataType [1:0] $end
    $var wire  1 + eq $end
    $var wire 32 / newPC [31:0] $end
    $var wire  5 ( rd [4:0] $end
    $var wire 32 3 rd1 [31:0] $end
    $var wire 32 4 rd2 [31:0] $end
    $var wire  1 # regFileWen $end
    $var wire 32 9 regWrite [31:0] $end
    $var wire  5 & rs1 [4:0] $end
    $var wire  5 ' rs2 [4:0] $end
    $var wire  1 h trigger $end
    $scope module alu1 $end
     $var wire  4 * ALU_ctrl [3:0] $end
     $var wire 32 6 ALUout [31:0] $end
     $var wire 32 l Data_Width [31:0] $end
     $var wire  1 + eq $end
     $var wire 32 3 op1 [31:0] $end
     $var wire 32 5 op2 [31:0] $end
    $upscope $end
    $scope module mux1 $end
     $var wire 32 5 ALUOp2 [31:0] $end
     $var wire  1 ) ALUSrc $end
     $var wire 32 l Data_Width [31:0] $end
     $var wire 32 . ImmOp [31:0] $end
     $var wire 32 4 regOp2 [31:0] $end
    $upscope $end
    $scope module ram1 $end
     $var wire 32 6 A [31:0] $end
     $var wire 32 l ADDRESS_WIDTH [31:0] $end
     $var wire 32 n BYTE_WIDTH [31:0] $end
     $var wire 32 l DATA_WIDTH [31:0] $end
     $var wire 32 7 RD [31:0] $end
     $var wire 32 4 WD [31:0] $end
     $var wire  1 1 WE $end
     $var wire  8 < byteAssign [7:0] $end
     $var wire  1 i clk $end
     $var wire  2 , dataType [1:0] $end
     $var wire 16 = halfwordAssign [15:0] $end
     $var wire  8 : ram_array[-1] [7:0] $end
     $var wire  8 ; ram_array[0] [7:0] $end
    $upscope $end
    $scope module regFile1 $end
     $var wire 32 m Address_Width [31:0] $end
     $var wire 32 l Data_Width [31:0] $end
     $var wire 32 k a0 [31:0] $end
     $var wire  1 i clk $end
     $var wire 32 9 din [31:0] $end
     $var wire  1 # en $end
     $var wire  5 ( rd [4:0] $end
     $var wire 32 3 rd1 [31:0] $end
     $var wire 32 4 rd2 [31:0] $end
     $var wire 32 > regFile_array[0] [31:0] $end
     $var wire 32 H regFile_array[10] [31:0] $end
     $var wire 32 I regFile_array[11] [31:0] $end
     $var wire 32 J regFile_array[12] [31:0] $end
     $var wire 32 K regFile_array[13] [31:0] $end
     $var wire 32 L regFile_array[14] [31:0] $end
     $var wire 32 M regFile_array[15] [31:0] $end
     $var wire 32 N regFile_array[16] [31:0] $end
     $var wire 32 O regFile_array[17] [31:0] $end
     $var wire 32 P regFile_array[18] [31:0] $end
     $var wire 32 Q regFile_array[19] [31:0] $end
     $var wire 32 ? regFile_array[1] [31:0] $end
     $var wire 32 R regFile_array[20] [31:0] $end
     $var wire 32 S regFile_array[21] [31:0] $end
     $var wire 32 T regFile_array[22] [31:0] $end
     $var wire 32 U regFile_array[23] [31:0] $end
     $var wire 32 V regFile_array[24] [31:0] $end
     $var wire 32 W regFile_array[25] [31:0] $end
     $var wire 32 X regFile_array[26] [31:0] $end
     $var wire 32 Y regFile_array[27] [31:0] $end
     $var wire 32 Z regFile_array[28] [31:0] $end
     $var wire 32 [ regFile_array[29] [31:0] $end
     $var wire 32 @ regFile_array[2] [31:0] $end
     $var wire 32 \ regFile_array[30] [31:0] $end
     $var wire 32 ] regFile_array[31] [31:0] $end
     $var wire 32 A regFile_array[3] [31:0] $end
     $var wire 32 B regFile_array[4] [31:0] $end
     $var wire 32 C regFile_array[5] [31:0] $end
     $var wire 32 D regFile_array[6] [31:0] $end
     $var wire 32 E regFile_array[7] [31:0] $end
     $var wire 32 F regFile_array[8] [31:0] $end
     $var wire 32 G regFile_array[9] [31:0] $end
     $var wire  5 & rs1 [4:0] $end
     $var wire  5 ' rs2 [4:0] $end
     $var wire  1 h trigger $end
    $upscope $end
    $scope module resultPCMux1 $end
     $var wire 32 l Data_Width [31:0] $end
     $var wire  1 - JumpSel $end
     $var wire 32 9 Result [31:0] $end
     $var wire 32 8 ResultSrc [31:0] $end
     $var wire 32 / newPC [31:0] $end
    $upscope $end
    $scope module resultSrcMux1 $end
     $var wire 32 6 ALUResult [31:0] $end
     $var wire 32 l Data_Width [31:0] $end
     $var wire 32 8 OutputSrcMux [31:0] $end
     $var wire 32 7 ReadData [31:0] $end
     $var wire  1 2 SrcSel $end
    $upscope $end
   $upscope $end
   $scope module control_unit $end
    $var wire  4 * ALUControl [3:0] $end
    $var wire  2 c ALUOp [1:0] $end
    $var wire  1 ) ALUSrc $end
    $var wire  1 b Branch $end
    $var wire  2 , DataType [1:0] $end
    $var wire  2 0 ImmSrc [1:0] $end
    $var wire  1 - J $end
    $var wire  1 1 MemWrite $end
    $var wire  1 % PCSrc $end
    $var wire  1 # RegWrite $end
    $var wire  1 2 ResultSrc $end
    $var wire  1 + Zero $end
    $var wire  1 a Zero_intermediate $end
    $var wire  3 _ funct3 [2:0] $end
    $var wire  1 ` funct75 $end
    $var wire  7 ^ op [6:0] $end
    $scope module a $end
     $var wire  4 * ALUControl [3:0] $end
     $var wire  2 c ALUOp [1:0] $end
     $var wire  2 , DataType [1:0] $end
     $var wire  3 _ funct3 [2:0] $end
     $var wire  1 ` funct75 $end
    $upscope $end
    $scope module m $end
     $var wire  2 c ALUOp [1:0] $end
     $var wire  1 ) ALUSrc $end
     $var wire  1 b Branch $end
     $var wire  2 0 ImmSrc [1:0] $end
     $var wire  1 - J $end
     $var wire  1 1 MemWrite $end
     $var wire  1 # RegWrite $end
     $var wire  1 2 ResultSrc $end
     $var wire  7 ^ op [6:0] $end
    $upscope $end
   $upscope $end
   $scope module myPC $end
    $var wire 32 l ADDRESS_WIDTH [31:0] $end
    $var wire 32 l DATA_WIDTH [31:0] $end
    $var wire 32 . ImmOp [31:0] $end
    $var wire 32 d PC [31:0] $end
    $var wire  1 % PCsrc $end
    $var wire  1 i clk $end
    $var wire 32 $ instr [31:0] $end
    $var wire 32 / next_PC [31:0] $end
    $var wire  1 j rst $end
    $scope module pcReg $end
     $var wire 32 l ADDRESS_WIDTH [31:0] $end
     $var wire 32 . ImmOp [31:0] $end
     $var wire 32 d PC [31:0] $end
     $var wire  1 % PCsrc $end
     $var wire 32 e alt_PC [31:0] $end
     $var wire  1 i clk $end
     $var wire 32 / inc_PC [31:0] $end
     $var wire 32 f next_PC [31:0] $end
     $var wire 32 / pc_alu [31:0] $end
     $var wire  1 j rst $end
    $upscope $end
    $scope module pcRom $end
     $var wire 32 l ADDRESS_WIDTH [31:0] $end
     $var wire 32 n DATA_WIDTH [31:0] $end
     $var wire 32 d PC [31:0] $end
     $var wire 32 $ instr [31:0] $end
    $upscope $end
   $upscope $end
   $scope module sign_extend $end
    $var wire 32 . ImmExt [31:0] $end
    $var wire  2 0 ImmSrc [1:0] $end
    $var wire 25 g imm [31:7] $end
   $upscope $end
  $upscope $end
 $upscope $end
$enddefinitions $end


#0
0#
b00000000000000000000000000000000 $
0%
b00000 &
b00000 '
b00000 (
0)
b0000 *
0+
b00 ,
0-
b00000000000000000000000000000000 .
b00000000000000000000000000000100 /
b00 0
01
02
b00000000000000000000000000000000 3
b00000000000000000000000000000000 4
b00000000000000000000000000000000 5
b00000000000000000000000000000000 6
b00000000000000000000000000000000 7
b00000000000000000000000000000000 8
b00000000000000000000000000000000 9
b00000000 :
b00000000 ;
b00000000 <
b0000000000000000 =
b00000000000000000000000000000000 >
b00000000000000000000000000000000 ?
b00000000000000000000000000000000 @
b00000000000000000000000000000000 A
b00000000000000000000000000000000 B
b00000000000000000000000000000000 C
b00000000000000000000000000000000 D
b00000000000000000000000000000000 E
b00000000000000000000000000000000 F
b00000000000000000000000000000000 G
b00000000000000000000000000000000 H
b00000000000000000000000000000000 I
b00000000000000000000000000000000 J
b00000000000000000000000000000000 K
b00000000000000000000000000000000 L
b00000000000000000000000000000000 M
b00000000000000000000000000000000 N
b00000000000000000000000000000000 O
b00000000000000000000000000000000 P
b00000000000000000000000000000000 Q
b00000000000000000000000000000000 R
b00000000000000000000000000000000 S
b00000000000000000000000000000000 T
b00000000000000000000000000000000 U
b00000000000000000000000000000000 V
b00000000000000000000000000000000 W
b00000000000000000000000000000000 X
b00000000000000000000000000000000 Y
b00000000000000000000000000000000 Z
b00000000000000000000000000000000 [
b00000000000000000000000000000000 \
b00000000000000000000000000000000 ]
b0000000 ^
b000 _
0`
0a
0b
b00 c
b00000000000000000000000000000000 d
b00000000000000000000000000000000 e
b00000000000000000000000000000100 f
b0000000000000000000000000 g
0h
1i
1j
b00000000000000000000000000000000 k
b00000000000000000000000000100000 l
b00000000000000000000000000000101 m
b00000000000000000000000000001000 n
#1
1#
b00001111111100000000001100010011 $
b11111 '
b00110 (
1)
b00000000000000000000000011111111 .
b00000000000000000000000011111111 5
b00000000000000000000000011111111 6
b00000000000000000000000011111111 8
b00000000000000000000000011111111 9
b0010011 ^
b10 c
b00000000000000000000000011111111 e
b0000111111110000000000110 g
0i
#2
b00000000000000000000000011111111 D
1i
0j
#3
0i
#4
b00000000000000000000000000001000 /
b00000000000000000000000000000100 d
b00000000000000000000000100000011 e
b00000000000000000000000000001000 f
1i
#5
0i
#6
b00000000000000000000010100010011 $
b00000 '
b01010 (
b00000000000000000000000000000000 .
b00000000000000000000000000001100 /
b00000000000000000000000000000000 5
b00000000000000000000000000000000 6
b00000000000000000000000000000000 8
b00000000000000000000000000000000 9
b00000000000000000000000000001000 d
b00000000000000000000000000001000 e
b00000000000000000000000000001100 f
b0000000000000000000001010 g
1i
#7
0i
#8
b00000000000000000000010110010011 $
b01011 (
b00000000000000000000000000010000 /
b00000000000000000000000000001100 d
b00000000000000000000000000001100 e
b00000000000000000000000000010000 f
b0000000000000000000001011 g
1i
#9
0i
#10
b00000000000001011000010100010011 $
b01011 &
b01010 (
b00000000000000000000000000010100 /
b00000000000000000000000000010000 d
b00000000000000000000000000010000 e
b00000000000000000000000000010100 f
b0000000000000101100001010 g
1i
#11
0i
#12
b00000000000101011000010110010011 $
b00001 '
b01011 (
b00000000000000000000000000000001 .
b00000000000000000000000000011000 /
b00000000000000000000000000000001 5
b00000000000000000000000000000001 6
b00000000000000000000000000000001 8
b00000000000000000000000000000001 9
b00000000000000000000000000010100 d
b00000000000000000000000000010101 e
b00000000000000000000000000011000 f
b0000000000010101100001011 g
1i
#13
0i
#14
0#
b11111110011001011001110011100011 $
1%
b00110 '
b11001 (
0)
b0001 *
b11111111111111111111111111111000 .
b00000000000000000000000000011100 /
b10 0
b00000000000000000000000000000001 3
b00000000000000000000000011111111 4
b00000000000000000000000011111111 5
b11111111111111111111111100000010 6
b11111111111111111111111100000010 8
b11111111111111111111111100000010 9
b00000000000000000000000000000001 I
b1100011 ^
b001 _
1`
1a
1b
b01 c
b00000000000000000000000000011000 d
b00000000000000000000000000010000 e
b00000000000000000000000000010000 f
b1111111001100101100111001 g
1i
#15
0i
#16
1#
b00000000000001011000010100010011 $
0%
b00000 '
b01010 (
1)
b0000 *
b00000000000000000000000000000000 .
b00000000000000000000000000010100 /
b00 0
b00000000000000000000000000000000 4
b00000000000000000000000000000000 5
b00000000000000000000000000000001 6
b00000000000000000000000000000001 8
b00000000000000000000000000000001 9
b0010011 ^
b000 _
0`
0a
0b
b10 c
b00000000000000000000000000010000 d
b00000000000000000000000000010100 f
b0000000000000101100001010 g
1i
#17
0i
#18
b00000000000101011000010110010011 $
b00001 '
b01011 (
b00000000000000000000000000000001 .
b00000000000000000000000000011000 /
b00000000000000000000000000000001 5
b00000000000000000000000000000010 6
b00000000000000000000000000000010 8
b00000000000000000000000000000010 9
b00000000000000000000000000000001 H
b00000000000000000000000000010100 d
b00000000000000000000000000010101 e
b00000000000000000000000000011000 f
b0000000000010101100001011 g
1i
b00000000000000000000000000000001 k
#19
0i
#20
0#
b11111110011001011001110011100011 $
1%
b00110 '
b11001 (
0)
b0001 *
b11111111111111111111111111111000 .
b00000000000000000000000000011100 /
b10 0
b00000000000000000000000000000010 3
b00000000000000000000000011111111 4
b00000000000000000000000011111111 5
b11111111111111111111111100000011 6
b11111111111111111111111100000011 8
b11111111111111111111111100000011 9
b00000000000000000000000000000010 I
b1100011 ^
b001 _
1`
1a
1b
b01 c
b00000000000000000000000000011000 d
b00000000000000000000000000010000 e
b00000000000000000000000000010000 f
b1111111001100101100111001 g
1i
#21
0i
#22
1#
b00000000000001011000010100010011 $
0%
b00000 '
b01010 (
1)
b0000 *
b00000000000000000000000000000000 .
b00000000000000000000000000010100 /
b00 0
b00000000000000000000000000000000 4
b00000000000000000000000000000000 5
b00000000000000000000000000000010 6
b00000000000000000000000000000010 8
b00000000000000000000000000000010 9
b0010011 ^
b000 _
0`
0a
0b
b10 c
b00000000000000000000000000010000 d
b00000000000000000000000000010100 f
b0000000000000101100001010 g
1i
#23
0i
#24
b00000000000101011000010110010011 $
b00001 '
b01011 (
b00000000000000000000000000000001 .
b00000000000000000000000000011000 /
b00000000000000000000000000000001 5
b00000000000000000000000000000011 6
b00000000000000000000000000000011 8
b00000000000000000000000000000011 9
b00000000000000000000000000000010 H
b00000000000000000000000000010100 d
b00000000000000000000000000010101 e
b00000000000000000000000000011000 f
b0000000000010101100001011 g
1i
b00000000000000000000000000000010 k
#25
0i
#26
0#
b11111110011001011001110011100011 $
1%
b00110 '
b11001 (
0)
b0001 *
b11111111111111111111111111111000 .
b00000000000000000000000000011100 /
b10 0
b00000000000000000000000000000011 3
b00000000000000000000000011111111 4
b00000000000000000000000011111111 5
b11111111111111111111111100000100 6
b11111111111111111111111100000100 8
b11111111111111111111111100000100 9
b00000000000000000000000000000011 I
b1100011 ^
b001 _
1`
1a
1b
b01 c
b00000000000000000000000000011000 d
b00000000000000000000000000010000 e
b00000000000000000000000000010000 f
b1111111001100101100111001 g
1i
#27
0i
#28
1#
b00000000000001011000010100010011 $
0%
b00000 '
b01010 (
1)
b0000 *
b00000000000000000000000000000000 .
b00000000000000000000000000010100 /
b00 0
b00000000000000000000000000000000 4
b00000000000000000000000000000000 5
b00000000000000000000000000000011 6
b00000000000000000000000000000011 8
b00000000000000000000000000000011 9
b0010011 ^
b000 _
0`
0a
0b
b10 c
b00000000000000000000000000010000 d
b00000000000000000000000000010100 f
b0000000000000101100001010 g
1i
#29
0i
#30
b00000000000101011000010110010011 $
b00001 '
b01011 (
b00000000000000000000000000000001 .
b00000000000000000000000000011000 /
b00000000000000000000000000000001 5
b00000000000000000000000000000100 6
b00000000000000000000000000000100 8
b00000000000000000000000000000100 9
b00000000000000000000000000000011 H
b00000000000000000000000000010100 d
b00000000000000000000000000010101 e
b00000000000000000000000000011000 f
b0000000000010101100001011 g
1i
b00000000000000000000000000000011 k
#31
0i
#32
0#
b11111110011001011001110011100011 $
1%
b00110 '
b11001 (
0)
b0001 *
b11111111111111111111111111111000 .
b00000000000000000000000000011100 /
b10 0
b00000000000000000000000000000100 3
b00000000000000000000000011111111 4
b00000000000000000000000011111111 5
b11111111111111111111111100000101 6
b11111111111111111111111100000101 8
b11111111111111111111111100000101 9
b00000000000000000000000000000100 I
b1100011 ^
b001 _
1`
1a
1b
b01 c
b00000000000000000000000000011000 d
b00000000000000000000000000010000 e
b00000000000000000000000000010000 f
b1111111001100101100111001 g
1i
#33
0i
#34
1#
b00000000000001011000010100010011 $
0%
b00000 '
b01010 (
1)
b0000 *
b00000000000000000000000000000000 .
b00000000000000000000000000010100 /
b00 0
b00000000000000000000000000000000 4
b00000000000000000000000000000000 5
b00000000000000000000000000000100 6
b00000000000000000000000000000100 8
b00000000000000000000000000000100 9
b0010011 ^
b000 _
0`
0a
0b
b10 c
b00000000000000000000000000010000 d
b00000000000000000000000000010100 f
b0000000000000101100001010 g
1i
#35
0i
#36
b00000000000101011000010110010011 $
b00001 '
b01011 (
b00000000000000000000000000000001 .
b00000000000000000000000000011000 /
b00000000000000000000000000000001 5
b00000000000000000000000000000101 6
b00000000000000000000000000000101 8
b00000000000000000000000000000101 9
b00000000000000000000000000000100 H
b00000000000000000000000000010100 d
b00000000000000000000000000010101 e
b00000000000000000000000000011000 f
b0000000000010101100001011 g
1i
b00000000000000000000000000000100 k
#37
0i
#38
0#
b11111110011001011001110011100011 $
1%
b00110 '
b11001 (
0)
b0001 *
b11111111111111111111111111111000 .
b00000000000000000000000000011100 /
b10 0
b00000000000000000000000000000101 3
b00000000000000000000000011111111 4
b00000000000000000000000011111111 5
b11111111111111111111111100000110 6
b11111111111111111111111100000110 8
b11111111111111111111111100000110 9
b00000000000000000000000000000101 I
b1100011 ^
b001 _
1`
1a
1b
b01 c
b00000000000000000000000000011000 d
b00000000000000000000000000010000 e
b00000000000000000000000000010000 f
b1111111001100101100111001 g
1i
#39
0i
#40
1#
b00000000000001011000010100010011 $
0%
b00000 '
b01010 (
1)
b0000 *
b00000000000000000000000000000000 .
b00000000000000000000000000010100 /
b00 0
b00000000000000000000000000000000 4
b00000000000000000000000000000000 5
b00000000000000000000000000000101 6
b00000000000000000000000000000101 8
b00000000000000000000000000000101 9
b0010011 ^
b000 _
0`
0a
0b
b10 c
b00000000000000000000000000010000 d
b00000000000000000000000000010100 f
b0000000000000101100001010 g
1i
#41
0i
#42
b00000000000101011000010110010011 $
b00001 '
b01011 (
b00000000000000000000000000000001 .
b00000000000000000000000000011000 /
b00000000000000000000000000000001 5
b00000000000000000000000000000110 6
b00000000000000000000000000000110 8
b00000000000000000000000000000110 9
b00000000000000000000000000000101 H
b00000000000000000000000000010100 d
b00000000000000000000000000010101 e
b00000000000000000000000000011000 f
b0000000000010101100001011 g
1i
b00000000000000000000000000000101 k
#43
0i
#44
0#
b11111110011001011001110011100011 $
1%
b00110 '
b11001 (
0)
b0001 *
b11111111111111111111111111111000 .
b00000000000000000000000000011100 /
b10 0
b00000000000000000000000000000110 3
b00000000000000000000000011111111 4
b00000000000000000000000011111111 5
b11111111111111111111111100000111 6
b11111111111111111111111100000111 8
b11111111111111111111111100000111 9
b00000000000000000000000000000110 I
b1100011 ^
b001 _
1`
1a
1b
b01 c
b00000000000000000000000000011000 d
b00000000000000000000000000010000 e
b00000000000000000000000000010000 f
b1111111001100101100111001 g
1i
#45
0i
#46
1#
b00000000000001011000010100010011 $
0%
b00000 '
b01010 (
1)
b0000 *
b00000000000000000000000000000000 .
b00000000000000000000000000010100 /
b00 0
b00000000000000000000000000000000 4
b00000000000000000000000000000000 5
b00000000000000000000000000000110 6
b00000000000000000000000000000110 8
b00000000000000000000000000000110 9
b0010011 ^
b000 _
0`
0a
0b
b10 c
b00000000000000000000000000010000 d
b00000000000000000000000000010100 f
b0000000000000101100001010 g
1i
#47
0i
#48
b00000000000101011000010110010011 $
b00001 '
b01011 (
b00000000000000000000000000000001 .
b00000000000000000000000000011000 /
b00000000000000000000000000000001 5
b00000000000000000000000000000111 6
b00000000000000000000000000000111 8
b00000000000000000000000000000111 9
b00000000000000000000000000000110 H
b00000000000000000000000000010100 d
b00000000000000000000000000010101 e
b00000000000000000000000000011000 f
b0000000000010101100001011 g
1i
b00000000000000000000000000000110 k
#49
0i
#50
0#
b11111110011001011001110011100011 $
1%
b00110 '
b11001 (
0)
b0001 *
b11111111111111111111111111111000 .
b00000000000000000000000000011100 /
b10 0
b00000000000000000000000000000111 3
b00000000000000000000000011111111 4
b00000000000000000000000011111111 5
b11111111111111111111111100001000 6
b11111111111111111111111100001000 8
b11111111111111111111111100001000 9
b00000000000000000000000000000111 I
b1100011 ^
b001 _
1`
1a
1b
b01 c
b00000000000000000000000000011000 d
b00000000000000000000000000010000 e
b00000000000000000000000000010000 f
b1111111001100101100111001 g
1i
#51
0i
#52
1#
b00000000000001011000010100010011 $
0%
b00000 '
b01010 (
1)
b0000 *
b00000000000000000000000000000000 .
b00000000000000000000000000010100 /
b00 0
b00000000000000000000000000000000 4
b00000000000000000000000000000000 5
b00000000000000000000000000000111 6
b00000000000000000000000000000111 8
b00000000000000000000000000000111 9
b0010011 ^
b000 _
0`
0a
0b
b10 c
b00000000000000000000000000010000 d
b00000000000000000000000000010100 f
b0000000000000101100001010 g
1i
#53
0i
#54
b00000000000101011000010110010011 $
b00001 '
b01011 (
b00000000000000000000000000000001 .
b00000000000000000000000000011000 /
b00000000000000000000000000000001 5
b00000000000000000000000000001000 6
b00000000000000000000000000001000 8
b00000000000000000000000000001000 9
b00000000000000000000000000000111 H
b00000000000000000000000000010100 d
b00000000000000000000000000010101 e
b00000000000000000000000000011000 f
b0000000000010101100001011 g
1i
b00000000000000000000000000000111 k
#55
0i
#56
0#
b11111110011001011001110011100011 $
1%
b00110 '
b11001 (
0)
b0001 *
b11111111111111111111111111111000 .
b00000000000000000000000000011100 /
b10 0
b00000000000000000000000000001000 3
b00000000000000000000000011111111 4
b00000000000000000000000011111111 5
b11111111111111111111111100001001 6
b11111111111111111111111100001001 8
b11111111111111111111111100001001 9
b00000000000000000000000000001000 I
b1100011 ^
b001 _
1`
1a
1b
b01 c
b00000000000000000000000000011000 d
b00000000000000000000000000010000 e
b00000000000000000000000000010000 f
b1111111001100101100111001 g
1i
#57
0i
#58
1#
b00000000000001011000010100010011 $
0%
b00000 '
b01010 (
1)
b0000 *
b00000000000000000000000000000000 .
b00000000000000000000000000010100 /
b00 0
b00000000000000000000000000000000 4
b00000000000000000000000000000000 5
b00000000000000000000000000001000 6
b00000000000000000000000000001000 8
b00000000000000000000000000001000 9
b0010011 ^
b000 _
0`
0a
0b
b10 c
b00000000000000000000000000010000 d
b00000000000000000000000000010100 f
b0000000000000101100001010 g
1i
#59
0i
#60
b00000000000101011000010110010011 $
b00001 '
b01011 (
b00000000000000000000000000000001 .
b00000000000000000000000000011000 /
b00000000000000000000000000000001 5
b00000000000000000000000000001001 6
b00000000000000000000000000001001 8
b00000000000000000000000000001001 9
b00000000000000000000000000001000 H
b00000000000000000000000000010100 d
b00000000000000000000000000010101 e
b00000000000000000000000000011000 f
b0000000000010101100001011 g
1i
b00000000000000000000000000001000 k
#61
0i
#62
0#
b11111110011001011001110011100011 $
1%
b00110 '
b11001 (
0)
b0001 *
b11111111111111111111111111111000 .
b00000000000000000000000000011100 /
b10 0
b00000000000000000000000000001001 3
b00000000000000000000000011111111 4
b00000000000000000000000011111111 5
b11111111111111111111111100001010 6
b11111111111111111111111100001010 8
b11111111111111111111111100001010 9
b00000000000000000000000000001001 I
b1100011 ^
b001 _
1`
1a
1b
b01 c
b00000000000000000000000000011000 d
b00000000000000000000000000010000 e
b00000000000000000000000000010000 f
b1111111001100101100111001 g
1i
#63
0i
#64
1#
b00000000000001011000010100010011 $
0%
b00000 '
b01010 (
1)
b0000 *
b00000000000000000000000000000000 .
b00000000000000000000000000010100 /
b00 0
b00000000000000000000000000000000 4
b00000000000000000000000000000000 5
b00000000000000000000000000001001 6
b00000000000000000000000000001001 8
b00000000000000000000000000001001 9
b0010011 ^
b000 _
0`
0a
0b
b10 c
b00000000000000000000000000010000 d
b00000000000000000000000000010100 f
b0000000000000101100001010 g
1i
#65
0i
#66
b00000000000101011000010110010011 $
b00001 '
b01011 (
b00000000000000000000000000000001 .
b00000000000000000000000000011000 /
b00000000000000000000000000000001 5
b00000000000000000000000000001010 6
b00000000000000000000000000001010 8
b00000000000000000000000000001010 9
b00000000000000000000000000001001 H
b00000000000000000000000000010100 d
b00000000000000000000000000010101 e
b00000000000000000000000000011000 f
b0000000000010101100001011 g
1i
b00000000000000000000000000001001 k
#67
0i
#68
0#
b11111110011001011001110011100011 $
1%
b00110 '
b11001 (
0)
b0001 *
b11111111111111111111111111111000 .
b00000000000000000000000000011100 /
b10 0
b00000000000000000000000000001010 3
b00000000000000000000000011111111 4
b00000000000000000000000011111111 5
b11111111111111111111111100001011 6
b11111111111111111111111100001011 8
b11111111111111111111111100001011 9
b00000000000000000000000000001010 I
b1100011 ^
b001 _
1`
1a
1b
b01 c
b00000000000000000000000000011000 d
b00000000000000000000000000010000 e
b00000000000000000000000000010000 f
b1111111001100101100111001 g
1i
#69
0i
#70
1#
b00000000000001011000010100010011 $
0%
b00000 '
b01010 (
1)
b0000 *
b00000000000000000000000000000000 .
b00000000000000000000000000010100 /
b00 0
b00000000000000000000000000000000 4
b00000000000000000000000000000000 5
b00000000000000000000000000001010 6
b00000000000000000000000000001010 8
b00000000000000000000000000001010 9
b0010011 ^
b000 _
0`
0a
0b
b10 c
b00000000000000000000000000010000 d
b00000000000000000000000000010100 f
b0000000000000101100001010 g
1i
#71
0i
#72
b00000000000101011000010110010011 $
b00001 '
b01011 (
b00000000000000000000000000000001 .
b00000000000000000000000000011000 /
b00000000000000000000000000000001 5
b00000000000000000000000000001011 6
b00000000000000000000000000001011 8
b00000000000000000000000000001011 9
b00000000000000000000000000001010 H
b00000000000000000000000000010100 d
b00000000000000000000000000010101 e
b00000000000000000000000000011000 f
b0000000000010101100001011 g
1i
b00000000000000000000000000001010 k
#73
0i
#74
0#
b11111110011001011001110011100011 $
1%
b00110 '
b11001 (
0)
b0001 *
b11111111111111111111111111111000 .
b00000000000000000000000000011100 /
b10 0
b00000000000000000000000000001011 3
b00000000000000000000000011111111 4
b00000000000000000000000011111111 5
b11111111111111111111111100001100 6
b11111111111111111111111100001100 8
b11111111111111111111111100001100 9
b00000000000000000000000000001011 I
b1100011 ^
b001 _
1`
1a
1b
b01 c
b00000000000000000000000000011000 d
b00000000000000000000000000010000 e
b00000000000000000000000000010000 f
b1111111001100101100111001 g
1i
#75
0i
#76
1#
b00000000000001011000010100010011 $
0%
b00000 '
b01010 (
1)
b0000 *
b00000000000000000000000000000000 .
b00000000000000000000000000010100 /
b00 0
b00000000000000000000000000000000 4
b00000000000000000000000000000000 5
b00000000000000000000000000001011 6
b00000000000000000000000000001011 8
b00000000000000000000000000001011 9
b0010011 ^
b000 _
0`
0a
0b
b10 c
b00000000000000000000000000010000 d
b00000000000000000000000000010100 f
b0000000000000101100001010 g
1i
#77
0i
#78
b00000000000101011000010110010011 $
b00001 '
b01011 (
b00000000000000000000000000000001 .
b00000000000000000000000000011000 /
b00000000000000000000000000000001 5
b00000000000000000000000000001100 6
b00000000000000000000000000001100 8
b00000000000000000000000000001100 9
b00000000000000000000000000001011 H
b00000000000000000000000000010100 d
b00000000000000000000000000010101 e
b00000000000000000000000000011000 f
b0000000000010101100001011 g
1i
b00000000000000000000000000001011 k
#79
0i
#80
0#
b11111110011001011001110011100011 $
1%
b00110 '
b11001 (
0)
b0001 *
b11111111111111111111111111111000 .
b00000000000000000000000000011100 /
b10 0
b00000000000000000000000000001100 3
b00000000000000000000000011111111 4
b00000000000000000000000011111111 5
b11111111111111111111111100001101 6
b11111111111111111111111100001101 8
b11111111111111111111111100001101 9
b00000000000000000000000000001100 I
b1100011 ^
b001 _
1`
1a
1b
b01 c
b00000000000000000000000000011000 d
b00000000000000000000000000010000 e
b00000000000000000000000000010000 f
b1111111001100101100111001 g
1i
#81
0i
#82
1#
b00000000000001011000010100010011 $
0%
b00000 '
b01010 (
1)
b0000 *
b00000000000000000000000000000000 .
b00000000000000000000000000010100 /
b00 0
b00000000000000000000000000000000 4
b00000000000000000000000000000000 5
b00000000000000000000000000001100 6
b00000000000000000000000000001100 8
b00000000000000000000000000001100 9
b0010011 ^
b000 _
0`
0a
0b
b10 c
b00000000000000000000000000010000 d
b00000000000000000000000000010100 f
b0000000000000101100001010 g
1i
#83
0i
#84
b00000000000101011000010110010011 $
b00001 '
b01011 (
b00000000000000000000000000000001 .
b00000000000000000000000000011000 /
b00000000000000000000000000000001 5
b00000000000000000000000000001101 6
b00000000000000000000000000001101 8
b00000000000000000000000000001101 9
b00000000000000000000000000001100 H
b00000000000000000000000000010100 d
b00000000000000000000000000010101 e
b00000000000000000000000000011000 f
b0000000000010101100001011 g
1i
b00000000000000000000000000001100 k
#85
0i
