top.vcd
$version Generated by VerilatedVcd $end
$date Thu Dec  8 21:38:43 2022 $end
$timescale 1ps $end

 $scope module TOP $end
  $var wire 32 m a0 [31:0] $end
  $var wire  1 k clk $end
  $var wire  1 l rst $end
  $var wire  1 j trigger $end
  $scope module top $end
   $var wire 32 n ADDRESS_WIDTH [31:0] $end
   $var wire  1 ) ALUSrc $end
   $var wire  4 * ALU_ctrl [3:0] $end
   $var wire 32 n DATA_WIDTH [31:0] $end
   $var wire  2 , DataType [1:0] $end
   $var wire  1 + EQ $end
   $var wire 32 . ImmOp [31:0] $end
   $var wire  3 1 ImmSrc [2:0] $end
   $var wire  2 - J [1:0] $end
   $var wire  1 4 JumpSel $end
   $var wire  1 2 MemWrite $end
   $var wire 32 $ PC_instr [31:0] $end
   $var wire  1 % PCsrc $end
   $var wire  1 # RegWrite $end
   $var wire  1 3 ResultSrc $end
   $var wire 32 m a0 [31:0] $end
   $var wire  1 k clk $end
   $var wire 32 / jalr_PC [31:0] $end
   $var wire 32 0 next_PC [31:0] $end
   $var wire  5 ( rd [4:0] $end
   $var wire  5 & rs1 [4:0] $end
   $var wire  5 ' rs2 [4:0] $end
   $var wire  1 l rst $end
   $var wire  1 j trigger $end
   $scope module ALU $end
    $var wire 32 7 ALUOp2 [31:0] $end
    $var wire  1 ) ALUSrc $end
    $var wire  4 * ALU_ctrl [3:0] $end
    $var wire 32 8 ALUout [31:0] $end
    $var wire 32 o Address_Width_RegFile [31:0] $end
    $var wire 32 n Data_Width [31:0] $end
    $var wire 32 . ImmOp [31:0] $end
    $var wire  1 4 JumpSel $end
    $var wire  1 2 MemWrite $end
    $var wire 32 9 ReadData [31:0] $end
    $var wire 32 : ResultSrcOutput [31:0] $end
    $var wire  1 3 SrcSel $end
    $var wire 32 m a0 [31:0] $end
    $var wire  1 k clk $end
    $var wire  2 , dataType [1:0] $end
    $var wire  1 + eq $end
    $var wire 32 / jalrOutput [31:0] $end
    $var wire 32 0 newPC [31:0] $end
    $var wire  5 ( rd [4:0] $end
    $var wire 32 5 rd1 [31:0] $end
    $var wire 32 6 rd2 [31:0] $end
    $var wire  1 # regFileWen $end
    $var wire 32 ; regWrite [31:0] $end
    $var wire  5 & rs1 [4:0] $end
    $var wire  5 ' rs2 [4:0] $end
    $var wire  1 j trigger $end
    $scope module alu1 $end
     $var wire  4 * ALU_ctrl [3:0] $end
     $var wire 32 8 ALUout [31:0] $end
     $var wire 32 n Data_Width [31:0] $end
     $var wire  1 + eq $end
     $var wire 32 / jalrOutput [31:0] $end
     $var wire 32 5 op1 [31:0] $end
     $var wire 32 7 op2 [31:0] $end
    $upscope $end
    $scope module mux1 $end
     $var wire 32 7 ALUOp2 [31:0] $end
     $var wire  1 ) ALUSrc $end
     $var wire 32 n Data_Width [31:0] $end
     $var wire 32 . ImmOp [31:0] $end
     $var wire 32 6 regOp2 [31:0] $end
    $upscope $end
    $scope module ram1 $end
     $var wire 32 8 A [31:0] $end
     $var wire 32 n ADDRESS_WIDTH [31:0] $end
     $var wire 32 p BYTE_WIDTH [31:0] $end
     $var wire 32 n DATA_WIDTH [31:0] $end
     $var wire 32 9 RD [31:0] $end
     $var wire 32 6 WD [31:0] $end
     $var wire  1 2 WE $end
     $var wire  8 > byteAssign [7:0] $end
     $var wire  1 k clk $end
     $var wire  2 , dataType [1:0] $end
     $var wire 16 ? halfwordAssign [15:0] $end
     $var wire  8 < ram_array[-1] [7:0] $end
     $var wire  8 = ram_array[0] [7:0] $end
    $upscope $end
    $scope module regFile1 $end
     $var wire 32 o Address_Width [31:0] $end
     $var wire 32 n Data_Width [31:0] $end
     $var wire 32 m a0 [31:0] $end
     $var wire  1 k clk $end
     $var wire 32 ; din [31:0] $end
     $var wire  1 # en $end
     $var wire  5 ( rd [4:0] $end
     $var wire 32 5 rd1 [31:0] $end
     $var wire 32 6 rd2 [31:0] $end
     $var wire 32 @ regFile_array[0] [31:0] $end
     $var wire 32 J regFile_array[10] [31:0] $end
     $var wire 32 K regFile_array[11] [31:0] $end
     $var wire 32 L regFile_array[12] [31:0] $end
     $var wire 32 M regFile_array[13] [31:0] $end
     $var wire 32 N regFile_array[14] [31:0] $end
     $var wire 32 O regFile_array[15] [31:0] $end
     $var wire 32 P regFile_array[16] [31:0] $end
     $var wire 32 Q regFile_array[17] [31:0] $end
     $var wire 32 R regFile_array[18] [31:0] $end
     $var wire 32 S regFile_array[19] [31:0] $end
     $var wire 32 A regFile_array[1] [31:0] $end
     $var wire 32 T regFile_array[20] [31:0] $end
     $var wire 32 U regFile_array[21] [31:0] $end
     $var wire 32 V regFile_array[22] [31:0] $end
     $var wire 32 W regFile_array[23] [31:0] $end
     $var wire 32 X regFile_array[24] [31:0] $end
     $var wire 32 Y regFile_array[25] [31:0] $end
     $var wire 32 Z regFile_array[26] [31:0] $end
     $var wire 32 [ regFile_array[27] [31:0] $end
     $var wire 32 \ regFile_array[28] [31:0] $end
     $var wire 32 ] regFile_array[29] [31:0] $end
     $var wire 32 B regFile_array[2] [31:0] $end
     $var wire 32 ^ regFile_array[30] [31:0] $end
     $var wire 32 _ regFile_array[31] [31:0] $end
     $var wire 32 C regFile_array[3] [31:0] $end
     $var wire 32 D regFile_array[4] [31:0] $end
     $var wire 32 E regFile_array[5] [31:0] $end
     $var wire 32 F regFile_array[6] [31:0] $end
     $var wire 32 G regFile_array[7] [31:0] $end
     $var wire 32 H regFile_array[8] [31:0] $end
     $var wire 32 I regFile_array[9] [31:0] $end
     $var wire  5 & rs1 [4:0] $end
     $var wire  5 ' rs2 [4:0] $end
     $var wire  1 j trigger $end
    $upscope $end
    $scope module resultPCMux1 $end
     $var wire 32 n Data_Width [31:0] $end
     $var wire  1 4 JumpSel $end
     $var wire 32 ; Result [31:0] $end
     $var wire 32 : ResultSrc [31:0] $end
     $var wire 32 0 newPC [31:0] $end
    $upscope $end
    $scope module resultSrcMux1 $end
     $var wire 32 8 ALUResult [31:0] $end
     $var wire 32 n Data_Width [31:0] $end
     $var wire 32 : OutputSrcMux [31:0] $end
     $var wire 32 9 ReadData [31:0] $end
     $var wire  1 3 SrcSel $end
    $upscope $end
   $upscope $end
   $scope module control_unit $end
    $var wire  4 * ALUControl [3:0] $end
    $var wire  2 e ALUOp [1:0] $end
    $var wire  1 ) ALUSrc $end
    $var wire  1 d Branch $end
    $var wire  2 , DataType [1:0] $end
    $var wire  3 1 ImmSrc [2:0] $end
    $var wire  2 - J [1:0] $end
    $var wire  1 2 MemWrite $end
    $var wire  1 % PCSrc $end
    $var wire  1 # RegWrite $end
    $var wire  1 3 ResultSrc $end
    $var wire  1 + Zero $end
    $var wire  1 c Zero_intermediate $end
    $var wire  3 a funct3 [2:0] $end
    $var wire  1 b funct75 $end
    $var wire  7 ` op [6:0] $end
    $scope module a $end
     $var wire  4 * ALUControl [3:0] $end
     $var wire  2 e ALUOp [1:0] $end
     $var wire  2 , DataType [1:0] $end
     $var wire  3 a funct3 [2:0] $end
     $var wire  1 b funct75 $end
    $upscope $end
    $scope module m $end
     $var wire  2 e ALUOp [1:0] $end
     $var wire  1 ) ALUSrc $end
     $var wire  1 d Branch $end
     $var wire  3 1 ImmSrc [2:0] $end
     $var wire  2 - J [1:0] $end
     $var wire  1 2 MemWrite $end
     $var wire  1 # RegWrite $end
     $var wire  1 3 ResultSrc $end
     $var wire  7 ` op [6:0] $end
    $upscope $end
   $upscope $end
   $scope module myPC $end
    $var wire 32 n ADDRESS_WIDTH [31:0] $end
    $var wire 32 n DATA_WIDTH [31:0] $end
    $var wire 32 . ImmOp [31:0] $end
    $var wire  2 - J [1:0] $end
    $var wire 32 f PC [31:0] $end
    $var wire  1 % PCsrc $end
    $var wire  1 k clk $end
    $var wire 32 $ instr [31:0] $end
    $var wire 32 / jalr_PC [31:0] $end
    $var wire 32 0 next_PC [31:0] $end
    $var wire  1 l rst $end
    $scope module pcReg $end
     $var wire 32 n ADDRESS_WIDTH [31:0] $end
     $var wire 32 . ImmOp [31:0] $end
     $var wire  2 - J [1:0] $end
     $var wire 32 f PC [31:0] $end
     $var wire  1 % PCsrc $end
     $var wire 32 g alt_PC [31:0] $end
     $var wire  1 k clk $end
     $var wire 32 0 inc_PC [31:0] $end
     $var wire 32 / jalr_PC [31:0] $end
     $var wire 32 h next_PC [31:0] $end
     $var wire 32 0 pc_alu [31:0] $end
     $var wire  1 l rst $end
    $upscope $end
    $scope module pcRom $end
     $var wire 32 n ADDRESS_WIDTH [31:0] $end
     $var wire 32 p DATA_WIDTH [31:0] $end
     $var wire 32 f PC [31:0] $end
     $var wire 32 $ instr [31:0] $end
    $upscope $end
   $upscope $end
   $scope module sign_extend $end
    $var wire 32 . ImmExt [31:0] $end
    $var wire  3 1 ImmSrc [2:0] $end
    $var wire 25 i imm [31:7] $end
   $upscope $end
  $upscope $end
 $upscope $end
$enddefinitions $end


#0
0#
b00000000000000000000000000000000 $
0%
b00000 &
b00000 '
b00000 (
0)
b0000 *
0+
b00 ,
b00 -
b00000000000000000000000000000000 .
b00000000000000000000000000000000 /
b00000000000000000000000000000100 0
b000 1
02
03
04
b00000000000000000000000000000000 5
b00000000000000000000000000000000 6
b00000000000000000000000000000000 7
b00000000000000000000000000000000 8
b00000000000000000000000000000000 9
b00000000000000000000000000000000 :
b00000000000000000000000000000000 ;
b00000000 <
b00000000 =
b00000000 >
b0000000000000000 ?
b00000000000000000000000000000000 @
b00000000000000000000000000000000 A
b00000000000000000000000000000000 B
b00000000000000000000000000000000 C
b00000000000000000000000000000000 D
b00000000000000000000000000000000 E
b00000000000000000000000000000000 F
b00000000000000000000000000000000 G
b00000000000000000000000000000000 H
b00000000000000000000000000000000 I
b00000000000000000000000000000000 J
b00000000000000000000000000000000 K
b00000000000000000000000000000000 L
b00000000000000000000000000000000 M
b00000000000000000000000000000000 N
b00000000000000000000000000000000 O
b00000000000000000000000000000000 P
b00000000000000000000000000000000 Q
b00000000000000000000000000000000 R
b00000000000000000000000000000000 S
b00000000000000000000000000000000 T
b00000000000000000000000000000000 U
b00000000000000000000000000000000 V
b00000000000000000000000000000000 W
b00000000000000000000000000000000 X
b00000000000000000000000000000000 Y
b00000000000000000000000000000000 Z
b00000000000000000000000000000000 [
b00000000000000000000000000000000 \
b00000000000000000000000000000000 ]
b00000000000000000000000000000000 ^
b00000000000000000000000000000000 _
b0000000 `
b000 a
0b
0c
0d
b00 e
b00000000000000000000000000000000 f
b00000000000000000000000000000000 g
b00000000000000000000000000000100 h
b0000000000000000000000000 i
0j
1k
1l
b00000000000000000000000000000000 m
b00000000000000000000000000100000 n
b00000000000000000000000000000101 o
b00000000000000000000000000001000 p
#1
1#
b00000000000111110000111100010011 $
b11110 &
b00001 '
b11110 (
1)
b00000000000000000000000000000001 .
b00000000000000000000000000000001 /
b00000000000000000000000000000001 7
b00000000000000000000000000000001 8
b00000000000000000000000000000001 :
b00000000000000000000000000000001 ;
b0010011 `
b10 e
b00000000000000000000000000000001 g
b0000000000011111000011110 i
0k
#2
b00000000000000000000000000000010 /
b00000000000000000000000000000001 5
b00000000000000000000000000000010 8
b00000000000000000000000000000010 :
b00000000000000000000000000000010 ;
b00000000000000000000000000000001 ^
1k
0l
#3
0k
#4
b00000000111000000000100000010011 $
b00000 &
b01110 '
b10000 (
b00000000000000000000000000001110 .
b00000000000000000000000000001110 /
b00000000000000000000000000001000 0
b00000000000000000000000000000000 5
b00000000000000000000000000001110 7
b00000000000000000000000000001110 8
b00000000000000000000000000001110 :
b00000000000000000000000000001110 ;
b00000000000000000000000000000010 ^
b00000000000000000000000000000100 f
b00000000000000000000000000010010 g
b00000000000000000000000000001000 h
b0000000011100000000010000 i
1k
#5
0k
#6
b00000000110000000000000011101111 $
1%
b01100 '
b00001 (
0)
b01 ,
b01 -
b00000000000000000000000000001100 .
b00000000000000000000000000000000 /
b00000000000000000000000000001100 0
b011 1
14
b00000000000000000000000000000000 7
b00000000000000000000000000000000 8
b00000000000000000000000000000000 :
b00000000000000000000000000001100 ;
b00000000000000000000000000001110 P
b1101111 `
b00 e
b00000000000000000000000000001000 f
b00000000000000000000000000010100 g
b00000000000000000000000000010100 h
b0000000011000000000000001 i
1k
#7
0k
#8
b01000001111010000000100000110011 $
0%
b10000 &
b11110 '
b10000 (
b0001 *
b00 -
b00000000000000000000010000011110 .
b00000000000000000000000000011000 0
b000 1
04
b00000000000000000000000000001110 5
b00000000000000000000000000000010 6
b00000000000000000000000000000010 7
b00000000000000000000000000001100 8
b00000000000000000000000000001100 :
b00000000000000000000000000001100 A
b0110011 `
1b
b10 e
b00000000000000000000000000010100 f
b00000000000000000000010000110010 g
b00000000000000000000000000011000 h
b0100000111101000000010000 i
1k
#9
0k
#10
0#
b11111110000010000001111011100011 $
1%
b00000 '
b11101 (
b11111111111111111111111111111100 .
b00000000000000000000000000011100 0
b010 1
b00000000000000000000000000001100 5
b00000000000000000000000000000000 6
b00000000000000000000000000000000 7
b00000000000000000000000000001100 P
b1100011 `
b001 a
1c
1d
b01 e
b00000000000000000000000000011000 f
b00000000000000000000000000010100 g
b00000000000000000000000000010100 h
b1111111000001000000111101 i
1k
#11
0k
#12
1#
b01000001111010000000100000110011 $
0%
b11110 '
b10000 (
b00000000000000000000010000011110 .
b00000000000000000000000000011000 0
b000 1
b00000000000000000000000000000010 6
b00000000000000000000000000000010 7
b00000000000000000000000000001010 8
b00000000000000000000000000001010 :
b00000000000000000000000000001010 ;
b0110011 `
b000 a
0c
0d
b10 e
b00000000000000000000000000010100 f
b00000000000000000000010000110010 g
b00000000000000000000000000011000 h
b0100000111101000000010000 i
1k
#13
0k
#14
0#
b11111110000010000001111011100011 $
1%
b00000 '
b11101 (
b11111111111111111111111111111100 .
b00000000000000000000000000011100 0
b010 1
b00000000000000000000000000001010 5
b00000000000000000000000000000000 6
b00000000000000000000000000000000 7
b00000000000000000000000000001010 P
b1100011 `
b001 a
1c
1d
b01 e
b00000000000000000000000000011000 f
b00000000000000000000000000010100 g
b00000000000000000000000000010100 h
b1111111000001000000111101 i
1k
#15
0k
#16
1#
b01000001111010000000100000110011 $
0%
b11110 '
b10000 (
b00000000000000000000010000011110 .
b00000000000000000000000000011000 0
b000 1
b00000000000000000000000000000010 6
b00000000000000000000000000000010 7
b00000000000000000000000000001000 8
b00000000000000000000000000001000 :
b00000000000000000000000000001000 ;
b0110011 `
b000 a
0c
0d
b10 e
b00000000000000000000000000010100 f
b00000000000000000000010000110010 g
b00000000000000000000000000011000 h
b0100000111101000000010000 i
1k
#17
0k
#18
0#
b11111110000010000001111011100011 $
1%
b00000 '
b11101 (
b11111111111111111111111111111100 .
b00000000000000000000000000011100 0
b010 1
b00000000000000000000000000001000 5
b00000000000000000000000000000000 6
b00000000000000000000000000000000 7
b00000000000000000000000000001000 P
b1100011 `
b001 a
1c
1d
b01 e
b00000000000000000000000000011000 f
b00000000000000000000000000010100 g
b00000000000000000000000000010100 h
b1111111000001000000111101 i
1k
#19
0k
#20
1#
b01000001111010000000100000110011 $
0%
b11110 '
b10000 (
b00000000000000000000010000011110 .
b00000000000000000000000000011000 0
b000 1
b00000000000000000000000000000010 6
b00000000000000000000000000000010 7
b00000000000000000000000000000110 8
b00000000000000000000000000000110 :
b00000000000000000000000000000110 ;
b0110011 `
b000 a
0c
0d
b10 e
b00000000000000000000000000010100 f
b00000000000000000000010000110010 g
b00000000000000000000000000011000 h
b0100000111101000000010000 i
1k
#21
0k
#22
0#
b11111110000010000001111011100011 $
1%
b00000 '
b11101 (
b11111111111111111111111111111100 .
b00000000000000000000000000011100 0
b010 1
b00000000000000000000000000000110 5
b00000000000000000000000000000000 6
b00000000000000000000000000000000 7
b00000000000000000000000000000110 P
b1100011 `
b001 a
1c
1d
b01 e
b00000000000000000000000000011000 f
b00000000000000000000000000010100 g
b00000000000000000000000000010100 h
b1111111000001000000111101 i
1k
#23
0k
#24
1#
b01000001111010000000100000110011 $
0%
b11110 '
b10000 (
b00000000000000000000010000011110 .
b00000000000000000000000000011000 0
b000 1
b00000000000000000000000000000010 6
b00000000000000000000000000000010 7
b00000000000000000000000000000100 8
b00000000000000000000000000000100 :
b00000000000000000000000000000100 ;
b0110011 `
b000 a
0c
0d
b10 e
b00000000000000000000000000010100 f
b00000000000000000000010000110010 g
b00000000000000000000000000011000 h
b0100000111101000000010000 i
1k
#25
0k
#26
0#
b11111110000010000001111011100011 $
1%
b00000 '
b11101 (
b11111111111111111111111111111100 .
b00000000000000000000000000011100 0
b010 1
b00000000000000000000000000000100 5
b00000000000000000000000000000000 6
b00000000000000000000000000000000 7
b00000000000000000000000000000100 P
b1100011 `
b001 a
1c
1d
b01 e
b00000000000000000000000000011000 f
b00000000000000000000000000010100 g
b00000000000000000000000000010100 h
b1111111000001000000111101 i
1k
#27
0k
#28
1#
b01000001111010000000100000110011 $
0%
b11110 '
b10000 (
b00000000000000000000010000011110 .
b00000000000000000000000000011000 0
b000 1
b00000000000000000000000000000010 6
b00000000000000000000000000000010 7
b00000000000000000000000000000010 8
b00000000000000000000000000000010 :
b00000000000000000000000000000010 ;
b0110011 `
b000 a
0c
0d
b10 e
b00000000000000000000000000010100 f
b00000000000000000000010000110010 g
b00000000000000000000000000011000 h
b0100000111101000000010000 i
1k
#29
0k
#30
0#
b11111110000010000001111011100011 $
1%
b00000 '
b11101 (
b11111111111111111111111111111100 .
b00000000000000000000000000011100 0
b010 1
b00000000000000000000000000000010 5
b00000000000000000000000000000000 6
b00000000000000000000000000000000 7
b00000000000000000000000000000010 P
b1100011 `
b001 a
1c
1d
b01 e
b00000000000000000000000000011000 f
b00000000000000000000000000010100 g
b00000000000000000000000000010100 h
b1111111000001000000111101 i
1k
#31
0k
#32
1#
b01000001111010000000100000110011 $
0%
b11110 '
b10000 (
1+
b00000000000000000000010000011110 .
b00000000000000000000000000011000 0
b000 1
b00000000000000000000000000000010 6
b00000000000000000000000000000010 7
b00000000000000000000000000000000 8
b00000000000000000000000000000000 :
b00000000000000000000000000000000 ;
b0110011 `
b000 a
0d
b10 e
b00000000000000000000000000010100 f
b00000000000000000000010000110010 g
b00000000000000000000000000011000 h
b0100000111101000000010000 i
1k
#33
0k
#34
0#
b11111110000010000001111011100011 $
b00000 '
b11101 (
b11111111111111111111111111111100 .
b00000000000000000000000000011100 0
b010 1
b00000000000000000000000000000000 5
b00000000000000000000000000000000 6
b00000000000000000000000000000000 7
b00000000000000000000000000000000 P
b1100011 `
b001 a
0c
1d
b01 e
b00000000000000000000000000011000 f
b00000000000000000000000000010100 g
b00000000000000000000000000011100 h
b1111111000001000000111101 i
1k
#35
0k
#36
1#
b00000000000000001000000001100111 $
b00001 &
b00000 (
1)
b0000 *
0+
b10 -
b00000000000000000000000000000000 .
b00000000000000000000000000001100 /
b00000000000000000000000000100000 0
b100 1
14
b00000000000000000000000000001100 5
b00000000000000000000000000001100 8
b00000000000000000000000000001100 :
b00000000000000000000000000100000 ;
b1100111 `
b000 a
0b
0d
b10 e
b00000000000000000000000000011100 f
b00000000000000000000000000011100 g
b00000000000000000000000000001100 h
b0000000000000000100000000 i
1k
#37
0k
#38
b00000000000101010000010100010011 $
b01010 &
b00001 '
b01010 (
b00 -
b00000000000000000000000000000001 .
b00000000000000000000000000000001 /
b00000000000000000000000000010000 0
b000 1
04
b00000000000000000000000000000000 5
b00000000000000000000000000001100 6
b00000000000000000000000000000001 7
b00000000000000000000000000000001 8
b00000000000000000000000000000001 :
b00000000000000000000000000000001 ;
b0010011 `
b00000000000000000000000000001100 f
b00000000000000000000000000001101 g
b00000000000000000000000000010000 h
b0000000000010101000001010 i
1k
#39
0k
#40
b00000001000000000000000011101111 $
1%
b00000 &
b10000 '
b00001 (
0)
b01 -
b00000000000000000000000000010000 .
b00000000000000000000000000000000 /
b00000000000000000000000000010100 0
b011 1
14
b00000000000000000000000000000000 6
b00000000000000000000000000000000 7
b00000000000000000000000000000000 8
b00000000000000000000000000000000 :
b00000000000000000000000000010100 ;
b00000000000000000000000000000001 J
b1101111 `
b00 e
b00000000000000000000000000010000 f
b00000000000000000000000000100000 g
b00000000000000000000000000100000 h
b0000000100000000000000001 i
1k
b00000000000000000000000000000001 m
#41
0k
#42
0#
b00000000000000000000000000000000 $
0%
b00000 '
b00000 (
b00 -
b00000000000000000000000000000000 .
b00000000000000000000000000100100 0
b000 1
04
b00000000000000000000000000000000 ;
b00000000000000000000000000010100 A
b0000000 `
b00000000000000000000000000100000 f
b00000000000000000000000000100100 h
b0000000000000000000000000 i
1k
#43
0k
#44
b00000000000000000000000000101000 0
b00000000000000000000000000100100 f
b00000000000000000000000000100100 g
b00000000000000000000000000101000 h
1k
#45
0k
#46
b00000000000000000000000000101100 0
b00000000000000000000000000101000 f
b00000000000000000000000000101000 g
b00000000000000000000000000101100 h
1k
#47
0k
#48
b00000000000000000000000000110000 0
b00000000000000000000000000101100 f
b00000000000000000000000000101100 g
b00000000000000000000000000110000 h
1k
#49
0k
#50
b00000000000000000000000000110100 0
b00000000000000000000000000110000 f
b00000000000000000000000000110000 g
b00000000000000000000000000110100 h
1k
#51
0k
#52
b00000000000000000000000000111000 0
b00000000000000000000000000110100 f
b00000000000000000000000000110100 g
b00000000000000000000000000111000 h
1k
#53
0k
#54
b00000000000000000000000000111100 0
b00000000000000000000000000111000 f
b00000000000000000000000000111000 g
b00000000000000000000000000111100 h
1k
#55
0k
#56
b00000000000000000000000001000000 0
b00000000000000000000000000111100 f
b00000000000000000000000000111100 g
b00000000000000000000000001000000 h
1k
#57
0k
#58
b00000000000000000000000001000100 0
b00000000000000000000000001000000 f
b00000000000000000000000001000000 g
b00000000000000000000000001000100 h
1k
#59
0k
#60
b00000000000000000000000001001000 0
b00000000000000000000000001000100 f
b00000000000000000000000001000100 g
b00000000000000000000000001001000 h
1k
#61
0k
#62
b00000000000000000000000001001100 0
b00000000000000000000000001001000 f
b00000000000000000000000001001000 g
b00000000000000000000000001001100 h
1k
#63
0k
#64
b00000000000000000000000001010000 0
b00000000000000000000000001001100 f
b00000000000000000000000001001100 g
b00000000000000000000000001010000 h
1k
#65
0k
#66
b00000000000000000000000001010100 0
b00000000000000000000000001010000 f
b00000000000000000000000001010000 g
b00000000000000000000000001010100 h
1k
#67
0k
#68
b00000000000000000000000001011000 0
b00000000000000000000000001010100 f
b00000000000000000000000001010100 g
b00000000000000000000000001011000 h
1k
#69
0k
#70
b00000000000000000000000001011100 0
b00000000000000000000000001011000 f
b00000000000000000000000001011000 g
b00000000000000000000000001011100 h
1k
#71
0k
#72
b00000000000000000000000001100000 0
b00000000000000000000000001011100 f
b00000000000000000000000001011100 g
b00000000000000000000000001100000 h
1k
#73
0k
#74
b00000000000000000000000001100100 0
b00000000000000000000000001100000 f
b00000000000000000000000001100000 g
b00000000000000000000000001100100 h
1k
#75
0k
#76
b00000000000000000000000001101000 0
b00000000000000000000000001100100 f
b00000000000000000000000001100100 g
b00000000000000000000000001101000 h
1k
#77
0k
#78
b00000000000000000000000001101100 0
b00000000000000000000000001101000 f
b00000000000000000000000001101000 g
b00000000000000000000000001101100 h
1k
#79
0k
#80
b00000000000000000000000001110000 0
b00000000000000000000000001101100 f
b00000000000000000000000001101100 g
b00000000000000000000000001110000 h
1k
#81
0k
#82
b00000000000000000000000001110100 0
b00000000000000000000000001110000 f
b00000000000000000000000001110000 g
b00000000000000000000000001110100 h
1k
#83
0k
#84
b00000000000000000000000001111000 0
b00000000000000000000000001110100 f
b00000000000000000000000001110100 g
b00000000000000000000000001111000 h
1k
#85
0k
#86
b00000000000000000000000001111100 0
b00000000000000000000000001111000 f
b00000000000000000000000001111000 g
b00000000000000000000000001111100 h
1k
#87
0k
#88
b00000000000000000000000010000000 0
b00000000000000000000000001111100 f
b00000000000000000000000001111100 g
b00000000000000000000000010000000 h
1k
#89
0k
#90
b00000000000000000000000010000100 0
b00000000000000000000000010000000 f
b00000000000000000000000010000000 g
b00000000000000000000000010000100 h
1k
#91
0k
#92
b00000000000000000000000010001000 0
b00000000000000000000000010000100 f
b00000000000000000000000010000100 g
b00000000000000000000000010001000 h
1k
#93
0k
#94
b00000000000000000000000010001100 0
b00000000000000000000000010001000 f
b00000000000000000000000010001000 g
b00000000000000000000000010001100 h
1k
#95
0k
#96
b00000000000000000000000010010000 0
b00000000000000000000000010001100 f
b00000000000000000000000010001100 g
b00000000000000000000000010010000 h
1k
#97
0k
#98
b00000000000000000000000010010100 0
b00000000000000000000000010010000 f
b00000000000000000000000010010000 g
b00000000000000000000000010010100 h
1k
#99
0k
#100
b00000000000000000000000010011000 0
b00000000000000000000000010010100 f
b00000000000000000000000010010100 g
b00000000000000000000000010011000 h
1k
#101
0k
#102
b00000000000000000000000010011100 0
b00000000000000000000000010011000 f
b00000000000000000000000010011000 g
b00000000000000000000000010011100 h
1k
#103
0k
#104
b00000000000000000000000010100000 0
b00000000000000000000000010011100 f
b00000000000000000000000010011100 g
b00000000000000000000000010100000 h
1k
#105
0k
#106
b00000000000000000000000010100100 0
b00000000000000000000000010100000 f
b00000000000000000000000010100000 g
b00000000000000000000000010100100 h
1k
#107
0k
#108
b00000000000000000000000010101000 0
b00000000000000000000000010100100 f
b00000000000000000000000010100100 g
b00000000000000000000000010101000 h
1k
#109
0k
#110
b00000000000000000000000010101100 0
b00000000000000000000000010101000 f
b00000000000000000000000010101000 g
b00000000000000000000000010101100 h
1k
#111
0k
#112
b00000000000000000000000010110000 0
b00000000000000000000000010101100 f
b00000000000000000000000010101100 g
b00000000000000000000000010110000 h
1k
#113
0k
#114
b00000000000000000000000010110100 0
b00000000000000000000000010110000 f
b00000000000000000000000010110000 g
b00000000000000000000000010110100 h
1k
#115
0k
#116
b00000000000000000000000010111000 0
b00000000000000000000000010110100 f
b00000000000000000000000010110100 g
b00000000000000000000000010111000 h
1k
#117
0k
#118
b00000000000000000000000010111100 0
b00000000000000000000000010111000 f
b00000000000000000000000010111000 g
b00000000000000000000000010111100 h
1k
#119
0k
#120
b00000000000000000000000011000000 0
b00000000000000000000000010111100 f
b00000000000000000000000010111100 g
b00000000000000000000000011000000 h
1k
#121
0k
#122
b00000000000000000000000011000100 0
b00000000000000000000000011000000 f
b00000000000000000000000011000000 g
b00000000000000000000000011000100 h
1k
#123
0k
#124
b00000000000000000000000011001000 0
b00000000000000000000000011000100 f
b00000000000000000000000011000100 g
b00000000000000000000000011001000 h
1k
#125
0k
#126
b00000000000000000000000011001100 0
b00000000000000000000000011001000 f
b00000000000000000000000011001000 g
b00000000000000000000000011001100 h
1k
#127
0k
#128
b00000000000000000000000011010000 0
b00000000000000000000000011001100 f
b00000000000000000000000011001100 g
b00000000000000000000000011010000 h
1k
#129
0k
#130
b00000000000000000000000011010100 0
b00000000000000000000000011010000 f
b00000000000000000000000011010000 g
b00000000000000000000000011010100 h
1k
#131
0k
#132
b00000000000000000000000011011000 0
b00000000000000000000000011010100 f
b00000000000000000000000011010100 g
b00000000000000000000000011011000 h
1k
#133
0k
#134
b00000000000000000000000011011100 0
b00000000000000000000000011011000 f
b00000000000000000000000011011000 g
b00000000000000000000000011011100 h
1k
#135
0k
#136
b00000000000000000000000011100000 0
b00000000000000000000000011011100 f
b00000000000000000000000011011100 g
b00000000000000000000000011100000 h
1k
#137
0k
#138
b00000000000000000000000011100100 0
b00000000000000000000000011100000 f
b00000000000000000000000011100000 g
b00000000000000000000000011100100 h
1k
#139
0k
#140
b00000000000000000000000011101000 0
b00000000000000000000000011100100 f
b00000000000000000000000011100100 g
b00000000000000000000000011101000 h
1k
#141
0k
#142
b00000000000000000000000011101100 0
b00000000000000000000000011101000 f
b00000000000000000000000011101000 g
b00000000000000000000000011101100 h
1k
#143
0k
#144
b00000000000000000000000011110000 0
b00000000000000000000000011101100 f
b00000000000000000000000011101100 g
b00000000000000000000000011110000 h
1k
#145
0k
#146
b00000000000000000000000011110100 0
b00000000000000000000000011110000 f
b00000000000000000000000011110000 g
b00000000000000000000000011110100 h
1k
#147
0k
#148
b00000000000000000000000011111000 0
b00000000000000000000000011110100 f
b00000000000000000000000011110100 g
b00000000000000000000000011111000 h
1k
#149
0k
#150
b00000000000000000000000011111100 0
b00000000000000000000000011111000 f
b00000000000000000000000011111000 g
b00000000000000000000000011111100 h
1k
#151
0k
#152
b00000000000000000000000100000000 0
b00000000000000000000000011111100 f
b00000000000000000000000011111100 g
b00000000000000000000000100000000 h
1k
#153
0k
#154
b00000000000000000000000100000100 0
b00000000000000000000000100000000 f
b00000000000000000000000100000000 g
b00000000000000000000000100000100 h
1k
#155
0k
#156
b00000000000000000000000100001000 0
b00000000000000000000000100000100 f
b00000000000000000000000100000100 g
b00000000000000000000000100001000 h
1k
#157
0k
#158
b00000000000000000000000100001100 0
b00000000000000000000000100001000 f
b00000000000000000000000100001000 g
b00000000000000000000000100001100 h
1k
#159
0k
#160
b00000000000000000000000100010000 0
b00000000000000000000000100001100 f
b00000000000000000000000100001100 g
b00000000000000000000000100010000 h
1k
#161
0k
#162
b00000000000000000000000100010100 0
b00000000000000000000000100010000 f
b00000000000000000000000100010000 g
b00000000000000000000000100010100 h
1k
#163
0k
#164
b00000000000000000000000100011000 0
b00000000000000000000000100010100 f
b00000000000000000000000100010100 g
b00000000000000000000000100011000 h
1k
#165
0k
#166
b00000000000000000000000100011100 0
b00000000000000000000000100011000 f
b00000000000000000000000100011000 g
b00000000000000000000000100011100 h
1k
#167
0k
#168
b00000000000000000000000100100000 0
b00000000000000000000000100011100 f
b00000000000000000000000100011100 g
b00000000000000000000000100100000 h
1k
#169
0k
#170
b00000000000000000000000100100100 0
b00000000000000000000000100100000 f
b00000000000000000000000100100000 g
b00000000000000000000000100100100 h
1k
#171
0k
