top.vcd
$version Generated by VerilatedVcd $end
$date Wed Dec  7 21:45:24 2022 $end
$timescale 1ps $end

 $scope module TOP $end
  $var wire 32 j a0 [31:0] $end
  $var wire  1 h clk $end
  $var wire  1 i rst $end
  $var wire  1 g trigger $end
  $scope module top $end
   $var wire 32 k ADDRESS_WIDTH [31:0] $end
   $var wire  1 ) ALUSrc $end
   $var wire  4 * ALU_ctrl [3:0] $end
   $var wire 32 k DATA_WIDTH [31:0] $end
   $var wire  2 , DataType [1:0] $end
   $var wire  1 + EQ $end
   $var wire 32 . ImmOp [31:0] $end
   $var wire  2 0 ImmSrc [1:0] $end
   $var wire  1 - J $end
   $var wire  1 1 MemWrite $end
   $var wire 32 $ PC_instr [31:0] $end
   $var wire  1 % PCsrc $end
   $var wire  1 # RegWrite $end
   $var wire  1 2 ResultSrc $end
   $var wire 32 j a0 [31:0] $end
   $var wire  1 h clk $end
   $var wire 32 / next_PC [31:0] $end
   $var wire  5 ( rd [4:0] $end
   $var wire  5 & rs1 [4:0] $end
   $var wire  5 ' rs2 [4:0] $end
   $var wire  1 i rst $end
   $var wire  1 g trigger $end
   $scope module ALU $end
    $var wire 32 5 ALUOp2 [31:0] $end
    $var wire  1 ) ALUSrc $end
    $var wire  4 * ALU_ctrl [3:0] $end
    $var wire 32 6 ALUout [31:0] $end
    $var wire 32 l Address_Width_RegFile [31:0] $end
    $var wire 32 k Data_Width [31:0] $end
    $var wire 32 . ImmOp [31:0] $end
    $var wire  1 - JumpSel $end
    $var wire  1 1 MemWrite $end
    $var wire 32 7 ReadData [31:0] $end
    $var wire 32 8 ResultSrcOutput [31:0] $end
    $var wire  1 2 SrcSel $end
    $var wire 32 j a0 [31:0] $end
    $var wire  1 h clk $end
    $var wire  2 , dataType [1:0] $end
    $var wire  1 + eq $end
    $var wire 32 / newPC [31:0] $end
    $var wire  5 ( rd [4:0] $end
    $var wire 32 3 rd1 [31:0] $end
    $var wire 32 4 rd2 [31:0] $end
    $var wire  1 # regFileWen $end
    $var wire 32 9 regWrite [31:0] $end
    $var wire  5 & rs1 [4:0] $end
    $var wire  5 ' rs2 [4:0] $end
    $var wire  1 g trigger $end
    $scope module alu1 $end
     $var wire  4 * ALU_ctrl [3:0] $end
     $var wire 32 6 ALUout [31:0] $end
     $var wire 32 k Data_Width [31:0] $end
     $var wire  1 + eq $end
     $var wire 32 3 op1 [31:0] $end
     $var wire 32 5 op2 [31:0] $end
    $upscope $end
    $scope module mux1 $end
     $var wire 32 5 ALUOp2 [31:0] $end
     $var wire  1 ) ALUSrc $end
     $var wire 32 k Data_Width [31:0] $end
     $var wire 32 . ImmOp [31:0] $end
     $var wire 32 4 regOp2 [31:0] $end
    $upscope $end
    $scope module ram1 $end
     $var wire 32 6 A [31:0] $end
     $var wire 32 k ADDRESS_WIDTH [31:0] $end
     $var wire 32 m BYTE_WIDTH [31:0] $end
     $var wire 32 k DATA_WIDTH [31:0] $end
     $var wire 32 7 RD [31:0] $end
     $var wire 32 4 WD [31:0] $end
     $var wire  1 1 WE $end
     $var wire  8 < byteAssign [7:0] $end
     $var wire  1 h clk $end
     $var wire  2 , dataType [1:0] $end
     $var wire 16 = halfwordAssign [15:0] $end
     $var wire  8 : ram_array[-1] [7:0] $end
     $var wire  8 ; ram_array[0] [7:0] $end
    $upscope $end
    $scope module regFile1 $end
     $var wire 32 l Address_Width [31:0] $end
     $var wire 32 k Data_Width [31:0] $end
     $var wire 32 j a0 [31:0] $end
     $var wire  1 h clk $end
     $var wire 32 9 din [31:0] $end
     $var wire  1 # en $end
     $var wire  5 ( rd [4:0] $end
     $var wire 32 3 rd1 [31:0] $end
     $var wire 32 4 rd2 [31:0] $end
     $var wire 32 > regFile_array[0] [31:0] $end
     $var wire 32 H regFile_array[10] [31:0] $end
     $var wire 32 I regFile_array[11] [31:0] $end
     $var wire 32 J regFile_array[12] [31:0] $end
     $var wire 32 K regFile_array[13] [31:0] $end
     $var wire 32 L regFile_array[14] [31:0] $end
     $var wire 32 M regFile_array[15] [31:0] $end
     $var wire 32 N regFile_array[16] [31:0] $end
     $var wire 32 O regFile_array[17] [31:0] $end
     $var wire 32 P regFile_array[18] [31:0] $end
     $var wire 32 Q regFile_array[19] [31:0] $end
     $var wire 32 ? regFile_array[1] [31:0] $end
     $var wire 32 R regFile_array[20] [31:0] $end
     $var wire 32 S regFile_array[21] [31:0] $end
     $var wire 32 T regFile_array[22] [31:0] $end
     $var wire 32 U regFile_array[23] [31:0] $end
     $var wire 32 V regFile_array[24] [31:0] $end
     $var wire 32 W regFile_array[25] [31:0] $end
     $var wire 32 X regFile_array[26] [31:0] $end
     $var wire 32 Y regFile_array[27] [31:0] $end
     $var wire 32 Z regFile_array[28] [31:0] $end
     $var wire 32 [ regFile_array[29] [31:0] $end
     $var wire 32 @ regFile_array[2] [31:0] $end
     $var wire 32 \ regFile_array[30] [31:0] $end
     $var wire 32 ] regFile_array[31] [31:0] $end
     $var wire 32 A regFile_array[3] [31:0] $end
     $var wire 32 B regFile_array[4] [31:0] $end
     $var wire 32 C regFile_array[5] [31:0] $end
     $var wire 32 D regFile_array[6] [31:0] $end
     $var wire 32 E regFile_array[7] [31:0] $end
     $var wire 32 F regFile_array[8] [31:0] $end
     $var wire 32 G regFile_array[9] [31:0] $end
     $var wire  5 & rs1 [4:0] $end
     $var wire  5 ' rs2 [4:0] $end
     $var wire  1 g trigger $end
    $upscope $end
    $scope module resultPCMux1 $end
     $var wire 32 k Data_Width [31:0] $end
     $var wire  1 - JumpSel $end
     $var wire 32 9 Result [31:0] $end
     $var wire 32 8 ResultSrc [31:0] $end
     $var wire 32 / newPC [31:0] $end
    $upscope $end
    $scope module resultSrcMux1 $end
     $var wire 32 6 ALUResult [31:0] $end
     $var wire 32 k Data_Width [31:0] $end
     $var wire 32 8 OutputSrcMux [31:0] $end
     $var wire 32 7 ReadData [31:0] $end
     $var wire  1 2 SrcSel $end
    $upscope $end
   $upscope $end
   $scope module control_unit $end
    $var wire  4 * ALUControl [3:0] $end
    $var wire  2 b ALUOp [1:0] $end
    $var wire  1 ) ALUSrc $end
    $var wire  1 a Branch $end
    $var wire  2 , DataType [1:0] $end
    $var wire  2 0 ImmSrc [1:0] $end
    $var wire  1 - J $end
    $var wire  1 1 MemWrite $end
    $var wire  1 % PCSrc $end
    $var wire  1 # RegWrite $end
    $var wire  1 2 ResultSrc $end
    $var wire  1 + Zero $end
    $var wire  3 _ funct3 [2:0] $end
    $var wire  1 ` funct75 $end
    $var wire  7 ^ op [6:0] $end
    $scope module a $end
     $var wire  4 * ALUControl [3:0] $end
     $var wire  2 b ALUOp [1:0] $end
     $var wire  2 , DataType [1:0] $end
     $var wire  3 _ funct3 [2:0] $end
     $var wire  1 ` funct75 $end
    $upscope $end
    $scope module m $end
     $var wire  2 b ALUOp [1:0] $end
     $var wire  1 ) ALUSrc $end
     $var wire  1 a Branch $end
     $var wire  2 0 ImmSrc [1:0] $end
     $var wire  1 - J $end
     $var wire  1 1 MemWrite $end
     $var wire  1 # RegWrite $end
     $var wire  1 2 ResultSrc $end
     $var wire  7 ^ op [6:0] $end
    $upscope $end
   $upscope $end
   $scope module myPC $end
    $var wire 32 k ADDRESS_WIDTH [31:0] $end
    $var wire 32 k DATA_WIDTH [31:0] $end
    $var wire 32 . ImmOp [31:0] $end
    $var wire 32 c PC [31:0] $end
    $var wire  1 % PCsrc $end
    $var wire  1 h clk $end
    $var wire 32 $ instr [31:0] $end
    $var wire 32 / next_PC [31:0] $end
    $var wire  1 i rst $end
    $scope module pcReg $end
     $var wire 32 k ADDRESS_WIDTH [31:0] $end
     $var wire 32 . ImmOp [31:0] $end
     $var wire 32 c PC [31:0] $end
     $var wire  1 % PCsrc $end
     $var wire 32 d alt_PC [31:0] $end
     $var wire  1 h clk $end
     $var wire 32 / inc_PC [31:0] $end
     $var wire 32 e next_PC [31:0] $end
     $var wire 32 / pc_alu [31:0] $end
     $var wire  1 i rst $end
    $upscope $end
    $scope module pcRom $end
     $var wire 32 k ADDRESS_WIDTH [31:0] $end
     $var wire 32 m DATA_WIDTH [31:0] $end
     $var wire 32 c PC [31:0] $end
     $var wire 32 $ instr [31:0] $end
    $upscope $end
   $upscope $end
   $scope module sign_extend $end
    $var wire 32 . ImmExt [31:0] $end
    $var wire  2 0 ImmSrc [1:0] $end
    $var wire 25 f imm [31:7] $end
   $upscope $end
  $upscope $end
 $upscope $end
$enddefinitions $end


#0
0#
b00000000000000000000000000000000 $
0%
b00000 &
b00000 '
b00000 (
0)
b0000 *
0+
b00 ,
0-
b00000000000000000000000000000000 .
b00000000000000000000000000000100 /
b00 0
01
02
b00000000000000000000000000000000 3
b00000000000000000000000000000000 4
b00000000000000000000000000000000 5
b00000000000000000000000000000000 6
b00000000000000000000000000000000 7
b00000000000000000000000000000000 8
b00000000000000000000000000000000 9
b00000000 :
b00000000 ;
b00000000 <
b0000000000000000 =
b00000000000000000000000000000000 >
b00000000000000000000000000000000 ?
b00000000000000000000000000000000 @
b00000000000000000000000000000000 A
b00000000000000000000000000000000 B
b00000000000000000000000000000000 C
b00000000000000000000000000000000 D
b00000000000000000000000000000000 E
b00000000000000000000000000000000 F
b00000000000000000000000000000000 G
b00000000000000000000000000000000 H
b00000000000000000000000000000000 I
b00000000000000000000000000000000 J
b00000000000000000000000000000000 K
b00000000000000000000000000000000 L
b00000000000000000000000000000000 M
b00000000000000000000000000000000 N
b00000000000000000000000000000000 O
b00000000000000000000000000000000 P
b00000000000000000000000000000000 Q
b00000000000000000000000000000000 R
b00000000000000000000000000000000 S
b00000000000000000000000000000000 T
b00000000000000000000000000000000 U
b00000000000000000000000000000000 V
b00000000000000000000000000000000 W
b00000000000000000000000000000000 X
b00000000000000000000000000000000 Y
b00000000000000000000000000000000 Z
b00000000000000000000000000000000 [
b00000000000000000000000000000000 \
b00000000000000000000000000000000 ]
b0000000 ^
b000 _
0`
0a
b00 b
b00000000000000000000000000000000 c
b00000000000000000000000000000000 d
b00000000000000000000000000000100 e
b0000000000000000000000000 f
0g
1h
1i
b00000000000000000000000000000000 j
b00000000000000000000000000100000 k
b00000000000000000000000000000101 l
b00000000000000000000000000001000 m
#1
b00001111111100000000001100010011 $
b11111 '
b00110 (
b01 ,
b00000000000000000000000011111111 .
b0010011 ^
b00000000000000000000000011111111 d
b0000111111110000000000110 f
0h
#2
1h
0i
#3
0h
#4
b00000000000000000000010100010011 $
b00000 '
b01010 (
b00000000000000000000000000000000 .
b00000000000000000000000000001000 /
b00000000000000000000000000000100 c
b00000000000000000000000000000100 d
b00000000000000000000000000001000 e
b0000000000000000000001010 f
1h
#5
0h
#6
b00000000000000000000010110010011 $
b01011 (
b00000000000000000000000000001100 /
b00000000000000000000000000001000 c
b00000000000000000000000000001000 d
b00000000000000000000000000001100 e
b0000000000000000000001011 f
1h
#7
0h
#8
b00000000000001011000010100010011 $
b01011 &
b01010 (
b00000000000000000000000000010000 /
b00000000000000000000000000001100 c
b00000000000000000000000000001100 d
b00000000000000000000000000010000 e
b0000000000000101100001010 f
1h
#9
0h
#10
b00000000000101011000010110010011 $
b00001 '
b01011 (
b00000000000000000000000000000001 .
b00000000000000000000000000010100 /
b00000000000000000000000000010000 c
b00000000000000000000000000010001 d
b00000000000000000000000000010100 e
b0000000000010101100001011 f
1h
#11
0h
#12
b11111110011001011001110011100011 $
b00110 '
b11001 (
b11111111111111111111111111111000 .
b00000000000000000000000000011000 /
b10 0
b1100011 ^
b001 _
1`
1a
b01 b
b00000000000000000000000000010100 c
b00000000000000000000000000001100 d
b00000000000000000000000000011000 e
b1111111001100101100111001 f
1h
#13
0h
#14
b11111110000000110001100011100011 $
b00110 &
b00000 '
b10001 (
b11111111111111111111111111110000 .
b00000000000000000000000000011100 /
b00000000000000000000000000011000 c
b00000000000000000000000000001000 d
b00000000000000000000000000011100 e
b1111111000000011000110001 f
1h
#15
0h
#16
b00000000000000000000000000000000 $
b00000 &
b00000 (
b00000000000000000000000000000000 .
b00000000000000000000000000100000 /
b00 0
b0000000 ^
b000 _
0`
0a
b00 b
b00000000000000000000000000011100 c
b00000000000000000000000000011100 d
b00000000000000000000000000100000 e
b0000000000000000000000000 f
1h
#17
0h
#18
b00000000000000000000000000100100 /
b00000000000000000000000000100000 c
b00000000000000000000000000100000 d
b00000000000000000000000000100100 e
1h
#19
0h
#20
b00000000000000000000000000101000 /
b00000000000000000000000000100100 c
b00000000000000000000000000100100 d
b00000000000000000000000000101000 e
1h
#21
0h
#22
b00000000000000000000000000101100 /
b00000000000000000000000000101000 c
b00000000000000000000000000101000 d
b00000000000000000000000000101100 e
1h
#23
0h
#24
b00000000000000000000000000110000 /
b00000000000000000000000000101100 c
b00000000000000000000000000101100 d
b00000000000000000000000000110000 e
1h
#25
0h
#26
b00000000000000000000000000110100 /
b00000000000000000000000000110000 c
b00000000000000000000000000110000 d
b00000000000000000000000000110100 e
1h
#27
0h
#28
b00000000000000000000000000111000 /
b00000000000000000000000000110100 c
b00000000000000000000000000110100 d
b00000000000000000000000000111000 e
1h
#29
0h
#30
b00000000000000000000000000111100 /
b00000000000000000000000000111000 c
b00000000000000000000000000111000 d
b00000000000000000000000000111100 e
1h
#31
0h
#32
b00000000000000000000000001000000 /
b00000000000000000000000000111100 c
b00000000000000000000000000111100 d
b00000000000000000000000001000000 e
1h
#33
0h
#34
b00000000000000000000000001000100 /
b00000000000000000000000001000000 c
b00000000000000000000000001000000 d
b00000000000000000000000001000100 e
1h
#35
0h
#36
b00000000000000000000000001001000 /
b00000000000000000000000001000100 c
b00000000000000000000000001000100 d
b00000000000000000000000001001000 e
1h
#37
0h
#38
b00000000000000000000000001001100 /
b00000000000000000000000001001000 c
b00000000000000000000000001001000 d
b00000000000000000000000001001100 e
1h
#39
0h
#40
b00000000000000000000000001010000 /
b00000000000000000000000001001100 c
b00000000000000000000000001001100 d
b00000000000000000000000001010000 e
1h
#41
0h
#42
b00000000000000000000000001010100 /
b00000000000000000000000001010000 c
b00000000000000000000000001010000 d
b00000000000000000000000001010100 e
1h
#43
0h
#44
b00000000000000000000000001011000 /
b00000000000000000000000001010100 c
b00000000000000000000000001010100 d
b00000000000000000000000001011000 e
1h
#45
0h
#46
b00000000000000000000000001011100 /
b00000000000000000000000001011000 c
b00000000000000000000000001011000 d
b00000000000000000000000001011100 e
1h
#47
0h
#48
b00000000000000000000000001100000 /
b00000000000000000000000001011100 c
b00000000000000000000000001011100 d
b00000000000000000000000001100000 e
1h
#49
0h
#50
b00000000000000000000000001100100 /
b00000000000000000000000001100000 c
b00000000000000000000000001100000 d
b00000000000000000000000001100100 e
1h
#51
0h
#52
b00000000000000000000000001101000 /
b00000000000000000000000001100100 c
b00000000000000000000000001100100 d
b00000000000000000000000001101000 e
1h
#53
0h
#54
b00000000000000000000000001101100 /
b00000000000000000000000001101000 c
b00000000000000000000000001101000 d
b00000000000000000000000001101100 e
1h
#55
0h
#56
b00000000000000000000000001110000 /
b00000000000000000000000001101100 c
b00000000000000000000000001101100 d
b00000000000000000000000001110000 e
1h
#57
0h
#58
b00000000000000000000000001110100 /
b00000000000000000000000001110000 c
b00000000000000000000000001110000 d
b00000000000000000000000001110100 e
1h
#59
0h
#60
b00000000000000000000000001111000 /
b00000000000000000000000001110100 c
b00000000000000000000000001110100 d
b00000000000000000000000001111000 e
1h
#61
0h
#62
b00000000000000000000000001111100 /
b00000000000000000000000001111000 c
b00000000000000000000000001111000 d
b00000000000000000000000001111100 e
1h
#63
0h
#64
b00000000000000000000000010000000 /
b00000000000000000000000001111100 c
b00000000000000000000000001111100 d
b00000000000000000000000010000000 e
1h
#65
0h
#66
b00000000000000000000000010000100 /
b00000000000000000000000010000000 c
b00000000000000000000000010000000 d
b00000000000000000000000010000100 e
1h
#67
0h
#68
b00000000000000000000000010001000 /
b00000000000000000000000010000100 c
b00000000000000000000000010000100 d
b00000000000000000000000010001000 e
1h
#69
0h
#70
b00000000000000000000000010001100 /
b00000000000000000000000010001000 c
b00000000000000000000000010001000 d
b00000000000000000000000010001100 e
1h
#71
0h
#72
b00000000000000000000000010010000 /
b00000000000000000000000010001100 c
b00000000000000000000000010001100 d
b00000000000000000000000010010000 e
1h
#73
0h
#74
b00000000000000000000000010010100 /
b00000000000000000000000010010000 c
b00000000000000000000000010010000 d
b00000000000000000000000010010100 e
1h
#75
0h
#76
b00000000000000000000000010011000 /
b00000000000000000000000010010100 c
b00000000000000000000000010010100 d
b00000000000000000000000010011000 e
1h
#77
0h
#78
b00000000000000000000000010011100 /
b00000000000000000000000010011000 c
b00000000000000000000000010011000 d
b00000000000000000000000010011100 e
1h
#79
0h
#80
b00000000000000000000000010100000 /
b00000000000000000000000010011100 c
b00000000000000000000000010011100 d
b00000000000000000000000010100000 e
1h
#81
0h
#82
b00000000000000000000000010100100 /
b00000000000000000000000010100000 c
b00000000000000000000000010100000 d
b00000000000000000000000010100100 e
1h
#83
0h
#84
b00000000000000000000000010101000 /
b00000000000000000000000010100100 c
b00000000000000000000000010100100 d
b00000000000000000000000010101000 e
1h
#85
0h
#86
b00000000000000000000000010101100 /
b00000000000000000000000010101000 c
b00000000000000000000000010101000 d
b00000000000000000000000010101100 e
1h
#87
0h
#88
b00000000000000000000000010110000 /
b00000000000000000000000010101100 c
b00000000000000000000000010101100 d
b00000000000000000000000010110000 e
1h
#89
0h
#90
b00000000000000000000000010110100 /
b00000000000000000000000010110000 c
b00000000000000000000000010110000 d
b00000000000000000000000010110100 e
1h
#91
0h
#92
b00000000000000000000000010111000 /
b00000000000000000000000010110100 c
b00000000000000000000000010110100 d
b00000000000000000000000010111000 e
1h
#93
0h
#94
b00000000000000000000000010111100 /
b00000000000000000000000010111000 c
b00000000000000000000000010111000 d
b00000000000000000000000010111100 e
1h
#95
0h
#96
b00000000000000000000000011000000 /
b00000000000000000000000010111100 c
b00000000000000000000000010111100 d
b00000000000000000000000011000000 e
1h
#97
0h
#98
b00000000000000000000000011000100 /
b00000000000000000000000011000000 c
b00000000000000000000000011000000 d
b00000000000000000000000011000100 e
1h
#99
0h
#100
b00000000000000000000000011001000 /
b00000000000000000000000011000100 c
b00000000000000000000000011000100 d
b00000000000000000000000011001000 e
1h
#101
0h
#102
b00000000000000000000000011001100 /
b00000000000000000000000011001000 c
b00000000000000000000000011001000 d
b00000000000000000000000011001100 e
1h
#103
0h
#104
b00000000000000000000000011010000 /
b00000000000000000000000011001100 c
b00000000000000000000000011001100 d
b00000000000000000000000011010000 e
1h
#105
0h
#106
b00000000000000000000000011010100 /
b00000000000000000000000011010000 c
b00000000000000000000000011010000 d
b00000000000000000000000011010100 e
1h
#107
0h
#108
b00000000000000000000000011011000 /
b00000000000000000000000011010100 c
b00000000000000000000000011010100 d
b00000000000000000000000011011000 e
1h
#109
0h
#110
b00000000000000000000000011011100 /
b00000000000000000000000011011000 c
b00000000000000000000000011011000 d
b00000000000000000000000011011100 e
1h
#111
0h
#112
b00000000000000000000000011100000 /
b00000000000000000000000011011100 c
b00000000000000000000000011011100 d
b00000000000000000000000011100000 e
1h
#113
0h
#114
b00000000000000000000000011100100 /
b00000000000000000000000011100000 c
b00000000000000000000000011100000 d
b00000000000000000000000011100100 e
1h
#115
0h
#116
b00000000000000000000000011101000 /
b00000000000000000000000011100100 c
b00000000000000000000000011100100 d
b00000000000000000000000011101000 e
1h
#117
0h
#118
b00000000000000000000000011101100 /
b00000000000000000000000011101000 c
b00000000000000000000000011101000 d
b00000000000000000000000011101100 e
1h
#119
0h
#120
b00000000000000000000000011110000 /
b00000000000000000000000011101100 c
b00000000000000000000000011101100 d
b00000000000000000000000011110000 e
1h
#121
0h
#122
b00000000000000000000000011110100 /
b00000000000000000000000011110000 c
b00000000000000000000000011110000 d
b00000000000000000000000011110100 e
1h
#123
0h
#124
b00000000000000000000000011111000 /
b00000000000000000000000011110100 c
b00000000000000000000000011110100 d
b00000000000000000000000011111000 e
1h
#125
0h
#126
b00000000000000000000000011111100 /
b00000000000000000000000011111000 c
b00000000000000000000000011111000 d
b00000000000000000000000011111100 e
1h
#127
0h
#128
b00000000000000000000000100000000 /
b00000000000000000000000011111100 c
b00000000000000000000000011111100 d
b00000000000000000000000100000000 e
1h
#129
0h
#130
b00000000000000000000000100000100 /
b00000000000000000000000100000000 c
b00000000000000000000000100000000 d
b00000000000000000000000100000100 e
1h
#131
0h
#132
b00000000000000000000000100001000 /
b00000000000000000000000100000100 c
b00000000000000000000000100000100 d
b00000000000000000000000100001000 e
1h
#133
0h
#134
b00000000000000000000000100001100 /
b00000000000000000000000100001000 c
b00000000000000000000000100001000 d
b00000000000000000000000100001100 e
1h
#135
0h
#136
b00000000000000000000000100010000 /
b00000000000000000000000100001100 c
b00000000000000000000000100001100 d
b00000000000000000000000100010000 e
1h
#137
0h
#138
b00000000000000000000000100010100 /
b00000000000000000000000100010000 c
b00000000000000000000000100010000 d
b00000000000000000000000100010100 e
1h
#139
0h
#140
b00000000000000000000000100011000 /
b00000000000000000000000100010100 c
b00000000000000000000000100010100 d
b00000000000000000000000100011000 e
1h
#141
0h
#142
b00000000000000000000000100011100 /
b00000000000000000000000100011000 c
b00000000000000000000000100011000 d
b00000000000000000000000100011100 e
1h
#143
0h
#144
b00000000000000000000000100100000 /
b00000000000000000000000100011100 c
b00000000000000000000000100011100 d
b00000000000000000000000100100000 e
1h
#145
0h
#146
b00000000000000000000000100100100 /
b00000000000000000000000100100000 c
b00000000000000000000000100100000 d
b00000000000000000000000100100100 e
1h
#147
0h
#148
b00000000000000000000000100101000 /
b00000000000000000000000100100100 c
b00000000000000000000000100100100 d
b00000000000000000000000100101000 e
1h
#149
0h
#150
b00000000000000000000000100101100 /
b00000000000000000000000100101000 c
b00000000000000000000000100101000 d
b00000000000000000000000100101100 e
1h
#151
0h
#152
b00000000000000000000000100110000 /
b00000000000000000000000100101100 c
b00000000000000000000000100101100 d
b00000000000000000000000100110000 e
1h
#153
0h
#154
b00000000000000000000000100110100 /
b00000000000000000000000100110000 c
b00000000000000000000000100110000 d
b00000000000000000000000100110100 e
1h
#155
0h
#156
b00000000000000000000000100111000 /
b00000000000000000000000100110100 c
b00000000000000000000000100110100 d
b00000000000000000000000100111000 e
1h
#157
0h
#158
b00000000000000000000000100111100 /
b00000000000000000000000100111000 c
b00000000000000000000000100111000 d
b00000000000000000000000100111100 e
1h
#159
0h
#160
b00000000000000000000000101000000 /
b00000000000000000000000100111100 c
b00000000000000000000000100111100 d
b00000000000000000000000101000000 e
1h
#161
0h
#162
b00000000000000000000000101000100 /
b00000000000000000000000101000000 c
b00000000000000000000000101000000 d
b00000000000000000000000101000100 e
1h
#163
0h
#164
b00000000000000000000000101001000 /
b00000000000000000000000101000100 c
b00000000000000000000000101000100 d
b00000000000000000000000101001000 e
1h
#165
0h
#166
b00000000000000000000000101001100 /
b00000000000000000000000101001000 c
b00000000000000000000000101001000 d
b00000000000000000000000101001100 e
1h
#167
0h
#168
b00000000000000000000000101010000 /
b00000000000000000000000101001100 c
b00000000000000000000000101001100 d
b00000000000000000000000101010000 e
1h
#169
0h
#170
b00000000000000000000000101010100 /
b00000000000000000000000101010000 c
b00000000000000000000000101010000 d
b00000000000000000000000101010100 e
1h
#171
0h
#172
b00000000000000000000000101011000 /
b00000000000000000000000101010100 c
b00000000000000000000000101010100 d
b00000000000000000000000101011000 e
1h
#173
0h
#174
b00000000000000000000000101011100 /
b00000000000000000000000101011000 c
b00000000000000000000000101011000 d
b00000000000000000000000101011100 e
1h
#175
0h
#176
b00000000000000000000000101100000 /
b00000000000000000000000101011100 c
b00000000000000000000000101011100 d
b00000000000000000000000101100000 e
1h
#177
0h
#178
b00000000000000000000000101100100 /
b00000000000000000000000101100000 c
b00000000000000000000000101100000 d
b00000000000000000000000101100100 e
1h
#179
0h
#180
b00000000000000000000000101101000 /
b00000000000000000000000101100100 c
b00000000000000000000000101100100 d
b00000000000000000000000101101000 e
1h
#181
0h
#182
b00000000000000000000000101101100 /
b00000000000000000000000101101000 c
b00000000000000000000000101101000 d
b00000000000000000000000101101100 e
1h
#183
0h
#184
b00000000000000000000000101110000 /
b00000000000000000000000101101100 c
b00000000000000000000000101101100 d
b00000000000000000000000101110000 e
1h
#185
0h
#186
b00000000000000000000000101110100 /
b00000000000000000000000101110000 c
b00000000000000000000000101110000 d
b00000000000000000000000101110100 e
1h
#187
0h
#188
b00000000000000000000000101111000 /
b00000000000000000000000101110100 c
b00000000000000000000000101110100 d
b00000000000000000000000101111000 e
1h
#189
0h
#190
b00000000000000000000000101111100 /
b00000000000000000000000101111000 c
b00000000000000000000000101111000 d
b00000000000000000000000101111100 e
1h
#191
0h
#192
b00000000000000000000000110000000 /
b00000000000000000000000101111100 c
b00000000000000000000000101111100 d
b00000000000000000000000110000000 e
1h
#193
0h
#194
b00000000000000000000000110000100 /
b00000000000000000000000110000000 c
b00000000000000000000000110000000 d
b00000000000000000000000110000100 e
1h
#195
0h
#196
b00000000000000000000000110001000 /
b00000000000000000000000110000100 c
b00000000000000000000000110000100 d
b00000000000000000000000110001000 e
1h
#197
0h
#198
b00000000000000000000000110001100 /
b00000000000000000000000110001000 c
b00000000000000000000000110001000 d
b00000000000000000000000110001100 e
1h
#199
0h
#200
b00000000000000000000000110010000 /
b00000000000000000000000110001100 c
b00000000000000000000000110001100 d
b00000000000000000000000110010000 e
1h
#201
0h
#202
b00000000000000000000000110010100 /
b00000000000000000000000110010000 c
b00000000000000000000000110010000 d
b00000000000000000000000110010100 e
1h
#203
0h
#204
b00000000000000000000000110011000 /
b00000000000000000000000110010100 c
b00000000000000000000000110010100 d
b00000000000000000000000110011000 e
1h
#205
0h
#206
b00000000000000000000000110011100 /
b00000000000000000000000110011000 c
b00000000000000000000000110011000 d
b00000000000000000000000110011100 e
1h
#207
0h
#208
b00000000000000000000000110100000 /
b00000000000000000000000110011100 c
b00000000000000000000000110011100 d
b00000000000000000000000110100000 e
1h
#209
0h
#210
b00000000000000000000000110100100 /
b00000000000000000000000110100000 c
b00000000000000000000000110100000 d
b00000000000000000000000110100100 e
1h
#211
0h
#212
b00000000000000000000000110101000 /
b00000000000000000000000110100100 c
b00000000000000000000000110100100 d
b00000000000000000000000110101000 e
1h
#213
0h
#214
b00000000000000000000000110101100 /
b00000000000000000000000110101000 c
b00000000000000000000000110101000 d
b00000000000000000000000110101100 e
1h
#215
0h
#216
b00000000000000000000000110110000 /
b00000000000000000000000110101100 c
b00000000000000000000000110101100 d
b00000000000000000000000110110000 e
1h
#217
0h
#218
b00000000000000000000000110110100 /
b00000000000000000000000110110000 c
b00000000000000000000000110110000 d
b00000000000000000000000110110100 e
1h
#219
0h
#220
b00000000000000000000000110111000 /
b00000000000000000000000110110100 c
b00000000000000000000000110110100 d
b00000000000000000000000110111000 e
1h
#221
0h
#222
b00000000000000000000000110111100 /
b00000000000000000000000110111000 c
b00000000000000000000000110111000 d
b00000000000000000000000110111100 e
1h
#223
0h
#224
b00000000000000000000000111000000 /
b00000000000000000000000110111100 c
b00000000000000000000000110111100 d
b00000000000000000000000111000000 e
1h
#225
0h
#226
b00000000000000000000000111000100 /
b00000000000000000000000111000000 c
b00000000000000000000000111000000 d
b00000000000000000000000111000100 e
1h
#227
0h
#228
b00000000000000000000000111001000 /
b00000000000000000000000111000100 c
b00000000000000000000000111000100 d
b00000000000000000000000111001000 e
1h
#229
0h
#230
b00000000000000000000000111001100 /
b00000000000000000000000111001000 c
b00000000000000000000000111001000 d
b00000000000000000000000111001100 e
1h
#231
0h
#232
b00000000000000000000000111010000 /
b00000000000000000000000111001100 c
b00000000000000000000000111001100 d
b00000000000000000000000111010000 e
1h
#233
0h
#234
b00000000000000000000000111010100 /
b00000000000000000000000111010000 c
b00000000000000000000000111010000 d
b00000000000000000000000111010100 e
1h
#235
0h
#236
b00000000000000000000000111011000 /
b00000000000000000000000111010100 c
b00000000000000000000000111010100 d
b00000000000000000000000111011000 e
1h
#237
0h
#238
b00000000000000000000000111011100 /
b00000000000000000000000111011000 c
b00000000000000000000000111011000 d
b00000000000000000000000111011100 e
1h
#239
0h
#240
b00000000000000000000000111100000 /
b00000000000000000000000111011100 c
b00000000000000000000000111011100 d
b00000000000000000000000111100000 e
1h
#241
0h
#242
b00000000000000000000000111100100 /
b00000000000000000000000111100000 c
b00000000000000000000000111100000 d
b00000000000000000000000111100100 e
1h
#243
0h
#244
b00000000000000000000000111101000 /
b00000000000000000000000111100100 c
b00000000000000000000000111100100 d
b00000000000000000000000111101000 e
1h
#245
0h
#246
b00000000000000000000000111101100 /
b00000000000000000000000111101000 c
b00000000000000000000000111101000 d
b00000000000000000000000111101100 e
1h
#247
0h
#248
b00000000000000000000000111110000 /
b00000000000000000000000111101100 c
b00000000000000000000000111101100 d
b00000000000000000000000111110000 e
1h
#249
0h
#250
b00000000000000000000000111110100 /
b00000000000000000000000111110000 c
b00000000000000000000000111110000 d
b00000000000000000000000111110100 e
1h
#251
0h
#252
b00000000000000000000000111111000 /
b00000000000000000000000111110100 c
b00000000000000000000000111110100 d
b00000000000000000000000111111000 e
1h
#253
0h
#254
b00000000000000000000000111111100 /
b00000000000000000000000111111000 c
b00000000000000000000000111111000 d
b00000000000000000000000111111100 e
1h
#255
0h
#256
b00000000000000000000001000000000 /
b00000000000000000000000111111100 c
b00000000000000000000000111111100 d
b00000000000000000000001000000000 e
1h
#257
0h
#258
b00000000000000000000001000000100 /
b00000000000000000000001000000000 c
b00000000000000000000001000000000 d
b00000000000000000000001000000100 e
1h
#259
0h
#260
b00000000000000000000001000001000 /
b00000000000000000000001000000100 c
b00000000000000000000001000000100 d
b00000000000000000000001000001000 e
1h
#261
0h
