top.vcd
$version Generated by VerilatedVcd $end
$date Thu Dec  8 21:11:20 2022 $end
$timescale 1ps $end

 $scope module TOP $end
  $var wire 32 m a0 [31:0] $end
  $var wire  1 k clk $end
  $var wire  1 l rst $end
  $var wire  1 j trigger $end
  $scope module top $end
   $var wire 32 n ADDRESS_WIDTH [31:0] $end
   $var wire  1 ) ALUSrc $end
   $var wire  4 * ALU_ctrl [3:0] $end
   $var wire 32 n DATA_WIDTH [31:0] $end
   $var wire  2 , DataType [1:0] $end
   $var wire  1 + EQ $end
   $var wire 32 . ImmOp [31:0] $end
   $var wire  3 1 ImmSrc [2:0] $end
   $var wire  2 - J [1:0] $end
   $var wire  1 4 JumpSel $end
   $var wire  1 2 MemWrite $end
   $var wire 32 $ PC_instr [31:0] $end
   $var wire  1 % PCsrc $end
   $var wire  1 # RegWrite $end
   $var wire  1 3 ResultSrc $end
   $var wire 32 m a0 [31:0] $end
   $var wire  1 k clk $end
   $var wire 32 / jalr_PC [31:0] $end
   $var wire 32 0 next_PC [31:0] $end
   $var wire  5 ( rd [4:0] $end
   $var wire  5 & rs1 [4:0] $end
   $var wire  5 ' rs2 [4:0] $end
   $var wire  1 l rst $end
   $var wire  1 j trigger $end
   $scope module ALU $end
    $var wire 32 7 ALUOp2 [31:0] $end
    $var wire  1 ) ALUSrc $end
    $var wire  4 * ALU_ctrl [3:0] $end
    $var wire 32 8 ALUout [31:0] $end
    $var wire 32 o Address_Width_RegFile [31:0] $end
    $var wire 32 n Data_Width [31:0] $end
    $var wire 32 . ImmOp [31:0] $end
    $var wire  1 4 JumpSel $end
    $var wire  1 2 MemWrite $end
    $var wire 32 9 ReadData [31:0] $end
    $var wire 32 : ResultSrcOutput [31:0] $end
    $var wire  1 3 SrcSel $end
    $var wire 32 m a0 [31:0] $end
    $var wire  1 k clk $end
    $var wire  2 , dataType [1:0] $end
    $var wire  1 + eq $end
    $var wire 32 / jalrOutput [31:0] $end
    $var wire 32 0 newPC [31:0] $end
    $var wire  5 ( rd [4:0] $end
    $var wire 32 5 rd1 [31:0] $end
    $var wire 32 6 rd2 [31:0] $end
    $var wire  1 # regFileWen $end
    $var wire 32 ; regWrite [31:0] $end
    $var wire  5 & rs1 [4:0] $end
    $var wire  5 ' rs2 [4:0] $end
    $var wire  1 j trigger $end
    $scope module alu1 $end
     $var wire  4 * ALU_ctrl [3:0] $end
     $var wire 32 8 ALUout [31:0] $end
     $var wire 32 n Data_Width [31:0] $end
     $var wire  1 + eq $end
     $var wire 32 / jalrOutput [31:0] $end
     $var wire 32 5 op1 [31:0] $end
     $var wire 32 7 op2 [31:0] $end
    $upscope $end
    $scope module mux1 $end
     $var wire 32 7 ALUOp2 [31:0] $end
     $var wire  1 ) ALUSrc $end
     $var wire 32 n Data_Width [31:0] $end
     $var wire 32 . ImmOp [31:0] $end
     $var wire 32 6 regOp2 [31:0] $end
    $upscope $end
    $scope module ram1 $end
     $var wire 32 8 A [31:0] $end
     $var wire 32 n ADDRESS_WIDTH [31:0] $end
     $var wire 32 p BYTE_WIDTH [31:0] $end
     $var wire 32 n DATA_WIDTH [31:0] $end
     $var wire 32 9 RD [31:0] $end
     $var wire 32 6 WD [31:0] $end
     $var wire  1 2 WE $end
     $var wire  8 > byteAssign [7:0] $end
     $var wire  1 k clk $end
     $var wire  2 , dataType [1:0] $end
     $var wire 16 ? halfwordAssign [15:0] $end
     $var wire  8 < ram_array[-1] [7:0] $end
     $var wire  8 = ram_array[0] [7:0] $end
    $upscope $end
    $scope module regFile1 $end
     $var wire 32 o Address_Width [31:0] $end
     $var wire 32 n Data_Width [31:0] $end
     $var wire 32 m a0 [31:0] $end
     $var wire  1 k clk $end
     $var wire 32 ; din [31:0] $end
     $var wire  1 # en $end
     $var wire  5 ( rd [4:0] $end
     $var wire 32 5 rd1 [31:0] $end
     $var wire 32 6 rd2 [31:0] $end
     $var wire 32 @ regFile_array[0] [31:0] $end
     $var wire 32 J regFile_array[10] [31:0] $end
     $var wire 32 K regFile_array[11] [31:0] $end
     $var wire 32 L regFile_array[12] [31:0] $end
     $var wire 32 M regFile_array[13] [31:0] $end
     $var wire 32 N regFile_array[14] [31:0] $end
     $var wire 32 O regFile_array[15] [31:0] $end
     $var wire 32 P regFile_array[16] [31:0] $end
     $var wire 32 Q regFile_array[17] [31:0] $end
     $var wire 32 R regFile_array[18] [31:0] $end
     $var wire 32 S regFile_array[19] [31:0] $end
     $var wire 32 A regFile_array[1] [31:0] $end
     $var wire 32 T regFile_array[20] [31:0] $end
     $var wire 32 U regFile_array[21] [31:0] $end
     $var wire 32 V regFile_array[22] [31:0] $end
     $var wire 32 W regFile_array[23] [31:0] $end
     $var wire 32 X regFile_array[24] [31:0] $end
     $var wire 32 Y regFile_array[25] [31:0] $end
     $var wire 32 Z regFile_array[26] [31:0] $end
     $var wire 32 [ regFile_array[27] [31:0] $end
     $var wire 32 \ regFile_array[28] [31:0] $end
     $var wire 32 ] regFile_array[29] [31:0] $end
     $var wire 32 B regFile_array[2] [31:0] $end
     $var wire 32 ^ regFile_array[30] [31:0] $end
     $var wire 32 _ regFile_array[31] [31:0] $end
     $var wire 32 C regFile_array[3] [31:0] $end
     $var wire 32 D regFile_array[4] [31:0] $end
     $var wire 32 E regFile_array[5] [31:0] $end
     $var wire 32 F regFile_array[6] [31:0] $end
     $var wire 32 G regFile_array[7] [31:0] $end
     $var wire 32 H regFile_array[8] [31:0] $end
     $var wire 32 I regFile_array[9] [31:0] $end
     $var wire  5 & rs1 [4:0] $end
     $var wire  5 ' rs2 [4:0] $end
     $var wire  1 j trigger $end
    $upscope $end
    $scope module resultPCMux1 $end
     $var wire 32 n Data_Width [31:0] $end
     $var wire  1 4 JumpSel $end
     $var wire 32 ; Result [31:0] $end
     $var wire 32 : ResultSrc [31:0] $end
     $var wire 32 0 newPC [31:0] $end
    $upscope $end
    $scope module resultSrcMux1 $end
     $var wire 32 8 ALUResult [31:0] $end
     $var wire 32 n Data_Width [31:0] $end
     $var wire 32 : OutputSrcMux [31:0] $end
     $var wire 32 9 ReadData [31:0] $end
     $var wire  1 3 SrcSel $end
    $upscope $end
   $upscope $end
   $scope module control_unit $end
    $var wire  4 * ALUControl [3:0] $end
    $var wire  2 e ALUOp [1:0] $end
    $var wire  1 ) ALUSrc $end
    $var wire  1 d Branch $end
    $var wire  2 , DataType [1:0] $end
    $var wire  3 1 ImmSrc [2:0] $end
    $var wire  2 - J [1:0] $end
    $var wire  1 2 MemWrite $end
    $var wire  1 % PCSrc $end
    $var wire  1 # RegWrite $end
    $var wire  1 3 ResultSrc $end
    $var wire  1 + Zero $end
    $var wire  1 c Zero_intermediate $end
    $var wire  3 a funct3 [2:0] $end
    $var wire  1 b funct75 $end
    $var wire  7 ` op [6:0] $end
    $scope module a $end
     $var wire  4 * ALUControl [3:0] $end
     $var wire  2 e ALUOp [1:0] $end
     $var wire  2 , DataType [1:0] $end
     $var wire  3 a funct3 [2:0] $end
     $var wire  1 b funct75 $end
    $upscope $end
    $scope module m $end
     $var wire  2 e ALUOp [1:0] $end
     $var wire  1 ) ALUSrc $end
     $var wire  1 d Branch $end
     $var wire  3 1 ImmSrc [2:0] $end
     $var wire  2 - J [1:0] $end
     $var wire  1 2 MemWrite $end
     $var wire  1 # RegWrite $end
     $var wire  1 3 ResultSrc $end
     $var wire  7 ` op [6:0] $end
    $upscope $end
   $upscope $end
   $scope module myPC $end
    $var wire 32 n ADDRESS_WIDTH [31:0] $end
    $var wire 32 n DATA_WIDTH [31:0] $end
    $var wire 32 . ImmOp [31:0] $end
    $var wire  2 - J [1:0] $end
    $var wire 32 f PC [31:0] $end
    $var wire  1 % PCsrc $end
    $var wire  1 k clk $end
    $var wire 32 $ instr [31:0] $end
    $var wire 32 / jalr_PC [31:0] $end
    $var wire 32 0 next_PC [31:0] $end
    $var wire  1 l rst $end
    $scope module pcReg $end
     $var wire 32 n ADDRESS_WIDTH [31:0] $end
     $var wire 32 . ImmOp [31:0] $end
     $var wire  2 - J [1:0] $end
     $var wire 32 f PC [31:0] $end
     $var wire  1 % PCsrc $end
     $var wire 32 g alt_PC [31:0] $end
     $var wire  1 k clk $end
     $var wire 32 0 inc_PC [31:0] $end
     $var wire 32 / jalr_PC [31:0] $end
     $var wire 32 h next_PC [31:0] $end
     $var wire 32 0 pc_alu [31:0] $end
     $var wire  1 l rst $end
    $upscope $end
    $scope module pcRom $end
     $var wire 32 n ADDRESS_WIDTH [31:0] $end
     $var wire 32 p DATA_WIDTH [31:0] $end
     $var wire 32 f PC [31:0] $end
     $var wire 32 $ instr [31:0] $end
    $upscope $end
   $upscope $end
   $scope module sign_extend $end
    $var wire 32 . ImmExt [31:0] $end
    $var wire  3 1 ImmSrc [2:0] $end
    $var wire 25 i imm [31:7] $end
   $upscope $end
  $upscope $end
 $upscope $end
$enddefinitions $end


#0
0#
b00000000000000000000000000000000 $
0%
b00000 &
b00000 '
b00000 (
0)
b0000 *
0+
b00 ,
b00 -
b00000000000000000000000000000000 .
b00000000000000000000000000000000 /
b00000000000000000000000000000100 0
b000 1
02
03
04
b00000000000000000000000000000000 5
b00000000000000000000000000000000 6
b00000000000000000000000000000000 7
b00000000000000000000000000000000 8
b00000000000000000000000000000000 9
b00000000000000000000000000000000 :
b00000000000000000000000000000000 ;
b00000000 <
b00000000 =
b00000000 >
b0000000000000000 ?
b00000000000000000000000000000000 @
b00000000000000000000000000000000 A
b00000000000000000000000000000000 B
b00000000000000000000000000000000 C
b00000000000000000000000000000000 D
b00000000000000000000000000000000 E
b00000000000000000000000000000000 F
b00000000000000000000000000000000 G
b00000000000000000000000000000000 H
b00000000000000000000000000000000 I
b00000000000000000000000000000000 J
b00000000000000000000000000000000 K
b00000000000000000000000000000000 L
b00000000000000000000000000000000 M
b00000000000000000000000000000000 N
b00000000000000000000000000000000 O
b00000000000000000000000000000000 P
b00000000000000000000000000000000 Q
b00000000000000000000000000000000 R
b00000000000000000000000000000000 S
b00000000000000000000000000000000 T
b00000000000000000000000000000000 U
b00000000000000000000000000000000 V
b00000000000000000000000000000000 W
b00000000000000000000000000000000 X
b00000000000000000000000000000000 Y
b00000000000000000000000000000000 Z
b00000000000000000000000000000000 [
b00000000000000000000000000000000 \
b00000000000000000000000000000000 ]
b00000000000000000000000000000000 ^
b00000000000000000000000000000000 _
b0000000 `
b000 a
0b
0c
0d
b00 e
b00000000000000000000000000000000 f
b00000000000000000000000000000000 g
b00000000000000000000000000000100 h
b0000000000000000000000000 i
0j
1k
1l
b00000000000000000000000000000000 m
b00000000000000000000000000100000 n
b00000000000000000000000000000101 o
b00000000000000000000000000001000 p
#1
1#
b00001111111100000000001100010011 $
b11111 '
b00110 (
1)
b00000000000000000000000011111111 .
b00000000000000000000000011111111 /
b00000000000000000000000011111111 7
b00000000000000000000000011111111 8
b00000000000000000000000011111111 :
b00000000000000000000000011111111 ;
b0010011 `
b10 e
b00000000000000000000000011111111 g
b0000111111110000000000110 i
0k
#2
b00000000000000000000000011111111 F
1k
0l
#3
0k
#4
b00000000000000000000000000001000 0
b00000000000000000000000000000100 f
b00000000000000000000000100000011 g
b00000000000000000000000000001000 h
1k
#5
0k
#6
b00000000000000000000010100010011 $
b00000 '
b01010 (
b00000000000000000000000000000000 .
b00000000000000000000000000000000 /
b00000000000000000000000000001100 0
b00000000000000000000000000000000 7
b00000000000000000000000000000000 8
b00000000000000000000000000000000 :
b00000000000000000000000000000000 ;
b00000000000000000000000000001000 f
b00000000000000000000000000001000 g
b00000000000000000000000000001100 h
b0000000000000000000001010 i
1k
#7
0k
#8
b00000000000000000000010110010011 $
b01011 (
b00000000000000000000000000010000 0
b00000000000000000000000000001100 f
b00000000000000000000000000001100 g
b00000000000000000000000000010000 h
b0000000000000000000001011 i
1k
#9
0k
#10
b00000000000001011000010100010011 $
b01011 &
b01010 (
b00000000000000000000000000010100 0
b00000000000000000000000000010000 f
b00000000000000000000000000010000 g
b00000000000000000000000000010100 h
b0000000000000101100001010 i
1k
#11
0k
#12
b00000000000101011000010110010011 $
b00001 '
b01011 (
b00000000000000000000000000000001 .
b00000000000000000000000000000001 /
b00000000000000000000000000011000 0
b00000000000000000000000000000001 7
b00000000000000000000000000000001 8
b00000000000000000000000000000001 :
b00000000000000000000000000000001 ;
b00000000000000000000000000010100 f
b00000000000000000000000000010101 g
b00000000000000000000000000011000 h
b0000000000010101100001011 i
1k
#13
0k
#14
0#
b11111110011001011001110011100011 $
1%
b00110 '
b11001 (
0)
b0001 *
b11111111111111111111111111111000 .
b00000000000000000000000000000000 /
b00000000000000000000000000011100 0
b010 1
b00000000000000000000000000000001 5
b00000000000000000000000011111111 6
b00000000000000000000000011111111 7
b11111111111111111111111100000010 8
b11111111111111111111111100000010 :
b11111111111111111111111100000010 ;
b00000000000000000000000000000001 K
b1100011 `
b001 a
1b
1c
1d
b01 e
b00000000000000000000000000011000 f
b00000000000000000000000000010000 g
b00000000000000000000000000010000 h
b1111111001100101100111001 i
1k
#15
0k
#16
1#
b00000000000001011000010100010011 $
0%
b00000 '
b01010 (
1)
b0000 *
b00000000000000000000000000000000 .
b00000000000000000000000000000001 /
b00000000000000000000000000010100 0
b000 1
b00000000000000000000000000000000 6
b00000000000000000000000000000000 7
b00000000000000000000000000000001 8
b00000000000000000000000000000001 :
b00000000000000000000000000000001 ;
b0010011 `
b000 a
0b
0c
0d
b10 e
b00000000000000000000000000010000 f
b00000000000000000000000000010100 h
b0000000000000101100001010 i
1k
#17
0k
#18
b00000000000101011000010110010011 $
b00001 '
b01011 (
b00000000000000000000000000000001 .
b00000000000000000000000000000010 /
b00000000000000000000000000011000 0
b00000000000000000000000000000001 7
b00000000000000000000000000000010 8
b00000000000000000000000000000010 :
b00000000000000000000000000000010 ;
b00000000000000000000000000000001 J
b00000000000000000000000000010100 f
b00000000000000000000000000010101 g
b00000000000000000000000000011000 h
b0000000000010101100001011 i
1k
b00000000000000000000000000000001 m
#19
0k
#20
0#
b11111110011001011001110011100011 $
1%
b00110 '
b11001 (
0)
b0001 *
b11111111111111111111111111111000 .
b00000000000000000000000000000000 /
b00000000000000000000000000011100 0
b010 1
b00000000000000000000000000000010 5
b00000000000000000000000011111111 6
b00000000000000000000000011111111 7
b11111111111111111111111100000011 8
b11111111111111111111111100000011 :
b11111111111111111111111100000011 ;
b00000000000000000000000000000010 K
b1100011 `
b001 a
1b
1c
1d
b01 e
b00000000000000000000000000011000 f
b00000000000000000000000000010000 g
b00000000000000000000000000010000 h
b1111111001100101100111001 i
1k
#21
0k
#22
1#
b00000000000001011000010100010011 $
0%
b00000 '
b01010 (
1)
b0000 *
b00000000000000000000000000000000 .
b00000000000000000000000000000010 /
b00000000000000000000000000010100 0
b000 1
b00000000000000000000000000000000 6
b00000000000000000000000000000000 7
b00000000000000000000000000000010 8
b00000000000000000000000000000010 :
b00000000000000000000000000000010 ;
b0010011 `
b000 a
0b
0c
0d
b10 e
b00000000000000000000000000010000 f
b00000000000000000000000000010100 h
b0000000000000101100001010 i
1k
#23
0k
#24
b00000000000101011000010110010011 $
b00001 '
b01011 (
b00000000000000000000000000000001 .
b00000000000000000000000000000011 /
b00000000000000000000000000011000 0
b00000000000000000000000000000001 7
b00000000000000000000000000000011 8
b00000000000000000000000000000011 :
b00000000000000000000000000000011 ;
b00000000000000000000000000000010 J
b00000000000000000000000000010100 f
b00000000000000000000000000010101 g
b00000000000000000000000000011000 h
b0000000000010101100001011 i
1k
b00000000000000000000000000000010 m
#25
0k
#26
0#
b11111110011001011001110011100011 $
1%
b00110 '
b11001 (
0)
b0001 *
b11111111111111111111111111111000 .
b00000000000000000000000000000000 /
b00000000000000000000000000011100 0
b010 1
b00000000000000000000000000000011 5
b00000000000000000000000011111111 6
b00000000000000000000000011111111 7
b11111111111111111111111100000100 8
b11111111111111111111111100000100 :
b11111111111111111111111100000100 ;
b00000000000000000000000000000011 K
b1100011 `
b001 a
1b
1c
1d
b01 e
b00000000000000000000000000011000 f
b00000000000000000000000000010000 g
b00000000000000000000000000010000 h
b1111111001100101100111001 i
1k
#27
0k
#28
1#
b00000000000001011000010100010011 $
0%
b00000 '
b01010 (
1)
b0000 *
b00000000000000000000000000000000 .
b00000000000000000000000000000011 /
b00000000000000000000000000010100 0
b000 1
b00000000000000000000000000000000 6
b00000000000000000000000000000000 7
b00000000000000000000000000000011 8
b00000000000000000000000000000011 :
b00000000000000000000000000000011 ;
b0010011 `
b000 a
0b
0c
0d
b10 e
b00000000000000000000000000010000 f
b00000000000000000000000000010100 h
b0000000000000101100001010 i
1k
#29
0k
#30
b00000000000101011000010110010011 $
b00001 '
b01011 (
b00000000000000000000000000000001 .
b00000000000000000000000000000100 /
b00000000000000000000000000011000 0
b00000000000000000000000000000001 7
b00000000000000000000000000000100 8
b00000000000000000000000000000100 :
b00000000000000000000000000000100 ;
b00000000000000000000000000000011 J
b00000000000000000000000000010100 f
b00000000000000000000000000010101 g
b00000000000000000000000000011000 h
b0000000000010101100001011 i
1k
b00000000000000000000000000000011 m
#31
0k
#32
0#
b11111110011001011001110011100011 $
1%
b00110 '
b11001 (
0)
b0001 *
b11111111111111111111111111111000 .
b00000000000000000000000000000000 /
b00000000000000000000000000011100 0
b010 1
b00000000000000000000000000000100 5
b00000000000000000000000011111111 6
b00000000000000000000000011111111 7
b11111111111111111111111100000101 8
b11111111111111111111111100000101 :
b11111111111111111111111100000101 ;
b00000000000000000000000000000100 K
b1100011 `
b001 a
1b
1c
1d
b01 e
b00000000000000000000000000011000 f
b00000000000000000000000000010000 g
b00000000000000000000000000010000 h
b1111111001100101100111001 i
1k
#33
0k
#34
1#
b00000000000001011000010100010011 $
0%
b00000 '
b01010 (
1)
b0000 *
b00000000000000000000000000000000 .
b00000000000000000000000000000100 /
b00000000000000000000000000010100 0
b000 1
b00000000000000000000000000000000 6
b00000000000000000000000000000000 7
b00000000000000000000000000000100 8
b00000000000000000000000000000100 :
b00000000000000000000000000000100 ;
b0010011 `
b000 a
0b
0c
0d
b10 e
b00000000000000000000000000010000 f
b00000000000000000000000000010100 h
b0000000000000101100001010 i
1k
#35
0k
#36
b00000000000101011000010110010011 $
b00001 '
b01011 (
b00000000000000000000000000000001 .
b00000000000000000000000000000101 /
b00000000000000000000000000011000 0
b00000000000000000000000000000001 7
b00000000000000000000000000000101 8
b00000000000000000000000000000101 :
b00000000000000000000000000000101 ;
b00000000000000000000000000000100 J
b00000000000000000000000000010100 f
b00000000000000000000000000010101 g
b00000000000000000000000000011000 h
b0000000000010101100001011 i
1k
b00000000000000000000000000000100 m
#37
0k
#38
0#
b11111110011001011001110011100011 $
1%
b00110 '
b11001 (
0)
b0001 *
b11111111111111111111111111111000 .
b00000000000000000000000000000000 /
b00000000000000000000000000011100 0
b010 1
b00000000000000000000000000000101 5
b00000000000000000000000011111111 6
b00000000000000000000000011111111 7
b11111111111111111111111100000110 8
b11111111111111111111111100000110 :
b11111111111111111111111100000110 ;
b00000000000000000000000000000101 K
b1100011 `
b001 a
1b
1c
1d
b01 e
b00000000000000000000000000011000 f
b00000000000000000000000000010000 g
b00000000000000000000000000010000 h
b1111111001100101100111001 i
1k
#39
0k
#40
1#
b00000000000001011000010100010011 $
0%
b00000 '
b01010 (
1)
b0000 *
b00000000000000000000000000000000 .
b00000000000000000000000000000101 /
b00000000000000000000000000010100 0
b000 1
b00000000000000000000000000000000 6
b00000000000000000000000000000000 7
b00000000000000000000000000000101 8
b00000000000000000000000000000101 :
b00000000000000000000000000000101 ;
b0010011 `
b000 a
0b
0c
0d
b10 e
b00000000000000000000000000010000 f
b00000000000000000000000000010100 h
b0000000000000101100001010 i
1k
#41
0k
#42
b00000000000101011000010110010011 $
b00001 '
b01011 (
b00000000000000000000000000000001 .
b00000000000000000000000000000110 /
b00000000000000000000000000011000 0
b00000000000000000000000000000001 7
b00000000000000000000000000000110 8
b00000000000000000000000000000110 :
b00000000000000000000000000000110 ;
b00000000000000000000000000000101 J
b00000000000000000000000000010100 f
b00000000000000000000000000010101 g
b00000000000000000000000000011000 h
b0000000000010101100001011 i
1k
b00000000000000000000000000000101 m
#43
0k
#44
0#
b11111110011001011001110011100011 $
1%
b00110 '
b11001 (
0)
b0001 *
b11111111111111111111111111111000 .
b00000000000000000000000000000000 /
b00000000000000000000000000011100 0
b010 1
b00000000000000000000000000000110 5
b00000000000000000000000011111111 6
b00000000000000000000000011111111 7
b11111111111111111111111100000111 8
b11111111111111111111111100000111 :
b11111111111111111111111100000111 ;
b00000000000000000000000000000110 K
b1100011 `
b001 a
1b
1c
1d
b01 e
b00000000000000000000000000011000 f
b00000000000000000000000000010000 g
b00000000000000000000000000010000 h
b1111111001100101100111001 i
1k
#45
0k
#46
1#
b00000000000001011000010100010011 $
0%
b00000 '
b01010 (
1)
b0000 *
b00000000000000000000000000000000 .
b00000000000000000000000000000110 /
b00000000000000000000000000010100 0
b000 1
b00000000000000000000000000000000 6
b00000000000000000000000000000000 7
b00000000000000000000000000000110 8
b00000000000000000000000000000110 :
b00000000000000000000000000000110 ;
b0010011 `
b000 a
0b
0c
0d
b10 e
b00000000000000000000000000010000 f
b00000000000000000000000000010100 h
b0000000000000101100001010 i
1k
#47
0k
#48
b00000000000101011000010110010011 $
b00001 '
b01011 (
b00000000000000000000000000000001 .
b00000000000000000000000000000111 /
b00000000000000000000000000011000 0
b00000000000000000000000000000001 7
b00000000000000000000000000000111 8
b00000000000000000000000000000111 :
b00000000000000000000000000000111 ;
b00000000000000000000000000000110 J
b00000000000000000000000000010100 f
b00000000000000000000000000010101 g
b00000000000000000000000000011000 h
b0000000000010101100001011 i
1k
b00000000000000000000000000000110 m
#49
0k
#50
0#
b11111110011001011001110011100011 $
1%
b00110 '
b11001 (
0)
b0001 *
b11111111111111111111111111111000 .
b00000000000000000000000000000000 /
b00000000000000000000000000011100 0
b010 1
b00000000000000000000000000000111 5
b00000000000000000000000011111111 6
b00000000000000000000000011111111 7
b11111111111111111111111100001000 8
b11111111111111111111111100001000 :
b11111111111111111111111100001000 ;
b00000000000000000000000000000111 K
b1100011 `
b001 a
1b
1c
1d
b01 e
b00000000000000000000000000011000 f
b00000000000000000000000000010000 g
b00000000000000000000000000010000 h
b1111111001100101100111001 i
1k
#51
0k
#52
1#
b00000000000001011000010100010011 $
0%
b00000 '
b01010 (
1)
b0000 *
b00000000000000000000000000000000 .
b00000000000000000000000000000111 /
b00000000000000000000000000010100 0
b000 1
b00000000000000000000000000000000 6
b00000000000000000000000000000000 7
b00000000000000000000000000000111 8
b00000000000000000000000000000111 :
b00000000000000000000000000000111 ;
b0010011 `
b000 a
0b
0c
0d
b10 e
b00000000000000000000000000010000 f
b00000000000000000000000000010100 h
b0000000000000101100001010 i
1k
#53
0k
#54
b00000000000101011000010110010011 $
b00001 '
b01011 (
b00000000000000000000000000000001 .
b00000000000000000000000000001000 /
b00000000000000000000000000011000 0
b00000000000000000000000000000001 7
b00000000000000000000000000001000 8
b00000000000000000000000000001000 :
b00000000000000000000000000001000 ;
b00000000000000000000000000000111 J
b00000000000000000000000000010100 f
b00000000000000000000000000010101 g
b00000000000000000000000000011000 h
b0000000000010101100001011 i
1k
b00000000000000000000000000000111 m
#55
0k
#56
0#
b11111110011001011001110011100011 $
1%
b00110 '
b11001 (
0)
b0001 *
b11111111111111111111111111111000 .
b00000000000000000000000000000000 /
b00000000000000000000000000011100 0
b010 1
b00000000000000000000000000001000 5
b00000000000000000000000011111111 6
b00000000000000000000000011111111 7
b11111111111111111111111100001001 8
b11111111111111111111111100001001 :
b11111111111111111111111100001001 ;
b00000000000000000000000000001000 K
b1100011 `
b001 a
1b
1c
1d
b01 e
b00000000000000000000000000011000 f
b00000000000000000000000000010000 g
b00000000000000000000000000010000 h
b1111111001100101100111001 i
1k
#57
0k
#58
1#
b00000000000001011000010100010011 $
0%
b00000 '
b01010 (
1)
b0000 *
b00000000000000000000000000000000 .
b00000000000000000000000000001000 /
b00000000000000000000000000010100 0
b000 1
b00000000000000000000000000000000 6
b00000000000000000000000000000000 7
b00000000000000000000000000001000 8
b00000000000000000000000000001000 :
b00000000000000000000000000001000 ;
b0010011 `
b000 a
0b
0c
0d
b10 e
b00000000000000000000000000010000 f
b00000000000000000000000000010100 h
b0000000000000101100001010 i
1k
#59
0k
#60
b00000000000101011000010110010011 $
b00001 '
b01011 (
b00000000000000000000000000000001 .
b00000000000000000000000000001001 /
b00000000000000000000000000011000 0
b00000000000000000000000000000001 7
b00000000000000000000000000001001 8
b00000000000000000000000000001001 :
b00000000000000000000000000001001 ;
b00000000000000000000000000001000 J
b00000000000000000000000000010100 f
b00000000000000000000000000010101 g
b00000000000000000000000000011000 h
b0000000000010101100001011 i
1k
b00000000000000000000000000001000 m
#61
0k
#62
0#
b11111110011001011001110011100011 $
1%
b00110 '
b11001 (
0)
b0001 *
b11111111111111111111111111111000 .
b00000000000000000000000000000000 /
b00000000000000000000000000011100 0
b010 1
b00000000000000000000000000001001 5
b00000000000000000000000011111111 6
b00000000000000000000000011111111 7
b11111111111111111111111100001010 8
b11111111111111111111111100001010 :
b11111111111111111111111100001010 ;
b00000000000000000000000000001001 K
b1100011 `
b001 a
1b
1c
1d
b01 e
b00000000000000000000000000011000 f
b00000000000000000000000000010000 g
b00000000000000000000000000010000 h
b1111111001100101100111001 i
1k
#63
0k
#64
1#
b00000000000001011000010100010011 $
0%
b00000 '
b01010 (
1)
b0000 *
b00000000000000000000000000000000 .
b00000000000000000000000000001001 /
b00000000000000000000000000010100 0
b000 1
b00000000000000000000000000000000 6
b00000000000000000000000000000000 7
b00000000000000000000000000001001 8
b00000000000000000000000000001001 :
b00000000000000000000000000001001 ;
b0010011 `
b000 a
0b
0c
0d
b10 e
b00000000000000000000000000010000 f
b00000000000000000000000000010100 h
b0000000000000101100001010 i
1k
#65
0k
#66
b00000000000101011000010110010011 $
b00001 '
b01011 (
b00000000000000000000000000000001 .
b00000000000000000000000000001010 /
b00000000000000000000000000011000 0
b00000000000000000000000000000001 7
b00000000000000000000000000001010 8
b00000000000000000000000000001010 :
b00000000000000000000000000001010 ;
b00000000000000000000000000001001 J
b00000000000000000000000000010100 f
b00000000000000000000000000010101 g
b00000000000000000000000000011000 h
b0000000000010101100001011 i
1k
b00000000000000000000000000001001 m
#67
0k
#68
0#
b11111110011001011001110011100011 $
1%
b00110 '
b11001 (
0)
b0001 *
b11111111111111111111111111111000 .
b00000000000000000000000000000000 /
b00000000000000000000000000011100 0
b010 1
b00000000000000000000000000001010 5
b00000000000000000000000011111111 6
b00000000000000000000000011111111 7
b11111111111111111111111100001011 8
b11111111111111111111111100001011 :
b11111111111111111111111100001011 ;
b00000000000000000000000000001010 K
b1100011 `
b001 a
1b
1c
1d
b01 e
b00000000000000000000000000011000 f
b00000000000000000000000000010000 g
b00000000000000000000000000010000 h
b1111111001100101100111001 i
1k
#69
0k
#70
1#
b00000000000001011000010100010011 $
0%
b00000 '
b01010 (
1)
b0000 *
b00000000000000000000000000000000 .
b00000000000000000000000000001010 /
b00000000000000000000000000010100 0
b000 1
b00000000000000000000000000000000 6
b00000000000000000000000000000000 7
b00000000000000000000000000001010 8
b00000000000000000000000000001010 :
b00000000000000000000000000001010 ;
b0010011 `
b000 a
0b
0c
0d
b10 e
b00000000000000000000000000010000 f
b00000000000000000000000000010100 h
b0000000000000101100001010 i
1k
#71
0k
#72
b00000000000101011000010110010011 $
b00001 '
b01011 (
b00000000000000000000000000000001 .
b00000000000000000000000000001011 /
b00000000000000000000000000011000 0
b00000000000000000000000000000001 7
b00000000000000000000000000001011 8
b00000000000000000000000000001011 :
b00000000000000000000000000001011 ;
b00000000000000000000000000001010 J
b00000000000000000000000000010100 f
b00000000000000000000000000010101 g
b00000000000000000000000000011000 h
b0000000000010101100001011 i
1k
b00000000000000000000000000001010 m
#73
0k
#74
0#
b11111110011001011001110011100011 $
1%
b00110 '
b11001 (
0)
b0001 *
b11111111111111111111111111111000 .
b00000000000000000000000000000000 /
b00000000000000000000000000011100 0
b010 1
b00000000000000000000000000001011 5
b00000000000000000000000011111111 6
b00000000000000000000000011111111 7
b11111111111111111111111100001100 8
b11111111111111111111111100001100 :
b11111111111111111111111100001100 ;
b00000000000000000000000000001011 K
b1100011 `
b001 a
1b
1c
1d
b01 e
b00000000000000000000000000011000 f
b00000000000000000000000000010000 g
b00000000000000000000000000010000 h
b1111111001100101100111001 i
1k
#75
0k
#76
1#
b00000000000001011000010100010011 $
0%
b00000 '
b01010 (
1)
b0000 *
b00000000000000000000000000000000 .
b00000000000000000000000000001011 /
b00000000000000000000000000010100 0
b000 1
b00000000000000000000000000000000 6
b00000000000000000000000000000000 7
b00000000000000000000000000001011 8
b00000000000000000000000000001011 :
b00000000000000000000000000001011 ;
b0010011 `
b000 a
0b
0c
0d
b10 e
b00000000000000000000000000010000 f
b00000000000000000000000000010100 h
b0000000000000101100001010 i
1k
#77
0k
#78
b00000000000101011000010110010011 $
b00001 '
b01011 (
b00000000000000000000000000000001 .
b00000000000000000000000000001100 /
b00000000000000000000000000011000 0
b00000000000000000000000000000001 7
b00000000000000000000000000001100 8
b00000000000000000000000000001100 :
b00000000000000000000000000001100 ;
b00000000000000000000000000001011 J
b00000000000000000000000000010100 f
b00000000000000000000000000010101 g
b00000000000000000000000000011000 h
b0000000000010101100001011 i
1k
b00000000000000000000000000001011 m
#79
0k
