top.vcd
$version Generated by VerilatedVcd $end
$date Thu Dec  8 11:45:20 2022 $end
$timescale 1ps $end

 $scope module TOP $end
  $var wire 32 k a0 [31:0] $end
  $var wire  1 i clk $end
  $var wire  1 j rst $end
  $var wire  1 h trigger $end
  $scope module top $end
   $var wire 32 l ADDRESS_WIDTH [31:0] $end
   $var wire  1 ) ALUSrc $end
   $var wire  4 * ALU_ctrl [3:0] $end
   $var wire 32 l DATA_WIDTH [31:0] $end
   $var wire  2 , DataType [1:0] $end
   $var wire  1 + EQ $end
   $var wire 32 . ImmOp [31:0] $end
   $var wire  2 0 ImmSrc [1:0] $end
   $var wire  1 - J $end
   $var wire  1 1 MemWrite $end
   $var wire 32 $ PC_instr [31:0] $end
   $var wire  1 % PCsrc $end
   $var wire  1 # RegWrite $end
   $var wire  1 2 ResultSrc $end
   $var wire 32 k a0 [31:0] $end
   $var wire  1 i clk $end
   $var wire 32 / next_PC [31:0] $end
   $var wire  5 ( rd [4:0] $end
   $var wire  5 & rs1 [4:0] $end
   $var wire  5 ' rs2 [4:0] $end
   $var wire  1 j rst $end
   $var wire  1 h trigger $end
   $scope module ALU $end
    $var wire 32 5 ALUOp2 [31:0] $end
    $var wire  1 ) ALUSrc $end
    $var wire  4 * ALU_ctrl [3:0] $end
    $var wire 32 6 ALUout [31:0] $end
    $var wire 32 m Address_Width_RegFile [31:0] $end
    $var wire 32 l Data_Width [31:0] $end
    $var wire 32 . ImmOp [31:0] $end
    $var wire  1 - JumpSel $end
    $var wire  1 1 MemWrite $end
    $var wire 32 7 ReadData [31:0] $end
    $var wire 32 8 ResultSrcOutput [31:0] $end
    $var wire  1 2 SrcSel $end
    $var wire 32 k a0 [31:0] $end
    $var wire  1 i clk $end
    $var wire  2 , dataType [1:0] $end
    $var wire  1 + eq $end
    $var wire 32 / newPC [31:0] $end
    $var wire  5 ( rd [4:0] $end
    $var wire 32 3 rd1 [31:0] $end
    $var wire 32 4 rd2 [31:0] $end
    $var wire  1 # regFileWen $end
    $var wire 32 9 regWrite [31:0] $end
    $var wire  5 & rs1 [4:0] $end
    $var wire  5 ' rs2 [4:0] $end
    $var wire  1 h trigger $end
    $scope module alu1 $end
     $var wire  4 * ALU_ctrl [3:0] $end
     $var wire 32 6 ALUout [31:0] $end
     $var wire 32 l Data_Width [31:0] $end
     $var wire  1 + eq $end
     $var wire 32 3 op1 [31:0] $end
     $var wire 32 5 op2 [31:0] $end
    $upscope $end
    $scope module mux1 $end
     $var wire 32 5 ALUOp2 [31:0] $end
     $var wire  1 ) ALUSrc $end
     $var wire 32 l Data_Width [31:0] $end
     $var wire 32 . ImmOp [31:0] $end
     $var wire 32 4 regOp2 [31:0] $end
    $upscope $end
    $scope module ram1 $end
     $var wire 32 6 A [31:0] $end
     $var wire 32 l ADDRESS_WIDTH [31:0] $end
     $var wire 32 n BYTE_WIDTH [31:0] $end
     $var wire 32 l DATA_WIDTH [31:0] $end
     $var wire 32 7 RD [31:0] $end
     $var wire 32 4 WD [31:0] $end
     $var wire  1 1 WE $end
     $var wire  8 < byteAssign [7:0] $end
     $var wire  1 i clk $end
     $var wire  2 , dataType [1:0] $end
     $var wire 16 = halfwordAssign [15:0] $end
     $var wire  8 : ram_array[-1] [7:0] $end
     $var wire  8 ; ram_array[0] [7:0] $end
    $upscope $end
    $scope module regFile1 $end
     $var wire 32 m Address_Width [31:0] $end
     $var wire 32 l Data_Width [31:0] $end
     $var wire 32 k a0 [31:0] $end
     $var wire  1 i clk $end
     $var wire 32 9 din [31:0] $end
     $var wire  1 # en $end
     $var wire  5 ( rd [4:0] $end
     $var wire 32 3 rd1 [31:0] $end
     $var wire 32 4 rd2 [31:0] $end
     $var wire 32 > regFile_array[0] [31:0] $end
     $var wire 32 H regFile_array[10] [31:0] $end
     $var wire 32 I regFile_array[11] [31:0] $end
     $var wire 32 J regFile_array[12] [31:0] $end
     $var wire 32 K regFile_array[13] [31:0] $end
     $var wire 32 L regFile_array[14] [31:0] $end
     $var wire 32 M regFile_array[15] [31:0] $end
     $var wire 32 N regFile_array[16] [31:0] $end
     $var wire 32 O regFile_array[17] [31:0] $end
     $var wire 32 P regFile_array[18] [31:0] $end
     $var wire 32 Q regFile_array[19] [31:0] $end
     $var wire 32 ? regFile_array[1] [31:0] $end
     $var wire 32 R regFile_array[20] [31:0] $end
     $var wire 32 S regFile_array[21] [31:0] $end
     $var wire 32 T regFile_array[22] [31:0] $end
     $var wire 32 U regFile_array[23] [31:0] $end
     $var wire 32 V regFile_array[24] [31:0] $end
     $var wire 32 W regFile_array[25] [31:0] $end
     $var wire 32 X regFile_array[26] [31:0] $end
     $var wire 32 Y regFile_array[27] [31:0] $end
     $var wire 32 Z regFile_array[28] [31:0] $end
     $var wire 32 [ regFile_array[29] [31:0] $end
     $var wire 32 @ regFile_array[2] [31:0] $end
     $var wire 32 \ regFile_array[30] [31:0] $end
     $var wire 32 ] regFile_array[31] [31:0] $end
     $var wire 32 A regFile_array[3] [31:0] $end
     $var wire 32 B regFile_array[4] [31:0] $end
     $var wire 32 C regFile_array[5] [31:0] $end
     $var wire 32 D regFile_array[6] [31:0] $end
     $var wire 32 E regFile_array[7] [31:0] $end
     $var wire 32 F regFile_array[8] [31:0] $end
     $var wire 32 G regFile_array[9] [31:0] $end
     $var wire  5 & rs1 [4:0] $end
     $var wire  5 ' rs2 [4:0] $end
     $var wire  1 h trigger $end
    $upscope $end
    $scope module resultPCMux1 $end
     $var wire 32 l Data_Width [31:0] $end
     $var wire  1 - JumpSel $end
     $var wire 32 9 Result [31:0] $end
     $var wire 32 8 ResultSrc [31:0] $end
     $var wire 32 / newPC [31:0] $end
    $upscope $end
    $scope module resultSrcMux1 $end
     $var wire 32 6 ALUResult [31:0] $end
     $var wire 32 l Data_Width [31:0] $end
     $var wire 32 8 OutputSrcMux [31:0] $end
     $var wire 32 7 ReadData [31:0] $end
     $var wire  1 2 SrcSel $end
    $upscope $end
   $upscope $end
   $scope module control_unit $end
    $var wire  4 * ALUControl [3:0] $end
    $var wire  2 c ALUOp [1:0] $end
    $var wire  1 ) ALUSrc $end
    $var wire  1 b Branch $end
    $var wire  2 , DataType [1:0] $end
    $var wire  2 0 ImmSrc [1:0] $end
    $var wire  1 - J $end
    $var wire  1 1 MemWrite $end
    $var wire  1 % PCSrc $end
    $var wire  1 # RegWrite $end
    $var wire  1 2 ResultSrc $end
    $var wire  1 + Zero $end
    $var wire  1 a Zero_intermediate $end
    $var wire  3 _ funct3 [2:0] $end
    $var wire  1 ` funct75 $end
    $var wire  7 ^ op [6:0] $end
    $scope module a $end
     $var wire  4 * ALUControl [3:0] $end
     $var wire  2 c ALUOp [1:0] $end
     $var wire  2 , DataType [1:0] $end
     $var wire  3 _ funct3 [2:0] $end
     $var wire  1 ` funct75 $end
    $upscope $end
    $scope module m $end
     $var wire  2 c ALUOp [1:0] $end
     $var wire  1 ) ALUSrc $end
     $var wire  1 b Branch $end
     $var wire  2 0 ImmSrc [1:0] $end
     $var wire  1 - J $end
     $var wire  1 1 MemWrite $end
     $var wire  1 # RegWrite $end
     $var wire  1 2 ResultSrc $end
     $var wire  7 ^ op [6:0] $end
    $upscope $end
   $upscope $end
   $scope module myPC $end
    $var wire 32 l ADDRESS_WIDTH [31:0] $end
    $var wire 32 l DATA_WIDTH [31:0] $end
    $var wire 32 . ImmOp [31:0] $end
    $var wire 32 d PC [31:0] $end
    $var wire  1 % PCsrc $end
    $var wire  1 i clk $end
    $var wire 32 $ instr [31:0] $end
    $var wire 32 / next_PC [31:0] $end
    $var wire  1 j rst $end
    $scope module pcReg $end
     $var wire 32 l ADDRESS_WIDTH [31:0] $end
     $var wire 32 . ImmOp [31:0] $end
     $var wire 32 d PC [31:0] $end
     $var wire  1 % PCsrc $end
     $var wire 32 e alt_PC [31:0] $end
     $var wire  1 i clk $end
     $var wire 32 / inc_PC [31:0] $end
     $var wire 32 f next_PC [31:0] $end
     $var wire 32 / pc_alu [31:0] $end
     $var wire  1 j rst $end
    $upscope $end
    $scope module pcRom $end
     $var wire 32 l ADDRESS_WIDTH [31:0] $end
     $var wire 32 n DATA_WIDTH [31:0] $end
     $var wire 32 d PC [31:0] $end
     $var wire 32 $ instr [31:0] $end
    $upscope $end
   $upscope $end
   $scope module sign_extend $end
    $var wire 32 . ImmExt [31:0] $end
    $var wire  2 0 ImmSrc [1:0] $end
    $var wire 25 g imm [31:7] $end
   $upscope $end
  $upscope $end
 $upscope $end
$enddefinitions $end


#0
0#
b00000000000000000000000000000000 $
0%
b00000 &
b00000 '
b00000 (
0)
b0000 *
0+
b00 ,
0-
b00000000000000000000000000000000 .
b00000000000000000000000000000100 /
b00 0
01
02
b00000000000000000000000000000000 3
b00000000000000000000000000000000 4
b00000000000000000000000000000000 5
b00000000000000000000000000000000 6
b00000000000000000000000000000000 7
b00000000000000000000000000000000 8
b00000000000000000000000000000000 9
b00000000 :
b00000000 ;
b00000000 <
b0000000000000000 =
b00000000000000000000000000000000 >
b00000000000000000000000000000000 ?
b00000000000000000000000000000000 @
b00000000000000000000000000000000 A
b00000000000000000000000000000000 B
b00000000000000000000000000000000 C
b00000000000000000000000000000000 D
b00000000000000000000000000000000 E
b00000000000000000000000000000000 F
b00000000000000000000000000000000 G
b00000000000000000000000000000000 H
b00000000000000000000000000000000 I
b00000000000000000000000000000000 J
b00000000000000000000000000000000 K
b00000000000000000000000000000000 L
b00000000000000000000000000000000 M
b00000000000000000000000000000000 N
b00000000000000000000000000000000 O
b00000000000000000000000000000000 P
b00000000000000000000000000000000 Q
b00000000000000000000000000000000 R
b00000000000000000000000000000000 S
b00000000000000000000000000000000 T
b00000000000000000000000000000000 U
b00000000000000000000000000000000 V
b00000000000000000000000000000000 W
b00000000000000000000000000000000 X
b00000000000000000000000000000000 Y
b00000000000000000000000000000000 Z
b00000000000000000000000000000000 [
b00000000000000000000000000000000 \
b00000000000000000000000000000000 ]
b0000000 ^
b000 _
0`
0a
0b
b00 c
b00000000000000000000000000000000 d
b00000000000000000000000000000000 e
b00000000000000000000000000000100 f
b0000000000000000000000000 g
0h
1i
1j
b00000000000000000000000000000000 k
b00000000000000000000000000100000 l
b00000000000000000000000000000101 m
b00000000000000000000000000001000 n
#1
1#
b00000000101001111000011110010011 $
b01111 &
b01010 '
b01111 (
1)
b00000000000000000000000000001010 .
b00000000000000000000000000001010 5
b00000000000000000000000000001010 6
b00000000000000000000000000001010 8
b00000000000000000000000000001010 9
b0010011 ^
b10 c
b00000000000000000000000000001010 e
b0000000010100111100001111 g
0i
#2
b00000000000000000000000000001010 3
b00000000000000000000000000010100 6
b00000000000000000000000000010100 8
b00000000000000000000000000010100 9
b00000000000000000000000000001010 M
1i
0j
#3
0i
#4
b00000000000111110000111100010011 $
b11110 &
b00001 '
b11110 (
b00000000000000000000000000000001 .
b00000000000000000000000000001000 /
b00000000000000000000000000000000 3
b00000000000000000000000000000001 5
b00000000000000000000000000000001 6
b00000000000000000000000000000001 8
b00000000000000000000000000000001 9
b00000000000000000000000000010100 M
b00000000000000000000000000000100 d
b00000000000000000000000000000101 e
b00000000000000000000000000001000 f
b0000000000011111000011110 g
1i
#5
0i
#6
b00000000000100000000010100010011 $
b00000 &
b01010 (
b00000000000000000000000000001100 /
b00000000000000000000000000000001 \
b00000000000000000000000000001000 d
b00000000000000000000000000001001 e
b00000000000000000000000000001100 f
b0000000000010000000001010 g
1i
#7
0i
#8
b00000000001100000000010100010011 $
b00011 '
b00000000000000000000000000000011 .
b00000000000000000000000000010000 /
b00000000000000000000000000000011 5
b00000000000000000000000000000011 6
b00000000000000000000000000000011 8
b00000000000000000000000000000011 9
b00000000000000000000000000000001 H
b00000000000000000000000000001100 d
b00000000000000000000000000001111 e
b00000000000000000000000000010000 f
b0000000000110000000001010 g
1i
b00000000000000000000000000000001 k
#9
0i
#10
b00000000011100000000010100010011 $
b00111 '
b00000000000000000000000000000111 .
b00000000000000000000000000010100 /
b00000000000000000000000000000111 5
b00000000000000000000000000000111 6
b00000000000000000000000000000111 8
b00000000000000000000000000000111 9
b00000000000000000000000000000011 H
b00000000000000000000000000010000 d
b00000000000000000000000000010111 e
b00000000000000000000000000010100 f
b0000000001110000000001010 g
1i
b00000000000000000000000000000011 k
#11
0i
#12
b00000000111100000000010100010011 $
b01111 '
b00000000000000000000000000001111 .
b00000000000000000000000000011000 /
b00000000000000000000000000010100 4
b00000000000000000000000000001111 5
b00000000000000000000000000001111 6
b00000000000000000000000000001111 8
b00000000000000000000000000001111 9
b00000000000000000000000000000111 H
b00000000000000000000000000010100 d
b00000000000000000000000000100011 e
b00000000000000000000000000011000 f
b0000000011110000000001010 g
1i
b00000000000000000000000000000111 k
#13
0i
#14
b00000001111100000000010100010011 $
b11111 '
b00000000000000000000000000011111 .
b00000000000000000000000000011100 /
b00000000000000000000000000000000 4
b00000000000000000000000000011111 5
b00000000000000000000000000011111 6
b00000000000000000000000000011111 8
b00000000000000000000000000011111 9
b00000000000000000000000000001111 H
b00000000000000000000000000011000 d
b00000000000000000000000000110111 e
b00000000000000000000000000011100 f
b0000000111110000000001010 g
1i
b00000000000000000000000000001111 k
#15
0i
#16
b00000011111100000000010100010011 $
b00000000000000000000000000111111 .
b00000000000000000000000000100000 /
b00000000000000000000000000111111 5
b00000000000000000000000000111111 6
b00000000000000000000000000111111 8
b00000000000000000000000000111111 9
b00000000000000000000000000011111 H
b00000000000000000000000000011100 d
b00000000000000000000000001011011 e
b00000000000000000000000000100000 f
b0000001111110000000001010 g
1i
b00000000000000000000000000011111 k
#17
0i
#18
b00000111111100000000010100010011 $
b00000000000000000000000001111111 .
b00000000000000000000000000100100 /
b00000000000000000000000001111111 5
b00000000000000000000000001111111 6
b00000000000000000000000001111111 8
b00000000000000000000000001111111 9
b00000000000000000000000000111111 H
b00000000000000000000000000100000 d
b00000000000000000000000010011111 e
b00000000000000000000000000100100 f
b0000011111110000000001010 g
1i
b00000000000000000000000000111111 k
#19
0i
#20
b00001111111100000000010100010011 $
b00000000000000000000000011111111 .
b00000000000000000000000000101000 /
b00000000000000000000000011111111 5
b00000000000000000000000011111111 6
b00000000000000000000000011111111 8
b00000000000000000000000011111111 9
b00000000000000000000000001111111 H
b00000000000000000000000000100100 d
b00000000000000000000000100100011 e
b00000000000000000000000000101000 f
b0000111111110000000001010 g
1i
b00000000000000000000000001111111 k
#21
0i
#22
0#
b00000000000001111000101001100011 $
b01111 &
b00000 '
b10100 (
0)
b0001 *
b00000000000000000000000000010100 .
b00000000000000000000000000101100 /
b10 0
b00000000000000000000000000010100 3
b00000000000000000000000000000000 5
b00000000000000000000000000010100 6
b00000000000000000000000000010100 8
b00000000000000000000000000010100 9
b00000000000000000000000011111111 H
b1100011 ^
1b
b01 c
b00000000000000000000000000101000 d
b00000000000000000000000000111100 e
b00000000000000000000000000101100 f
b0000000000000111100010100 g
1i
b00000000000000000000000011111111 k
#23
0i
#24
1#
b00000000010000000000000011101111 $
1%
b00000 &
b00100 '
b00001 (
b0000 *
b01 ,
1-
b00000000000000000000000000000100 .
b00000000000000000000000000110000 /
b11 0
b00000000000000000000000000000000 3
b00000000000000000000000000000000 6
b00000000000000000000000000000000 8
b00000000000000000000000000110000 9
b1101111 ^
0b
b00 c
b00000000000000000000000000101100 d
b00000000000000000000000000110000 e
b00000000000000000000000000110000 f
b0000000001000000000000001 g
1i
#25
0i
#26
b01000001111001111000011110110011 $
0%
b01111 &
b11110 '
b01111 (
b0001 *
0-
b00000000000000000000010000011110 .
b00000000000000000000000000110100 /
b00 0
b00000000000000000000000000010100 3
b00000000000000000000000000000001 4
b00000000000000000000000000000001 5
b00000000000000000000000000010011 6
b00000000000000000000000000010011 8
b00000000000000000000000000010011 9
b00000000000000000000000000110000 ?
b0110011 ^
1`
b10 c
b00000000000000000000000000110000 d
b00000000000000000000010001001110 e
b00000000000000000000000000110100 f
b0100000111100111100001111 g
1i
#27
0i
#28
0#
b11111110000001111001111011100011 $
1%
b00000 '
b11101 (
b11111111111111111111111111111100 .
b00000000000000000000000000111000 /
b10 0
b00000000000000000000000000010011 3
b00000000000000000000000000000000 4
b00000000000000000000000000000000 5
b00000000000000000000000000010011 M
b1100011 ^
b001 _
1a
1b
b01 c
b00000000000000000000000000110100 d
b00000000000000000000000000110000 e
b00000000000000000000000000110000 f
b1111111000000111100111101 g
1i
#29
0i
#30
1#
b01000001111001111000011110110011 $
0%
b11110 '
b01111 (
b00000000000000000000010000011110 .
b00000000000000000000000000110100 /
b00 0
b00000000000000000000000000000001 4
b00000000000000000000000000000001 5
b00000000000000000000000000010010 6
b00000000000000000000000000010010 8
b00000000000000000000000000010010 9
b0110011 ^
b000 _
0a
0b
b10 c
b00000000000000000000000000110000 d
b00000000000000000000010001001110 e
b00000000000000000000000000110100 f
b0100000111100111100001111 g
1i
#31
0i
#32
0#
b11111110000001111001111011100011 $
1%
b00000 '
b11101 (
b11111111111111111111111111111100 .
b00000000000000000000000000111000 /
b10 0
b00000000000000000000000000010010 3
b00000000000000000000000000000000 4
b00000000000000000000000000000000 5
b00000000000000000000000000010010 M
b1100011 ^
b001 _
1a
1b
b01 c
b00000000000000000000000000110100 d
b00000000000000000000000000110000 e
b00000000000000000000000000110000 f
b1111111000000111100111101 g
1i
#33
0i
#34
1#
b01000001111001111000011110110011 $
0%
b11110 '
b01111 (
b00000000000000000000010000011110 .
b00000000000000000000000000110100 /
b00 0
b00000000000000000000000000000001 4
b00000000000000000000000000000001 5
b00000000000000000000000000010001 6
b00000000000000000000000000010001 8
b00000000000000000000000000010001 9
b0110011 ^
b000 _
0a
0b
b10 c
b00000000000000000000000000110000 d
b00000000000000000000010001001110 e
b00000000000000000000000000110100 f
b0100000111100111100001111 g
1i
#35
0i
#36
0#
b11111110000001111001111011100011 $
1%
b00000 '
b11101 (
b11111111111111111111111111111100 .
b00000000000000000000000000111000 /
b10 0
b00000000000000000000000000010001 3
b00000000000000000000000000000000 4
b00000000000000000000000000000000 5
b00000000000000000000000000010001 M
b1100011 ^
b001 _
1a
1b
b01 c
b00000000000000000000000000110100 d
b00000000000000000000000000110000 e
b00000000000000000000000000110000 f
b1111111000000111100111101 g
1i
#37
0i
#38
1#
b01000001111001111000011110110011 $
0%
b11110 '
b01111 (
b00000000000000000000010000011110 .
b00000000000000000000000000110100 /
b00 0
b00000000000000000000000000000001 4
b00000000000000000000000000000001 5
b00000000000000000000000000010000 6
b00000000000000000000000000010000 8
b00000000000000000000000000010000 9
b0110011 ^
b000 _
0a
0b
b10 c
b00000000000000000000000000110000 d
b00000000000000000000010001001110 e
b00000000000000000000000000110100 f
b0100000111100111100001111 g
1i
#39
0i
#40
0#
b11111110000001111001111011100011 $
1%
b00000 '
b11101 (
b11111111111111111111111111111100 .
b00000000000000000000000000111000 /
b10 0
b00000000000000000000000000010000 3
b00000000000000000000000000000000 4
b00000000000000000000000000000000 5
b00000000000000000000000000010000 M
b1100011 ^
b001 _
1a
1b
b01 c
b00000000000000000000000000110100 d
b00000000000000000000000000110000 e
b00000000000000000000000000110000 f
b1111111000000111100111101 g
1i
#41
0i
#42
1#
b01000001111001111000011110110011 $
0%
b11110 '
b01111 (
b00000000000000000000010000011110 .
b00000000000000000000000000110100 /
b00 0
b00000000000000000000000000000001 4
b00000000000000000000000000000001 5
b00000000000000000000000000001111 6
b00000000000000000000000000001111 8
b00000000000000000000000000001111 9
b0110011 ^
b000 _
0a
0b
b10 c
b00000000000000000000000000110000 d
b00000000000000000000010001001110 e
b00000000000000000000000000110100 f
b0100000111100111100001111 g
1i
#43
0i
#44
0#
b11111110000001111001111011100011 $
1%
b00000 '
b11101 (
b11111111111111111111111111111100 .
b00000000000000000000000000111000 /
b10 0
b00000000000000000000000000001111 3
b00000000000000000000000000000000 4
b00000000000000000000000000000000 5
b00000000000000000000000000001111 M
b1100011 ^
b001 _
1a
1b
b01 c
b00000000000000000000000000110100 d
b00000000000000000000000000110000 e
b00000000000000000000000000110000 f
b1111111000000111100111101 g
1i
#45
0i
#46
1#
b01000001111001111000011110110011 $
0%
b11110 '
b01111 (
b00000000000000000000010000011110 .
b00000000000000000000000000110100 /
b00 0
b00000000000000000000000000000001 4
b00000000000000000000000000000001 5
b00000000000000000000000000001110 6
b00000000000000000000000000001110 8
b00000000000000000000000000001110 9
b0110011 ^
b000 _
0a
0b
b10 c
b00000000000000000000000000110000 d
b00000000000000000000010001001110 e
b00000000000000000000000000110100 f
b0100000111100111100001111 g
1i
#47
0i
#48
0#
b11111110000001111001111011100011 $
1%
b00000 '
b11101 (
b11111111111111111111111111111100 .
b00000000000000000000000000111000 /
b10 0
b00000000000000000000000000001110 3
b00000000000000000000000000000000 4
b00000000000000000000000000000000 5
b00000000000000000000000000001110 M
b1100011 ^
b001 _
1a
1b
b01 c
b00000000000000000000000000110100 d
b00000000000000000000000000110000 e
b00000000000000000000000000110000 f
b1111111000000111100111101 g
1i
#49
0i
#50
1#
b01000001111001111000011110110011 $
0%
b11110 '
b01111 (
b00000000000000000000010000011110 .
b00000000000000000000000000110100 /
b00 0
b00000000000000000000000000000001 4
b00000000000000000000000000000001 5
b00000000000000000000000000001101 6
b00000000000000000000000000001101 8
b00000000000000000000000000001101 9
b0110011 ^
b000 _
0a
0b
b10 c
b00000000000000000000000000110000 d
b00000000000000000000010001001110 e
b00000000000000000000000000110100 f
b0100000111100111100001111 g
1i
#51
0i
#52
0#
b11111110000001111001111011100011 $
1%
b00000 '
b11101 (
b11111111111111111111111111111100 .
b00000000000000000000000000111000 /
b10 0
b00000000000000000000000000001101 3
b00000000000000000000000000000000 4
b00000000000000000000000000000000 5
b00000000000000000000000000001101 M
b1100011 ^
b001 _
1a
1b
b01 c
b00000000000000000000000000110100 d
b00000000000000000000000000110000 e
b00000000000000000000000000110000 f
b1111111000000111100111101 g
1i
#53
0i
#54
1#
b01000001111001111000011110110011 $
0%
b11110 '
b01111 (
b00000000000000000000010000011110 .
b00000000000000000000000000110100 /
b00 0
b00000000000000000000000000000001 4
b00000000000000000000000000000001 5
b00000000000000000000000000001100 6
b00000000000000000000000000001100 8
b00000000000000000000000000001100 9
b0110011 ^
b000 _
0a
0b
b10 c
b00000000000000000000000000110000 d
b00000000000000000000010001001110 e
b00000000000000000000000000110100 f
b0100000111100111100001111 g
1i
#55
0i
#56
0#
b11111110000001111001111011100011 $
1%
b00000 '
b11101 (
b11111111111111111111111111111100 .
b00000000000000000000000000111000 /
b10 0
b00000000000000000000000000001100 3
b00000000000000000000000000000000 4
b00000000000000000000000000000000 5
b00000000000000000000000000001100 M
b1100011 ^
b001 _
1a
1b
b01 c
b00000000000000000000000000110100 d
b00000000000000000000000000110000 e
b00000000000000000000000000110000 f
b1111111000000111100111101 g
1i
#57
0i
#58
1#
b01000001111001111000011110110011 $
0%
b11110 '
b01111 (
b00000000000000000000010000011110 .
b00000000000000000000000000110100 /
b00 0
b00000000000000000000000000000001 4
b00000000000000000000000000000001 5
b00000000000000000000000000001011 6
b00000000000000000000000000001011 8
b00000000000000000000000000001011 9
b0110011 ^
b000 _
0a
0b
b10 c
b00000000000000000000000000110000 d
b00000000000000000000010001001110 e
b00000000000000000000000000110100 f
b0100000111100111100001111 g
1i
#59
0i
#60
0#
b11111110000001111001111011100011 $
1%
b00000 '
b11101 (
b11111111111111111111111111111100 .
b00000000000000000000000000111000 /
b10 0
b00000000000000000000000000001011 3
b00000000000000000000000000000000 4
b00000000000000000000000000000000 5
b00000000000000000000000000001011 M
b1100011 ^
b001 _
1a
1b
b01 c
b00000000000000000000000000110100 d
b00000000000000000000000000110000 e
b00000000000000000000000000110000 f
b1111111000000111100111101 g
1i
#61
0i
#62
1#
b01000001111001111000011110110011 $
0%
b11110 '
b01111 (
b00000000000000000000010000011110 .
b00000000000000000000000000110100 /
b00 0
b00000000000000000000000000000001 4
b00000000000000000000000000000001 5
b00000000000000000000000000001010 6
b00000000000000000000000000001010 8
b00000000000000000000000000001010 9
b0110011 ^
b000 _
0a
0b
b10 c
b00000000000000000000000000110000 d
b00000000000000000000010001001110 e
b00000000000000000000000000110100 f
b0100000111100111100001111 g
1i
#63
0i
#64
0#
b11111110000001111001111011100011 $
1%
b00000 '
b11101 (
b11111111111111111111111111111100 .
b00000000000000000000000000111000 /
b10 0
b00000000000000000000000000001010 3
b00000000000000000000000000000000 4
b00000000000000000000000000000000 5
b00000000000000000000000000001010 M
b1100011 ^
b001 _
1a
1b
b01 c
b00000000000000000000000000110100 d
b00000000000000000000000000110000 e
b00000000000000000000000000110000 f
b1111111000000111100111101 g
1i
#65
0i
#66
1#
b01000001111001111000011110110011 $
0%
b11110 '
b01111 (
b00000000000000000000010000011110 .
b00000000000000000000000000110100 /
b00 0
b00000000000000000000000000000001 4
b00000000000000000000000000000001 5
b00000000000000000000000000001001 6
b00000000000000000000000000001001 8
b00000000000000000000000000001001 9
b0110011 ^
b000 _
0a
0b
b10 c
b00000000000000000000000000110000 d
b00000000000000000000010001001110 e
b00000000000000000000000000110100 f
b0100000111100111100001111 g
1i
#67
0i
#68
0#
b11111110000001111001111011100011 $
1%
b00000 '
b11101 (
b11111111111111111111111111111100 .
b00000000000000000000000000111000 /
b10 0
b00000000000000000000000000001001 3
b00000000000000000000000000000000 4
b00000000000000000000000000000000 5
b00000000000000000000000000001001 M
b1100011 ^
b001 _
1a
1b
b01 c
b00000000000000000000000000110100 d
b00000000000000000000000000110000 e
b00000000000000000000000000110000 f
b1111111000000111100111101 g
1i
#69
0i
#70
1#
b01000001111001111000011110110011 $
0%
b11110 '
b01111 (
b00000000000000000000010000011110 .
b00000000000000000000000000110100 /
b00 0
b00000000000000000000000000000001 4
b00000000000000000000000000000001 5
b00000000000000000000000000001000 6
b00000000000000000000000000001000 8
b00000000000000000000000000001000 9
b0110011 ^
b000 _
0a
0b
b10 c
b00000000000000000000000000110000 d
b00000000000000000000010001001110 e
b00000000000000000000000000110100 f
b0100000111100111100001111 g
1i
#71
0i
#72
0#
b11111110000001111001111011100011 $
1%
b00000 '
b11101 (
b11111111111111111111111111111100 .
b00000000000000000000000000111000 /
b10 0
b00000000000000000000000000001000 3
b00000000000000000000000000000000 4
b00000000000000000000000000000000 5
b00000000000000000000000000001000 M
b1100011 ^
b001 _
1a
1b
b01 c
b00000000000000000000000000110100 d
b00000000000000000000000000110000 e
b00000000000000000000000000110000 f
b1111111000000111100111101 g
1i
#73
0i
#74
1#
b01000001111001111000011110110011 $
0%
b11110 '
b01111 (
b00000000000000000000010000011110 .
b00000000000000000000000000110100 /
b00 0
b00000000000000000000000000000001 4
b00000000000000000000000000000001 5
b00000000000000000000000000000111 6
b00000000000000000000000000000111 8
b00000000000000000000000000000111 9
b0110011 ^
b000 _
0a
0b
b10 c
b00000000000000000000000000110000 d
b00000000000000000000010001001110 e
b00000000000000000000000000110100 f
b0100000111100111100001111 g
1i
#75
0i
#76
0#
b11111110000001111001111011100011 $
1%
b00000 '
b11101 (
b11111111111111111111111111111100 .
b00000000000000000000000000111000 /
b10 0
b00000000000000000000000000000111 3
b00000000000000000000000000000000 4
b00000000000000000000000000000000 5
b00000000000000000000000000000111 M
b1100011 ^
b001 _
1a
1b
b01 c
b00000000000000000000000000110100 d
b00000000000000000000000000110000 e
b00000000000000000000000000110000 f
b1111111000000111100111101 g
1i
#77
0i
#78
1#
b01000001111001111000011110110011 $
0%
b11110 '
b01111 (
b00000000000000000000010000011110 .
b00000000000000000000000000110100 /
b00 0
b00000000000000000000000000000001 4
b00000000000000000000000000000001 5
b00000000000000000000000000000110 6
b00000000000000000000000000000110 8
b00000000000000000000000000000110 9
b0110011 ^
b000 _
0a
0b
b10 c
b00000000000000000000000000110000 d
b00000000000000000000010001001110 e
b00000000000000000000000000110100 f
b0100000111100111100001111 g
1i
#79
0i
#80
0#
b11111110000001111001111011100011 $
1%
b00000 '
b11101 (
b11111111111111111111111111111100 .
b00000000000000000000000000111000 /
b10 0
b00000000000000000000000000000110 3
b00000000000000000000000000000000 4
b00000000000000000000000000000000 5
b00000000000000000000000000000110 M
b1100011 ^
b001 _
1a
1b
b01 c
b00000000000000000000000000110100 d
b00000000000000000000000000110000 e
b00000000000000000000000000110000 f
b1111111000000111100111101 g
1i
#81
0i
#82
1#
b01000001111001111000011110110011 $
0%
b11110 '
b01111 (
b00000000000000000000010000011110 .
b00000000000000000000000000110100 /
b00 0
b00000000000000000000000000000001 4
b00000000000000000000000000000001 5
b00000000000000000000000000000101 6
b00000000000000000000000000000101 8
b00000000000000000000000000000101 9
b0110011 ^
b000 _
0a
0b
b10 c
b00000000000000000000000000110000 d
b00000000000000000000010001001110 e
b00000000000000000000000000110100 f
b0100000111100111100001111 g
1i
#83
0i
#84
0#
b11111110000001111001111011100011 $
1%
b00000 '
b11101 (
b11111111111111111111111111111100 .
b00000000000000000000000000111000 /
b10 0
b00000000000000000000000000000101 3
b00000000000000000000000000000000 4
b00000000000000000000000000000000 5
b00000000000000000000000000000101 M
b1100011 ^
b001 _
1a
1b
b01 c
b00000000000000000000000000110100 d
b00000000000000000000000000110000 e
b00000000000000000000000000110000 f
b1111111000000111100111101 g
1i
#85
0i
#86
1#
b01000001111001111000011110110011 $
0%
b11110 '
b01111 (
b00000000000000000000010000011110 .
b00000000000000000000000000110100 /
b00 0
b00000000000000000000000000000001 4
b00000000000000000000000000000001 5
b00000000000000000000000000000100 6
b00000000000000000000000000000100 8
b00000000000000000000000000000100 9
b0110011 ^
b000 _
0a
0b
b10 c
b00000000000000000000000000110000 d
b00000000000000000000010001001110 e
b00000000000000000000000000110100 f
b0100000111100111100001111 g
1i
#87
0i
