top.vcd
$version Generated by VerilatedVcd $end
$date Fri Dec  9 12:20:56 2022 $end
$timescale 1ps $end

 $scope module TOP $end
  $var wire 32 n a0 [31:0] $end
  $var wire  1 l clk $end
  $var wire  1 m rst $end
  $var wire  1 k trigger $end
  $scope module top $end
   $var wire 32 o ADDRESS_WIDTH [31:0] $end
   $var wire  1 ) ALUSrc $end
   $var wire  4 * ALU_ctrl [3:0] $end
   $var wire 32 o DATA_WIDTH [31:0] $end
   $var wire  2 , DataType [1:0] $end
   $var wire  1 + EQ $end
   $var wire 32 . ImmOp [31:0] $end
   $var wire  3 1 ImmSrc [2:0] $end
   $var wire  2 - J [1:0] $end
   $var wire  1 4 JumpSel $end
   $var wire  1 2 MemWrite $end
   $var wire 32 $ PC_instr [31:0] $end
   $var wire  1 % PCsrc $end
   $var wire  1 # RegWrite $end
   $var wire  1 3 ResultSrc $end
   $var wire 32 n a0 [31:0] $end
   $var wire  1 l clk $end
   $var wire 32 / jalr_PC [31:0] $end
   $var wire 32 0 next_PC [31:0] $end
   $var wire  5 ( rd [4:0] $end
   $var wire  5 & rs1 [4:0] $end
   $var wire  5 ' rs2 [4:0] $end
   $var wire  1 m rst $end
   $var wire  1 k trigger $end
   $scope module ALU $end
    $var wire 32 7 ALUOp2 [31:0] $end
    $var wire  1 ) ALUSrc $end
    $var wire  4 * ALU_ctrl [3:0] $end
    $var wire 32 8 ALUout [31:0] $end
    $var wire 32 p Address_Width_RegFile [31:0] $end
    $var wire 32 o Data_Width [31:0] $end
    $var wire 32 . ImmOp [31:0] $end
    $var wire  1 4 JumpSel $end
    $var wire  1 2 MemWrite $end
    $var wire 32 9 ReadData [31:0] $end
    $var wire 32 : ResultSrcOutput [31:0] $end
    $var wire  1 3 SrcSel $end
    $var wire 32 n a0 [31:0] $end
    $var wire  1 l clk $end
    $var wire  2 , dataType [1:0] $end
    $var wire  1 + eq $end
    $var wire 32 / jalrOutput [31:0] $end
    $var wire 32 0 newPC [31:0] $end
    $var wire  5 ( rd [4:0] $end
    $var wire 32 5 rd1 [31:0] $end
    $var wire 32 6 rd2 [31:0] $end
    $var wire  1 # regFileWen $end
    $var wire 32 ; regWrite [31:0] $end
    $var wire  5 & rs1 [4:0] $end
    $var wire  5 ' rs2 [4:0] $end
    $var wire  1 k trigger $end
    $scope module alu1 $end
     $var wire  4 * ALU_ctrl [3:0] $end
     $var wire 32 8 ALUout [31:0] $end
     $var wire 32 o Data_Width [31:0] $end
     $var wire  1 + eq $end
     $var wire 32 / jalrOutput [31:0] $end
     $var wire 32 5 op1 [31:0] $end
     $var wire 32 7 op2 [31:0] $end
    $upscope $end
    $scope module mux1 $end
     $var wire 32 7 ALUOp2 [31:0] $end
     $var wire  1 ) ALUSrc $end
     $var wire 32 o Data_Width [31:0] $end
     $var wire 32 . ImmOp [31:0] $end
     $var wire 32 6 regOp2 [31:0] $end
    $upscope $end
    $scope module ram1 $end
     $var wire 32 8 A [31:0] $end
     $var wire 32 o ADDRESS_WIDTH [31:0] $end
     $var wire 32 q BYTE_WIDTH [31:0] $end
     $var wire 32 o DATA_WIDTH [31:0] $end
     $var wire 32 9 RD [31:0] $end
     $var wire 32 6 WD [31:0] $end
     $var wire  1 2 WE $end
     $var wire  8 > byteAssign [7:0] $end
     $var wire  1 l clk $end
     $var wire  2 , dataType [1:0] $end
     $var wire 16 ? halfwordAssign [15:0] $end
     $var wire  8 < ram_array[-1] [7:0] $end
     $var wire  8 = ram_array[0] [7:0] $end
    $upscope $end
    $scope module regFile1 $end
     $var wire 32 p Address_Width [31:0] $end
     $var wire 32 o Data_Width [31:0] $end
     $var wire 32 n a0 [31:0] $end
     $var wire  1 l clk $end
     $var wire 32 ; din [31:0] $end
     $var wire  1 # en $end
     $var wire  5 ( rd [4:0] $end
     $var wire 32 5 rd1 [31:0] $end
     $var wire 32 6 rd2 [31:0] $end
     $var wire 32 @ regFile_array[0] [31:0] $end
     $var wire 32 J regFile_array[10] [31:0] $end
     $var wire 32 K regFile_array[11] [31:0] $end
     $var wire 32 L regFile_array[12] [31:0] $end
     $var wire 32 M regFile_array[13] [31:0] $end
     $var wire 32 N regFile_array[14] [31:0] $end
     $var wire 32 O regFile_array[15] [31:0] $end
     $var wire 32 P regFile_array[16] [31:0] $end
     $var wire 32 Q regFile_array[17] [31:0] $end
     $var wire 32 R regFile_array[18] [31:0] $end
     $var wire 32 S regFile_array[19] [31:0] $end
     $var wire 32 A regFile_array[1] [31:0] $end
     $var wire 32 T regFile_array[20] [31:0] $end
     $var wire 32 U regFile_array[21] [31:0] $end
     $var wire 32 V regFile_array[22] [31:0] $end
     $var wire 32 W regFile_array[23] [31:0] $end
     $var wire 32 X regFile_array[24] [31:0] $end
     $var wire 32 Y regFile_array[25] [31:0] $end
     $var wire 32 Z regFile_array[26] [31:0] $end
     $var wire 32 [ regFile_array[27] [31:0] $end
     $var wire 32 \ regFile_array[28] [31:0] $end
     $var wire 32 ] regFile_array[29] [31:0] $end
     $var wire 32 B regFile_array[2] [31:0] $end
     $var wire 32 ^ regFile_array[30] [31:0] $end
     $var wire 32 _ regFile_array[31] [31:0] $end
     $var wire 32 C regFile_array[3] [31:0] $end
     $var wire 32 D regFile_array[4] [31:0] $end
     $var wire 32 E regFile_array[5] [31:0] $end
     $var wire 32 F regFile_array[6] [31:0] $end
     $var wire 32 G regFile_array[7] [31:0] $end
     $var wire 32 H regFile_array[8] [31:0] $end
     $var wire 32 I regFile_array[9] [31:0] $end
     $var wire  5 & rs1 [4:0] $end
     $var wire  5 ' rs2 [4:0] $end
     $var wire  1 k trigger $end
    $upscope $end
    $scope module resultPCMux1 $end
     $var wire 32 o Data_Width [31:0] $end
     $var wire  1 4 JumpSel $end
     $var wire 32 ; Result [31:0] $end
     $var wire 32 : ResultSrc [31:0] $end
     $var wire 32 0 newPC [31:0] $end
    $upscope $end
    $scope module resultSrcMux1 $end
     $var wire 32 8 ALUResult [31:0] $end
     $var wire 32 o Data_Width [31:0] $end
     $var wire 32 : OutputSrcMux [31:0] $end
     $var wire 32 9 ReadData [31:0] $end
     $var wire  1 3 SrcSel $end
    $upscope $end
   $upscope $end
   $scope module control_unit $end
    $var wire  4 * ALUControl [3:0] $end
    $var wire  2 e ALUOp [1:0] $end
    $var wire  1 ) ALUSrc $end
    $var wire  1 d Branch $end
    $var wire  2 , DataType [1:0] $end
    $var wire  3 1 ImmSrc [2:0] $end
    $var wire  2 - J [1:0] $end
    $var wire  1 2 MemWrite $end
    $var wire  1 % PCSrc $end
    $var wire  1 # RegWrite $end
    $var wire  1 3 ResultSrc $end
    $var wire  1 + Zero $end
    $var wire  1 c Zero_intermediate $end
    $var wire  3 a funct3 [2:0] $end
    $var wire  1 b funct75 $end
    $var wire  7 ` op [6:0] $end
    $scope module a $end
     $var wire  4 * ALUControl [3:0] $end
     $var wire  2 e ALUOp [1:0] $end
     $var wire  2 , DataType [1:0] $end
     $var wire  3 a funct3 [2:0] $end
     $var wire  1 b funct75 $end
    $upscope $end
    $scope module m $end
     $var wire  2 e ALUOp [1:0] $end
     $var wire  1 ) ALUSrc $end
     $var wire  1 d Branch $end
     $var wire  3 1 ImmSrc [2:0] $end
     $var wire  2 - J [1:0] $end
     $var wire  1 2 MemWrite $end
     $var wire  1 # RegWrite $end
     $var wire  1 3 ResultSrc $end
     $var wire  7 ` op [6:0] $end
    $upscope $end
   $upscope $end
   $scope module myPC $end
    $var wire 32 o ADDRESS_WIDTH [31:0] $end
    $var wire 32 o DATA_WIDTH [31:0] $end
    $var wire 32 . ImmOp [31:0] $end
    $var wire  2 - J [1:0] $end
    $var wire 32 f PC [31:0] $end
    $var wire  1 % PCsrc $end
    $var wire  1 l clk $end
    $var wire 32 $ instr [31:0] $end
    $var wire 32 / jalr_PC [31:0] $end
    $var wire 32 0 next_PC [31:0] $end
    $var wire  1 m rst $end
    $scope module pcReg $end
     $var wire 32 o ADDRESS_WIDTH [31:0] $end
     $var wire 32 . ImmOp [31:0] $end
     $var wire  2 - J [1:0] $end
     $var wire 32 f PC [31:0] $end
     $var wire  1 % PCsrc $end
     $var wire  1 h PCsrc_inter $end
     $var wire 32 g alt_PC [31:0] $end
     $var wire  1 l clk $end
     $var wire 32 0 inc_PC [31:0] $end
     $var wire 32 / jalr_PC [31:0] $end
     $var wire 32 i next_PC [31:0] $end
     $var wire 32 0 pc_alu [31:0] $end
     $var wire  1 m rst $end
    $upscope $end
    $scope module pcRom $end
     $var wire 32 o ADDRESS_WIDTH [31:0] $end
     $var wire 32 q DATA_WIDTH [31:0] $end
     $var wire 32 f PC [31:0] $end
     $var wire 32 $ instr [31:0] $end
    $upscope $end
   $upscope $end
   $scope module sign_extend $end
    $var wire 32 . ImmExt [31:0] $end
    $var wire  3 1 ImmSrc [2:0] $end
    $var wire 25 j imm [31:7] $end
   $upscope $end
  $upscope $end
 $upscope $end
$enddefinitions $end


#0
0#
b00000000000000000000000000000000 $
0%
b00000 &
b00000 '
b00000 (
0)
b0000 *
0+
b00 ,
b00 -
b00000000000000000000000000000000 .
b00000000000000000000000000000000 /
b00000000000000000000000000000100 0
b000 1
02
03
04
b00000000000000000000000000000000 5
b00000000000000000000000000000000 6
b00000000000000000000000000000000 7
b00000000000000000000000000000000 8
b00000000000000000000000000000000 9
b00000000000000000000000000000000 :
b00000000000000000000000000000000 ;
b00000000 <
b00000000 =
b00000000 >
b0000000000000000 ?
b00000000000000000000000000000000 @
b00000000000000000000000000000000 A
b00000000000000000000000000000000 B
b00000000000000000000000000000000 C
b00000000000000000000000000000000 D
b00000000000000000000000000000000 E
b00000000000000000000000000000000 F
b00000000000000000000000000000000 G
b00000000000000000000000000000000 H
b00000000000000000000000000000000 I
b00000000000000000000000000000000 J
b00000000000000000000000000000000 K
b00000000000000000000000000000000 L
b00000000000000000000000000000000 M
b00000000000000000000000000000000 N
b00000000000000000000000000000000 O
b00000000000000000000000000000000 P
b00000000000000000000000000000000 Q
b00000000000000000000000000000000 R
b00000000000000000000000000000000 S
b00000000000000000000000000000000 T
b00000000000000000000000000000000 U
b00000000000000000000000000000000 V
b00000000000000000000000000000000 W
b00000000000000000000000000000000 X
b00000000000000000000000000000000 Y
b00000000000000000000000000000000 Z
b00000000000000000000000000000000 [
b00000000000000000000000000000000 \
b00000000000000000000000000000000 ]
b00000000000000000000000000000000 ^
b00000000000000000000000000000000 _
b0000000 `
b000 a
0b
0c
0d
b00 e
b00000000000000000000000000000000 f
b00000000000000000000000000000000 g
0h
b00000000000000000000000000000100 i
b0000000000000000000000000 j
0k
1l
1m
b00000000000000000000000000000000 n
b00000000000000000000000000100000 o
b00000000000000000000000000000101 p
b00000000000000000000000000001000 q
#1
1#
b00000000000000000000011110010011 $
b01111 (
1)
b0010011 `
b10 e
b0000000000000000000001111 j
0l
#2
1l
0m
#3
0l
#4
b00000000000100000000010110010011 $
b00001 '
b01011 (
b00000000000000000000000000000001 .
b00000000000000000000000000000001 /
b00000000000000000000000000001000 0
b00000000000000000000000000000001 7
b00000000000000000000000000000001 8
b00000000000000000000000000000001 :
b00000000000000000000000000000001 ;
b00000000000000000000000000000100 f
b00000000000000000000000000000101 g
b00000000000000000000000000001000 i
b0000000000010000000001011 j
1l
#5
0l
#6
b00000000000111110000111100010011 $
b11110 &
b11110 (
b00000000000000000000000000001100 0
b00000000000000000000000000000001 K
b00000000000000000000000000001000 f
b00000000000000000000000000001001 g
b00000000000000000000000000001100 i
b0000000000011111000011110 j
1l
#7
0l
#8
b00000000000001011000011110010011 $
b01011 &
b00000 '
b01111 (
b00000000000000000000000000000000 .
b00000000000000000000000000010000 0
b00000000000000000000000000000001 5
b00000000000000000000000000000000 7
b00000000000000000000000000000001 ^
b00000000000000000000000000001100 f
b00000000000000000000000000001100 g
b00000000000000000000000000010000 i
b0000000000000101100001111 j
1l
#9
0l
#10
b00000000000001111000001100010011 $
b01111 &
b00110 (
b00000000000000000000000000010100 0
b00000000000000000000000000000001 O
b00000000000000000000000000010000 f
b00000000000000000000000000010000 g
b00000000000000000000000000010100 i
b0000000000000111100000110 j
1l
#11
0l
#12
b00000000011100110111010110010011 $
b00110 &
b00111 '
b01011 (
b0010 *
b00000000000000000000000000000111 .
b00000000000000000000000000000000 /
b00000000000000000000000000011000 0
b00000000000000000000000000000111 7
b00000000000000000000000000000001 F
b111 a
1c
b00000000000000000000000000010100 f
b00000000000000000000000000011011 g
b00000000000000000000000000011000 i
b0000000001110011011101011 j
1l
#13
0l
#14
b00000000000101011001010110010011 $
b01011 &
b00001 '
b0100 *
b00000000000000000000000000000001 .
b00000000000000000000000000011100 0
b00000000000000000000000000000001 7
b00000000000000000000000000000010 8
b00000000000000000000000000000010 :
b00000000000000000000000000000010 ;
b001 a
b00000000000000000000000000011000 f
b00000000000000000000000000011001 g
b00000000000000000000000000011100 i
b0000000000010101100101011 j
1l
#15
0l
#16
b00000000010000110111011000010011 $
b00110 &
b00100 '
b01100 (
b0010 *
b00000000000000000000000000000100 .
b00000000000000000000000000100000 0
b00000000000000000000000000000100 7
b00000000000000000000000000000000 8
b00000000000000000000000000000000 :
b00000000000000000000000000000000 ;
b00000000000000000000000000000010 K
b111 a
b00000000000000000000000000011100 f
b00000000000000000000000000100000 g
b00000000000000000000000000100000 i
b0000000001000011011101100 j
1l
#17
0l
#18
b00000000001001100101011000010011 $
b01100 &
b00010 '
b0110 *
b00000000000000000000000000000010 .
b00000000000000000000000000100100 0
b00000000000000000000000000000000 5
b00000000000000000000000000000010 7
b101 a
b00000000000000000000000000100000 f
b00000000000000000000000000100010 g
b00000000000000000000000000100100 i
b0000000000100110010101100 j
1l
#19
0l
#20
b00000000100000110111011010010011 $
b00110 &
b01000 '
b01101 (
b0010 *
b00000000000000000000000000001000 .
b00000000000000000000000000101000 0
b00000000000000000000000000000001 5
b00000000000000000000000000001000 7
b111 a
b00000000000000000000000000100100 f
b00000000000000000000000000101100 g
b00000000000000000000000000101000 i
b0000000010000011011101101 j
1l
#21
0l
#22
b00000000001101101101011010010011 $
b01101 &
b00011 '
b0110 *
b00000000000000000000000000000011 .
b00000000000000000000000000101100 0
b00000000000000000000000000000000 5
b00000000000000000000000000000011 7
b101 a
b00000000000000000000000000101000 f
b00000000000000000000000000101011 g
b00000000000000000000000000101100 i
b0000000000110110110101101 j
1l
#23
0l
#24
b00000000110101100100001110110011 $
b01100 &
b01101 '
b00111 (
0)
b1001 *
b00000000000000000000000000001101 .
b00000000000000000000000000110000 0
b00000000000000000000000000000000 7
b0110011 `
b100 a
0c
b00000000000000000000000000101100 f
b00000000000000000000000000111001 g
b00000000000000000000000000110000 i
b0000000011010110010000111 j
1l
#25
0l
#26
b00000000011101011000010110110011 $
b01011 &
b00111 '
b01011 (
b0000 *
b00000000000000000000000000000111 .
b00000000000000000000000000000010 /
b00000000000000000000000000110100 0
b00000000000000000000000000000010 5
b00000000000000000000000000000010 8
b00000000000000000000000000000010 :
b00000000000000000000000000000010 ;
b000 a
b00000000000000000000000000110000 f
b00000000000000000000000000110111 g
b00000000000000000000000000110100 i
b0000000001110101100001011 j
1l
#27
0l
#28
0#
b11111100000010001000110011100011 $
1%
b10001 &
b00000 '
b11001 (
b0001 *
1+
b11111111111111111111111111011000 .
b00000000000000000000000000000000 /
b00000000000000000000000000111000 0
b010 1
b00000000000000000000000000000000 5
b00000000000000000000000000000000 8
b00000000000000000000000000000000 :
b00000000000000000000000000000000 ;
b1100011 `
1b
1c
1d
b01 e
b00000000000000000000000000110100 f
b00000000000000000000000000001100 g
1h
b00000000000000000000000000001100 i
b1111110000001000100011001 j
1l
#29
0l
#30
1#
b00000000000001011000011110010011 $
0%
b01011 &
b01111 (
1)
b0000 *
0+
b00000000000000000000000000000000 .
b00000000000000000000000000000010 /
b00000000000000000000000000010000 0
b000 1
b00000000000000000000000000000010 5
b00000000000000000000000000000010 8
b00000000000000000000000000000010 :
b00000000000000000000000000000010 ;
b0010011 `
0b
0c
0d
b10 e
b00000000000000000000000000001100 f
0h
b00000000000000000000000000010000 i
b0000000000000101100001111 j
1l
#31
0l
#32
b00000000000001111000001100010011 $
b01111 &
b00110 (
b00000000000000000000000000010100 0
b00000000000000000000000000000010 O
b00000000000000000000000000010000 f
b00000000000000000000000000010000 g
b00000000000000000000000000010100 i
b0000000000000111100000110 j
1l
#33
0l
#34
b00000000011100110111010110010011 $
b00110 &
b00111 '
b01011 (
b0010 *
b00000000000000000000000000000111 .
b00000000000000000000000000000000 /
b00000000000000000000000000011000 0
b00000000000000000000000000000111 7
b00000000000000000000000000000010 F
b111 a
1c
b00000000000000000000000000010100 f
b00000000000000000000000000011011 g
b00000000000000000000000000011000 i
b0000000001110011011101011 j
1l
#35
0l
#36
b00000000000101011001010110010011 $
b01011 &
b00001 '
b0100 *
b00000000000000000000000000000001 .
b00000000000000000000000000011100 0
b00000000000000000000000000000001 7
b00000000000000000000000000000100 8
b00000000000000000000000000000100 :
b00000000000000000000000000000100 ;
b001 a
b00000000000000000000000000011000 f
b00000000000000000000000000011001 g
b00000000000000000000000000011100 i
b0000000000010101100101011 j
1l
#37
0l
#38
b00000000010000110111011000010011 $
b00110 &
b00100 '
b01100 (
b0010 *
b00000000000000000000000000000100 .
b00000000000000000000000000100000 0
b00000000000000000000000000000100 7
b00000000000000000000000000000000 8
b00000000000000000000000000000000 :
b00000000000000000000000000000000 ;
b00000000000000000000000000000100 K
b111 a
b00000000000000000000000000011100 f
b00000000000000000000000000100000 g
b00000000000000000000000000100000 i
b0000000001000011011101100 j
1l
#39
0l
#40
b00000000001001100101011000010011 $
b01100 &
b00010 '
b0110 *
b00000000000000000000000000000010 .
b00000000000000000000000000100100 0
b00000000000000000000000000000000 5
b00000000000000000000000000000010 7
b101 a
b00000000000000000000000000100000 f
b00000000000000000000000000100010 g
b00000000000000000000000000100100 i
b0000000000100110010101100 j
1l
#41
0l
#42
b00000000100000110111011010010011 $
b00110 &
b01000 '
b01101 (
b0010 *
b00000000000000000000000000001000 .
b00000000000000000000000000101000 0
b00000000000000000000000000000010 5
b00000000000000000000000000001000 7
b111 a
b00000000000000000000000000100100 f
b00000000000000000000000000101100 g
b00000000000000000000000000101000 i
b0000000010000011011101101 j
1l
#43
0l
#44
b00000000001101101101011010010011 $
b01101 &
b00011 '
b0110 *
b00000000000000000000000000000011 .
b00000000000000000000000000101100 0
b00000000000000000000000000000000 5
b00000000000000000000000000000011 7
b101 a
b00000000000000000000000000101000 f
b00000000000000000000000000101011 g
b00000000000000000000000000101100 i
b0000000000110110110101101 j
1l
#45
0l
#46
b00000000110101100100001110110011 $
b01100 &
b01101 '
b00111 (
0)
b1001 *
b00000000000000000000000000001101 .
b00000000000000000000000000110000 0
b00000000000000000000000000000000 7
b0110011 `
b100 a
0c
b00000000000000000000000000101100 f
b00000000000000000000000000111001 g
b00000000000000000000000000110000 i
b0000000011010110010000111 j
1l
#47
0l
#48
b00000000011101011000010110110011 $
b01011 &
b00111 '
b01011 (
b0000 *
b00000000000000000000000000000111 .
b00000000000000000000000000000100 /
b00000000000000000000000000110100 0
b00000000000000000000000000000100 5
b00000000000000000000000000000100 8
b00000000000000000000000000000100 :
b00000000000000000000000000000100 ;
b000 a
b00000000000000000000000000110000 f
b00000000000000000000000000110111 g
b00000000000000000000000000110100 i
b0000000001110101100001011 j
1l
#49
0l
#50
0#
b11111100000010001000110011100011 $
1%
b10001 &
b00000 '
b11001 (
b0001 *
1+
b11111111111111111111111111011000 .
b00000000000000000000000000000000 /
b00000000000000000000000000111000 0
b010 1
b00000000000000000000000000000000 5
b00000000000000000000000000000000 8
b00000000000000000000000000000000 :
b00000000000000000000000000000000 ;
b1100011 `
1b
1c
1d
b01 e
b00000000000000000000000000110100 f
b00000000000000000000000000001100 g
1h
b00000000000000000000000000001100 i
b1111110000001000100011001 j
1l
#51
0l
#52
1#
b00000000000001011000011110010011 $
0%
b01011 &
b01111 (
1)
b0000 *
0+
b00000000000000000000000000000000 .
b00000000000000000000000000000100 /
b00000000000000000000000000010000 0
b000 1
b00000000000000000000000000000100 5
b00000000000000000000000000000100 8
b00000000000000000000000000000100 :
b00000000000000000000000000000100 ;
b0010011 `
0b
0c
0d
b10 e
b00000000000000000000000000001100 f
0h
b00000000000000000000000000010000 i
b0000000000000101100001111 j
1l
#53
0l
#54
b00000000000001111000001100010011 $
b01111 &
b00110 (
b00000000000000000000000000010100 0
b00000000000000000000000000000100 O
b00000000000000000000000000010000 f
b00000000000000000000000000010000 g
b00000000000000000000000000010100 i
b0000000000000111100000110 j
1l
#55
0l
#56
b00000000011100110111010110010011 $
b00110 &
b00111 '
b01011 (
b0010 *
b00000000000000000000000000000111 .
b00000000000000000000000000000000 /
b00000000000000000000000000011000 0
b00000000000000000000000000000111 7
b00000000000000000000000000000100 F
b111 a
1c
b00000000000000000000000000010100 f
b00000000000000000000000000011011 g
b00000000000000000000000000011000 i
b0000000001110011011101011 j
1l
#57
0l
#58
b00000000000101011001010110010011 $
b01011 &
b00001 '
b0100 *
b00000000000000000000000000000001 .
b00000000000000000000000000011100 0
b00000000000000000000000000000001 7
b00000000000000000000000000001000 8
b00000000000000000000000000001000 :
b00000000000000000000000000001000 ;
b001 a
b00000000000000000000000000011000 f
b00000000000000000000000000011001 g
b00000000000000000000000000011100 i
b0000000000010101100101011 j
1l
#59
0l
#60
b00000000010000110111011000010011 $
b00110 &
b00100 '
b01100 (
b0010 *
b00000000000000000000000000000100 .
b00000000000000000000000000100000 0
b00000000000000000000000000000100 7
b00000000000000000000000000000100 8
b00000000000000000000000000000100 :
b00000000000000000000000000000100 ;
b00000000000000000000000000001000 K
b111 a
b00000000000000000000000000011100 f
b00000000000000000000000000100000 g
b00000000000000000000000000100000 i
b0000000001000011011101100 j
1l
#61
0l
#62
b00000000001001100101011000010011 $
b01100 &
b00010 '
b0110 *
b00000000000000000000000000000010 .
b00000000000000000000000000100100 0
b00000000000000000000000000000010 7
b00000000000000000000000000000001 8
b00000000000000000000000000000001 :
b00000000000000000000000000000001 ;
b00000000000000000000000000000100 L
b101 a
b00000000000000000000000000100000 f
b00000000000000000000000000100010 g
b00000000000000000000000000100100 i
b0000000000100110010101100 j
1l
#63
0l
#64
b00000000100000110111011010010011 $
b00110 &
b01000 '
b01101 (
b0010 *
b00000000000000000000000000001000 .
b00000000000000000000000000101000 0
b00000000000000000000000000001000 7
b00000000000000000000000000000000 8
b00000000000000000000000000000000 :
b00000000000000000000000000000000 ;
b00000000000000000000000000000001 L
b111 a
b00000000000000000000000000100100 f
b00000000000000000000000000101100 g
b00000000000000000000000000101000 i
b0000000010000011011101101 j
1l
#65
0l
#66
b00000000001101101101011010010011 $
b01101 &
b00011 '
b0110 *
b00000000000000000000000000000011 .
b00000000000000000000000000101100 0
b00000000000000000000000000000000 5
b00000000000000000000000000000011 7
b101 a
b00000000000000000000000000101000 f
b00000000000000000000000000101011 g
b00000000000000000000000000101100 i
b0000000000110110110101101 j
1l
#67
0l
#68
b00000000110101100100001110110011 $
b01100 &
b01101 '
b00111 (
0)
b1001 *
b00000000000000000000000000001101 .
b00000000000000000000000000110000 0
b00000000000000000000000000000001 5
b00000000000000000000000000000000 7
b00000000000000000000000000000001 8
b00000000000000000000000000000001 :
b00000000000000000000000000000001 ;
b0110011 `
b100 a
0c
b00000000000000000000000000101100 f
b00000000000000000000000000111001 g
b00000000000000000000000000110000 i
b0000000011010110010000111 j
1l
#69
0l
#70
b00000000011101011000010110110011 $
b01011 &
b00111 '
b01011 (
b0000 *
b00000000000000000000000000000111 .
b00000000000000000000000000001001 /
b00000000000000000000000000110100 0
b00000000000000000000000000001000 5
b00000000000000000000000000000001 6
b00000000000000000000000000000001 7
b00000000000000000000000000001001 8
b00000000000000000000000000001001 :
b00000000000000000000000000001001 ;
b00000000000000000000000000000001 G
b000 a
b00000000000000000000000000110000 f
b00000000000000000000000000110111 g
b00000000000000000000000000110100 i
b0000000001110101100001011 j
1l
#71
0l
#72
0#
b11111100000010001000110011100011 $
1%
b10001 &
b00000 '
b11001 (
b0001 *
1+
b11111111111111111111111111011000 .
b00000000000000000000000000000000 /
b00000000000000000000000000111000 0
b010 1
b00000000000000000000000000000000 5
b00000000000000000000000000000000 6
b00000000000000000000000000000000 7
b00000000000000000000000000000000 8
b00000000000000000000000000000000 :
b00000000000000000000000000000000 ;
b00000000000000000000000000001001 K
b1100011 `
1b
1c
1d
b01 e
b00000000000000000000000000110100 f
b00000000000000000000000000001100 g
1h
b00000000000000000000000000001100 i
b1111110000001000100011001 j
1l
#73
0l
#74
1#
b00000000000001011000011110010011 $
0%
b01011 &
b01111 (
1)
b0000 *
0+
b00000000000000000000000000000000 .
b00000000000000000000000000001001 /
b00000000000000000000000000010000 0
b000 1
b00000000000000000000000000001001 5
b00000000000000000000000000001001 8
b00000000000000000000000000001001 :
b00000000000000000000000000001001 ;
b0010011 `
0b
0c
0d
b10 e
b00000000000000000000000000001100 f
0h
b00000000000000000000000000010000 i
b0000000000000101100001111 j
1l
#75
0l
#76
b00000000000001111000001100010011 $
b01111 &
b00110 (
b00000000000000000000000000010100 0
b00000000000000000000000000001001 O
b00000000000000000000000000010000 f
b00000000000000000000000000010000 g
b00000000000000000000000000010100 i
b0000000000000111100000110 j
1l
#77
0l
#78
b00000000011100110111010110010011 $
b00110 &
b00111 '
b01011 (
b0010 *
b00000000000000000000000000000111 .
b00000000000000000000000000000000 /
b00000000000000000000000000011000 0
b00000000000000000000000000000001 6
b00000000000000000000000000000111 7
b00000000000000000000000000000001 8
b00000000000000000000000000000001 :
b00000000000000000000000000000001 ;
b00000000000000000000000000001001 F
b111 a
1c
b00000000000000000000000000010100 f
b00000000000000000000000000011011 g
b00000000000000000000000000011000 i
b0000000001110011011101011 j
1l
#79
0l
#80
b00000000000101011001010110010011 $
b01011 &
b00001 '
b0100 *
b00000000000000000000000000000001 .
b00000000000000000000000000011100 0
b00000000000000000000000000000001 5
b00000000000000000000000000000000 6
b00000000000000000000000000000001 7
b00000000000000000000000000000010 8
b00000000000000000000000000000010 :
b00000000000000000000000000000010 ;
b00000000000000000000000000000001 K
b001 a
b00000000000000000000000000011000 f
b00000000000000000000000000011001 g
b00000000000000000000000000011100 i
b0000000000010101100101011 j
1l
#81
0l
#82
b00000000010000110111011000010011 $
b00110 &
b00100 '
b01100 (
b0010 *
b00000000000000000000000000000100 .
b00000000000000000000000000100000 0
b00000000000000000000000000001001 5
b00000000000000000000000000000100 7
b00000000000000000000000000000000 8
b00000000000000000000000000000000 :
b00000000000000000000000000000000 ;
b00000000000000000000000000000010 K
b111 a
b00000000000000000000000000011100 f
b00000000000000000000000000100000 g
b00000000000000000000000000100000 i
b0000000001000011011101100 j
1l
#83
0l
#84
b00000000001001100101011000010011 $
b01100 &
b00010 '
b0110 *
b00000000000000000000000000000010 .
b00000000000000000000000000100100 0
b00000000000000000000000000000000 5
b00000000000000000000000000000010 7
b00000000000000000000000000000000 L
b101 a
b00000000000000000000000000100000 f
b00000000000000000000000000100010 g
b00000000000000000000000000100100 i
b0000000000100110010101100 j
1l
#85
0l
#86
b00000000100000110111011010010011 $
b00110 &
b01000 '
b01101 (
b0010 *
b00000000000000000000000000001000 .
b00000000000000000000000000101000 0
b00000000000000000000000000001001 5
b00000000000000000000000000001000 7
b00000000000000000000000000001000 8
b00000000000000000000000000001000 :
b00000000000000000000000000001000 ;
b111 a
b00000000000000000000000000100100 f
b00000000000000000000000000101100 g
b00000000000000000000000000101000 i
b0000000010000011011101101 j
1l
#87
0l
#88
b00000000001101101101011010010011 $
b01101 &
b00011 '
b0110 *
b00000000000000000000000000000011 .
b00000000000000000000000000101100 0
b00000000000000000000000000001000 5
b00000000000000000000000000000011 7
b00000000000000000000000000000001 8
b00000000000000000000000000000001 :
b00000000000000000000000000000001 ;
b00000000000000000000000000001000 M
b101 a
b00000000000000000000000000101000 f
b00000000000000000000000000101011 g
b00000000000000000000000000101100 i
b0000000000110110110101101 j
1l
#89
0l
#90
b00000000110101100100001110110011 $
b01100 &
b01101 '
b00111 (
0)
b1001 *
b00000000000000000000000000001101 .
b00000000000000000000000000110000 0
b00000000000000000000000000000000 5
b00000000000000000000000000000001 6
b00000000000000000000000000000001 7
b00000000000000000000000000000001 M
b0110011 `
b100 a
0c
b00000000000000000000000000101100 f
b00000000000000000000000000111001 g
b00000000000000000000000000110000 i
b0000000011010110010000111 j
1l
#91
0l
#92
b00000000011101011000010110110011 $
b01011 &
b00111 '
b01011 (
b0000 *
b00000000000000000000000000000111 .
b00000000000000000000000000000011 /
b00000000000000000000000000110100 0
b00000000000000000000000000000010 5
b00000000000000000000000000000011 8
b00000000000000000000000000000011 :
b00000000000000000000000000000011 ;
b000 a
b00000000000000000000000000110000 f
b00000000000000000000000000110111 g
b00000000000000000000000000110100 i
b0000000001110101100001011 j
1l
#93
0l
#94
0#
b11111100000010001000110011100011 $
1%
b10001 &
b00000 '
b11001 (
b0001 *
1+
b11111111111111111111111111011000 .
b00000000000000000000000000000000 /
b00000000000000000000000000111000 0
b010 1
b00000000000000000000000000000000 5
b00000000000000000000000000000000 6
b00000000000000000000000000000000 7
b00000000000000000000000000000000 8
b00000000000000000000000000000000 :
b00000000000000000000000000000000 ;
b00000000000000000000000000000011 K
b1100011 `
1b
1c
1d
b01 e
b00000000000000000000000000110100 f
b00000000000000000000000000001100 g
1h
b00000000000000000000000000001100 i
b1111110000001000100011001 j
1l
#95
0l
