tests/f1_final.vcd
$version Generated by VerilatedVcd $end
$date Fri Dec  9 20:46:44 2022 $end
$timescale 1ps $end

 $scope module TOP $end
  $var wire 32 l a0 [31:0] $end
  $var wire  1 j clk $end
  $var wire 32 m delay [31:0] $end
  $var wire  1 k rst $end
  $var wire  1 i trigger $end
  $scope module top $end
   $var wire 32 n ADDRESS_WIDTH [31:0] $end
   $var wire  1 ) ALUSrc $end
   $var wire  4 * ALU_ctrl [3:0] $end
   $var wire 32 n DATA_WIDTH [31:0] $end
   $var wire  2 , DataType [1:0] $end
   $var wire  1 + EQ $end
   $var wire 32 . ImmOp [31:0] $end
   $var wire  3 1 ImmSrc [2:0] $end
   $var wire  2 - J [1:0] $end
   $var wire  1 4 JumpSel $end
   $var wire  1 2 MemWrite $end
   $var wire 32 $ PC_instr [31:0] $end
   $var wire  1 % PCsrc $end
   $var wire  1 # RegWrite $end
   $var wire  1 3 ResultSrc $end
   $var wire 32 l a0 [31:0] $end
   $var wire  1 j clk $end
   $var wire 32 m delay [31:0] $end
   $var wire 32 / jalr_PC [31:0] $end
   $var wire 32 0 next_PC [31:0] $end
   $var wire  5 ( rd [4:0] $end
   $var wire  5 & rs1 [4:0] $end
   $var wire  5 ' rs2 [4:0] $end
   $var wire  1 k rst $end
   $var wire  1 i trigger $end
   $scope module ALU $end
    $var wire 32 7 ALUOp2 [31:0] $end
    $var wire  1 ) ALUSrc $end
    $var wire  4 * ALU_ctrl [3:0] $end
    $var wire 32 8 ALUout [31:0] $end
    $var wire 32 o Address_Width_RegFile [31:0] $end
    $var wire 32 n Data_Width [31:0] $end
    $var wire 32 . ImmOp [31:0] $end
    $var wire  1 4 JumpSel $end
    $var wire  1 2 MemWrite $end
    $var wire 32 9 ReadData [31:0] $end
    $var wire 32 : ResultSrcOutput [31:0] $end
    $var wire  1 3 SrcSel $end
    $var wire 32 l a0 [31:0] $end
    $var wire  1 j clk $end
    $var wire  2 , dataType [1:0] $end
    $var wire 32 m delay [31:0] $end
    $var wire  1 + eq $end
    $var wire 32 / jalrOutput [31:0] $end
    $var wire 32 0 newPC [31:0] $end
    $var wire  5 ( rd [4:0] $end
    $var wire 32 5 rd1 [31:0] $end
    $var wire 32 6 rd2 [31:0] $end
    $var wire  1 # regFileWen $end
    $var wire 32 ; regWrite [31:0] $end
    $var wire  5 & rs1 [4:0] $end
    $var wire  5 ' rs2 [4:0] $end
    $var wire  1 i trigger $end
    $scope module alu1 $end
     $var wire  4 * ALU_ctrl [3:0] $end
     $var wire 32 8 ALUout [31:0] $end
     $var wire 32 n Data_Width [31:0] $end
     $var wire  1 + eq $end
     $var wire 32 / jalrOutput [31:0] $end
     $var wire 32 5 op1 [31:0] $end
     $var wire 32 7 op2 [31:0] $end
    $upscope $end
    $scope module mux1 $end
     $var wire 32 7 ALUOp2 [31:0] $end
     $var wire  1 ) ALUSrc $end
     $var wire 32 n Data_Width [31:0] $end
     $var wire 32 . ImmOp [31:0] $end
     $var wire 32 6 regOp2 [31:0] $end
    $upscope $end
    $scope module ram1 $end
     $var wire 32 8 A [31:0] $end
     $var wire 32 n ADDRESS_WIDTH [31:0] $end
     $var wire 32 p BYTE_WIDTH [31:0] $end
     $var wire 32 n DATA_WIDTH [31:0] $end
     $var wire 32 9 RD [31:0] $end
     $var wire 32 6 WD [31:0] $end
     $var wire  1 2 WE $end
     $var wire  8 < byteAssign [7:0] $end
     $var wire  1 j clk $end
     $var wire  2 , dataType [1:0] $end
     $var wire 16 = halfwordAssign [15:0] $end
    $upscope $end
    $scope module regFile1 $end
     $var wire 32 o Address_Width [31:0] $end
     $var wire 32 n Data_Width [31:0] $end
     $var wire 32 l a0 [31:0] $end
     $var wire  1 j clk $end
     $var wire 32 m delay [31:0] $end
     $var wire 32 ; din [31:0] $end
     $var wire  1 # en $end
     $var wire  5 ( rd [4:0] $end
     $var wire 32 5 rd1 [31:0] $end
     $var wire 32 6 rd2 [31:0] $end
     $var wire 32 > regFile_array[0] [31:0] $end
     $var wire 32 H regFile_array[10] [31:0] $end
     $var wire 32 I regFile_array[11] [31:0] $end
     $var wire 32 J regFile_array[12] [31:0] $end
     $var wire 32 K regFile_array[13] [31:0] $end
     $var wire 32 L regFile_array[14] [31:0] $end
     $var wire 32 M regFile_array[15] [31:0] $end
     $var wire 32 N regFile_array[16] [31:0] $end
     $var wire 32 O regFile_array[17] [31:0] $end
     $var wire 32 P regFile_array[18] [31:0] $end
     $var wire 32 Q regFile_array[19] [31:0] $end
     $var wire 32 ? regFile_array[1] [31:0] $end
     $var wire 32 R regFile_array[20] [31:0] $end
     $var wire 32 S regFile_array[21] [31:0] $end
     $var wire 32 T regFile_array[22] [31:0] $end
     $var wire 32 U regFile_array[23] [31:0] $end
     $var wire 32 V regFile_array[24] [31:0] $end
     $var wire 32 W regFile_array[25] [31:0] $end
     $var wire 32 X regFile_array[26] [31:0] $end
     $var wire 32 Y regFile_array[27] [31:0] $end
     $var wire 32 Z regFile_array[28] [31:0] $end
     $var wire 32 [ regFile_array[29] [31:0] $end
     $var wire 32 @ regFile_array[2] [31:0] $end
     $var wire 32 \ regFile_array[30] [31:0] $end
     $var wire 32 ] regFile_array[31] [31:0] $end
     $var wire 32 A regFile_array[3] [31:0] $end
     $var wire 32 B regFile_array[4] [31:0] $end
     $var wire 32 C regFile_array[5] [31:0] $end
     $var wire 32 D regFile_array[6] [31:0] $end
     $var wire 32 E regFile_array[7] [31:0] $end
     $var wire 32 F regFile_array[8] [31:0] $end
     $var wire 32 G regFile_array[9] [31:0] $end
     $var wire  5 & rs1 [4:0] $end
     $var wire  5 ' rs2 [4:0] $end
     $var wire  1 i trigger $end
    $upscope $end
    $scope module resultPCMux1 $end
     $var wire 32 n Data_Width [31:0] $end
     $var wire  1 4 JumpSel $end
     $var wire 32 ; Result [31:0] $end
     $var wire 32 : ResultSrc [31:0] $end
     $var wire 32 0 newPC [31:0] $end
    $upscope $end
    $scope module resultSrcMux1 $end
     $var wire 32 8 ALUResult [31:0] $end
     $var wire 32 n Data_Width [31:0] $end
     $var wire 32 : OutputSrcMux [31:0] $end
     $var wire 32 9 ReadData [31:0] $end
     $var wire  1 3 SrcSel $end
    $upscope $end
   $upscope $end
   $scope module control_unit $end
    $var wire  4 * ALUControl [3:0] $end
    $var wire  2 c ALUOp [1:0] $end
    $var wire  1 ) ALUSrc $end
    $var wire  1 b Branch $end
    $var wire  2 , DataType [1:0] $end
    $var wire  3 1 ImmSrc [2:0] $end
    $var wire  2 - J [1:0] $end
    $var wire  1 2 MemWrite $end
    $var wire  1 % PCSrc $end
    $var wire  1 # RegWrite $end
    $var wire  1 3 ResultSrc $end
    $var wire  1 + Zero $end
    $var wire  1 a Zero_intermediate $end
    $var wire  3 _ funct3 [2:0] $end
    $var wire  1 ` funct75 $end
    $var wire  7 ^ op [6:0] $end
    $scope module a $end
     $var wire  4 * ALUControl [3:0] $end
     $var wire  2 c ALUOp [1:0] $end
     $var wire  2 , DataType [1:0] $end
     $var wire  3 _ funct3 [2:0] $end
     $var wire  1 ` funct75 $end
    $upscope $end
    $scope module m $end
     $var wire  2 c ALUOp [1:0] $end
     $var wire  1 ) ALUSrc $end
     $var wire  1 b Branch $end
     $var wire  3 1 ImmSrc [2:0] $end
     $var wire  2 - J [1:0] $end
     $var wire  1 2 MemWrite $end
     $var wire  1 # RegWrite $end
     $var wire  1 3 ResultSrc $end
     $var wire  7 ^ op [6:0] $end
    $upscope $end
   $upscope $end
   $scope module myPC $end
    $var wire 32 n ADDRESS_WIDTH [31:0] $end
    $var wire 32 n DATA_WIDTH [31:0] $end
    $var wire 32 . ImmOp [31:0] $end
    $var wire  2 - J [1:0] $end
    $var wire 32 d PC [31:0] $end
    $var wire  1 % PCsrc $end
    $var wire  1 j clk $end
    $var wire 32 $ instr [31:0] $end
    $var wire 32 / jalr_PC [31:0] $end
    $var wire 32 0 next_PC [31:0] $end
    $var wire  1 k rst $end
    $scope module pcReg $end
     $var wire 32 n ADDRESS_WIDTH [31:0] $end
     $var wire 32 . ImmOp [31:0] $end
     $var wire  2 - J [1:0] $end
     $var wire 32 d PC [31:0] $end
     $var wire  1 % PCsrc $end
     $var wire  1 f PCsrc_inter $end
     $var wire 32 e alt_PC [31:0] $end
     $var wire  1 j clk $end
     $var wire 32 0 inc_PC [31:0] $end
     $var wire 32 / jalr_PC [31:0] $end
     $var wire 32 g next_PC [31:0] $end
     $var wire 32 0 pc_alu [31:0] $end
     $var wire  1 k rst $end
    $upscope $end
    $scope module pcRom $end
     $var wire 32 n ADDRESS_WIDTH [31:0] $end
     $var wire 32 p DATA_WIDTH [31:0] $end
     $var wire 32 d PC [31:0] $end
     $var wire 32 $ instr [31:0] $end
    $upscope $end
   $upscope $end
   $scope module sign_extend $end
    $var wire 32 . ImmExt [31:0] $end
    $var wire  3 1 ImmSrc [2:0] $end
    $var wire 25 h imm [31:7] $end
   $upscope $end
  $upscope $end
 $upscope $end
$enddefinitions $end


#0
0#
b00000000000000000000000000000000 $
0%
b00000 &
b00000 '
b00000 (
0)
b0000 *
0+
b00 ,
b00 -
b00000000000000000000000000000000 .
b00000000000000000000000000000000 /
b00000000000000000000000000000100 0
b000 1
02
03
04
b00000000000000000000000000000000 5
b00000000000000000000000000000000 6
b00000000000000000000000000000000 7
b00000000000000000000000000000000 8
b00000000000000000000000000000000 9
b00000000000000000000000000000000 :
b00000000000000000000000000000000 ;
b00000000 <
b0000000000000000 =
b00000000000000000000000000000000 >
b00000000000000000000000000000000 ?
b00000000000000000000000000000000 @
b00000000000000000000000000000000 A
b00000000000000000000000000000000 B
b00000000000000000000000000000000 C
b00000000000000000000000000000000 D
b00000000000000000000000000000000 E
b00000000000000000000000000000000 F
b00000000000000000000000000000000 G
b00000000000000000000000000000000 H
b00000000000000000000000000000000 I
b00000000000000000000000000000000 J
b00000000000000000000000000000000 K
b00000000000000000000000000000000 L
b00000000000000000000000000000000 M
b00000000000000000000000000000000 N
b00000000000000000000000000000000 O
b00000000000000000000000000000000 P
b00000000000000000000000000000000 Q
b00000000000000000000000000000000 R
b00000000000000000000000000000000 S
b00000000000000000000000000000000 T
b00000000000000000000000000000000 U
b00000000000000000000000000000000 V
b00000000000000000000000000000000 W
b00000000000000000000000000000000 X
b00000000000000000000000000000000 Y
b00000000000000000000000000000000 Z
b00000000000000000000000000000000 [
b00000000000000000000000000000000 \
b00000000000000000000000000000000 ]
b0000000 ^
b000 _
0`
0a
0b
b00 c
b00000000000000000000000000000000 d
b00000000000000000000000000000000 e
0f
b00000000000000000000000000000100 g
b0000000000000000000000000 h
0i
1j
1k
b00000000000000000000000000000000 l
b00000000000000000000000000000000 m
b00000000000000000000000000100000 n
b00000000000000000000000000000101 o
b00000000000000000000000000001000 p
#1
1#
b00000000000000000000011110010011 $
b01111 (
1)
b0010011 ^
b10 c
b0000000000000000000001111 h
0j
#2
1j
0k
#3
0j
#4
b00000000000100000000010110010011 $
b00001 '
b01011 (
b00000000000000000000000000000001 .
b00000000000000000000000000000001 /
b00000000000000000000000000001000 0
b00000000000000000000000000000001 7
b00000000000000000000000000000001 8
b00000000000000000000000000000001 :
b00000000000000000000000000000001 ;
b00000000000000000000000000000100 d
b00000000000000000000000000000101 e
b00000000000000000000000000001000 g
b0000000000010000000001011 h
1j
#5
0j
#6
b00000000000100000000111100010011 $
b11110 (
b00000000000000000000000000001100 0
b00000000000000000000000000000001 I
b00000000000000000000000000001000 d
b00000000000000000000000000001001 e
b00000000000000000000000000001100 g
b0000000000010000000011110 h
1j
#7
0j
#8
b00000000000001011000011110010011 $
b01011 &
b00000 '
b01111 (
b00000000000000000000000000000000 .
b00000000000000000000000000010000 0
b00000000000000000000000000000001 5
b00000000000000000000000000000000 7
b00000000000000000000000000000001 \
b00000000000000000000000000001100 d
b00000000000000000000000000001100 e
b00000000000000000000000000010000 g
b0000000000000101100001111 h
1j
#9
0j
#10
b00000000000001111000001100010011 $
b01111 &
b00110 (
b00000000000000000000000000010100 0
b00000000000000000000000000000001 M
b00000000000000000000000000010000 d
b00000000000000000000000000010000 e
b00000000000000000000000000010100 g
b0000000000000111100000110 h
1j
b00000000000000000000000000000001 m
#11
0j
#12
b00000000011100110111010110010011 $
b00110 &
b00111 '
b01011 (
b0010 *
b00000000000000000000000000000111 .
b00000000000000000000000000000000 /
b00000000000000000000000000011000 0
b00000000000000000000000000000111 7
b00000000000000000000000000000001 D
b111 _
1a
b00000000000000000000000000010100 d
b00000000000000000000000000011011 e
b00000000000000000000000000011000 g
b0000000001110011011101011 h
1j
#13
0j
#14
b00000000000101011001010110010011 $
b01011 &
b00001 '
b0100 *
b00000000000000000000000000000001 .
b00000000000000000000000000011100 0
b00000000000000000000000000000001 7
b00000000000000000000000000000010 8
b00000000000000000000000000000010 :
b00000000000000000000000000000010 ;
b001 _
b00000000000000000000000000011000 d
b00000000000000000000000000011001 e
b00000000000000000000000000011100 g
b0000000000010101100101011 h
1j
#15
0j
#16
b00000000010000110111011000010011 $
b00110 &
b00100 '
b01100 (
b0010 *
b00000000000000000000000000000100 .
b00000000000000000000000000100000 0
b00000000000000000000000000000100 7
b00000000000000000000000000000000 8
b00000000000000000000000000000000 :
b00000000000000000000000000000000 ;
b00000000000000000000000000000010 I
b111 _
b00000000000000000000000000011100 d
b00000000000000000000000000100000 e
b00000000000000000000000000100000 g
b0000000001000011011101100 h
1j
#17
0j
#18
b00000000001001100101011000010011 $
b01100 &
b00010 '
b0110 *
b00000000000000000000000000000010 .
b00000000000000000000000000100100 0
b00000000000000000000000000000000 5
b00000000000000000000000000000010 7
b101 _
b00000000000000000000000000100000 d
b00000000000000000000000000100010 e
b00000000000000000000000000100100 g
b0000000000100110010101100 h
1j
#19
0j
#20
b00000000100000110111011010010011 $
b00110 &
b01000 '
b01101 (
b0010 *
b00000000000000000000000000001000 .
b00000000000000000000000000101000 0
b00000000000000000000000000000001 5
b00000000000000000000000000001000 7
b111 _
b00000000000000000000000000100100 d
b00000000000000000000000000101100 e
b00000000000000000000000000101000 g
b0000000010000011011101101 h
1j
#21
0j
#22
b00000000001101101101011010010011 $
b01101 &
b00011 '
b0110 *
b00000000000000000000000000000011 .
b00000000000000000000000000101100 0
b00000000000000000000000000000000 5
b00000000000000000000000000000011 7
b101 _
b00000000000000000000000000101000 d
b00000000000000000000000000101011 e
b00000000000000000000000000101100 g
b0000000000110110110101101 h
1j
#23
0j
#24
b00000000110101100100001110110011 $
b01100 &
b01101 '
b00111 (
0)
b1001 *
b00000000000000000000000000001101 .
b00000000000000000000000000110000 0
b00000000000000000000000000000000 7
b0110011 ^
b100 _
0a
b00000000000000000000000000101100 d
b00000000000000000000000000111001 e
b00000000000000000000000000110000 g
b0000000011010110010000111 h
1j
#25
0j
#26
b00000000011101011000010110110011 $
b01011 &
b00111 '
b01011 (
b0000 *
b00000000000000000000000000000111 .
b00000000000000000000000000000010 /
b00000000000000000000000000110100 0
b00000000000000000000000000000010 5
b00000000000000000000000000000010 8
b00000000000000000000000000000010 :
b00000000000000000000000000000010 ;
b000 _
b00000000000000000000000000110000 d
b00000000000000000000000000110111 e
b00000000000000000000000000110100 g
b0000000001110101100001011 h
1j
#27
0j
#28
0#
b11111100000010001000110011100011 $
1%
b10001 &
b00000 '
b11001 (
b0001 *
1+
b11111111111111111111111111011000 .
b00000000000000000000000000000000 /
b00000000000000000000000000111000 0
b010 1
b00000000000000000000000000000000 5
b00000000000000000000000000000000 8
b00000000000000000000000000000000 :
b00000000000000000000000000000000 ;
b1100011 ^
1`
1a
1b
b01 c
b00000000000000000000000000110100 d
b00000000000000000000000000001100 e
1f
b00000000000000000000000000001100 g
b1111110000001000100011001 h
1j
#29
0j
#30
1#
b00000000000001011000011110010011 $
0%
b01011 &
b01111 (
1)
b0000 *
0+
b00000000000000000000000000000000 .
b00000000000000000000000000000010 /
b00000000000000000000000000010000 0
b000 1
b00000000000000000000000000000010 5
b00000000000000000000000000000010 8
b00000000000000000000000000000010 :
b00000000000000000000000000000010 ;
b0010011 ^
0`
0a
0b
b10 c
b00000000000000000000000000001100 d
0f
b00000000000000000000000000010000 g
b0000000000000101100001111 h
1j
#31
0j
#32
b00000000000001111000001100010011 $
b01111 &
b00110 (
b00000000000000000000000000010100 0
b00000000000000000000000000000010 M
b00000000000000000000000000010000 d
b00000000000000000000000000010000 e
b00000000000000000000000000010100 g
b0000000000000111100000110 h
1j
b00000000000000000000000000000010 m
#33
0j
#34
b00000000011100110111010110010011 $
b00110 &
b00111 '
b01011 (
b0010 *
b00000000000000000000000000000111 .
b00000000000000000000000000000000 /
b00000000000000000000000000011000 0
b00000000000000000000000000000111 7
b00000000000000000000000000000010 D
b111 _
1a
b00000000000000000000000000010100 d
b00000000000000000000000000011011 e
b00000000000000000000000000011000 g
b0000000001110011011101011 h
1j
#35
0j
#36
b00000000000101011001010110010011 $
b01011 &
b00001 '
b0100 *
b00000000000000000000000000000001 .
b00000000000000000000000000011100 0
b00000000000000000000000000000001 7
b00000000000000000000000000000100 8
b00000000000000000000000000000100 :
b00000000000000000000000000000100 ;
b001 _
b00000000000000000000000000011000 d
b00000000000000000000000000011001 e
b00000000000000000000000000011100 g
b0000000000010101100101011 h
1j
#37
0j
#38
b00000000010000110111011000010011 $
b00110 &
b00100 '
b01100 (
b0010 *
b00000000000000000000000000000100 .
b00000000000000000000000000100000 0
b00000000000000000000000000000100 7
b00000000000000000000000000000000 8
b00000000000000000000000000000000 :
b00000000000000000000000000000000 ;
b00000000000000000000000000000100 I
b111 _
b00000000000000000000000000011100 d
b00000000000000000000000000100000 e
b00000000000000000000000000100000 g
b0000000001000011011101100 h
1j
#39
0j
#40
b00000000001001100101011000010011 $
b01100 &
b00010 '
b0110 *
b00000000000000000000000000000010 .
b00000000000000000000000000100100 0
b00000000000000000000000000000000 5
b00000000000000000000000000000010 7
b101 _
b00000000000000000000000000100000 d
b00000000000000000000000000100010 e
b00000000000000000000000000100100 g
b0000000000100110010101100 h
1j
#41
0j
#42
b00000000100000110111011010010011 $
b00110 &
b01000 '
b01101 (
b0010 *
b00000000000000000000000000001000 .
b00000000000000000000000000101000 0
b00000000000000000000000000000010 5
b00000000000000000000000000001000 7
b111 _
b00000000000000000000000000100100 d
b00000000000000000000000000101100 e
b00000000000000000000000000101000 g
b0000000010000011011101101 h
1j
#43
0j
#44
b00000000001101101101011010010011 $
b01101 &
b00011 '
b0110 *
b00000000000000000000000000000011 .
b00000000000000000000000000101100 0
b00000000000000000000000000000000 5
b00000000000000000000000000000011 7
b101 _
b00000000000000000000000000101000 d
b00000000000000000000000000101011 e
b00000000000000000000000000101100 g
b0000000000110110110101101 h
1j
#45
0j
#46
b00000000110101100100001110110011 $
b01100 &
b01101 '
b00111 (
0)
b1001 *
b00000000000000000000000000001101 .
b00000000000000000000000000110000 0
b00000000000000000000000000000000 7
b0110011 ^
b100 _
0a
b00000000000000000000000000101100 d
b00000000000000000000000000111001 e
b00000000000000000000000000110000 g
b0000000011010110010000111 h
1j
#47
0j
#48
b00000000011101011000010110110011 $
b01011 &
b00111 '
b01011 (
b0000 *
b00000000000000000000000000000111 .
b00000000000000000000000000000100 /
b00000000000000000000000000110100 0
b00000000000000000000000000000100 5
b00000000000000000000000000000100 8
b00000000000000000000000000000100 :
b00000000000000000000000000000100 ;
b000 _
b00000000000000000000000000110000 d
b00000000000000000000000000110111 e
b00000000000000000000000000110100 g
b0000000001110101100001011 h
1j
#49
0j
#50
0#
b11111100000010001000110011100011 $
1%
b10001 &
b00000 '
b11001 (
b0001 *
1+
b11111111111111111111111111011000 .
b00000000000000000000000000000000 /
b00000000000000000000000000111000 0
b010 1
b00000000000000000000000000000000 5
b00000000000000000000000000000000 8
b00000000000000000000000000000000 :
b00000000000000000000000000000000 ;
b1100011 ^
1`
1a
1b
b01 c
b00000000000000000000000000110100 d
b00000000000000000000000000001100 e
1f
b00000000000000000000000000001100 g
b1111110000001000100011001 h
1j
#51
0j
#52
1#
b00000000000001011000011110010011 $
0%
b01011 &
b01111 (
1)
b0000 *
0+
b00000000000000000000000000000000 .
b00000000000000000000000000000100 /
b00000000000000000000000000010000 0
b000 1
b00000000000000000000000000000100 5
b00000000000000000000000000000100 8
b00000000000000000000000000000100 :
b00000000000000000000000000000100 ;
b0010011 ^
0`
0a
0b
b10 c
b00000000000000000000000000001100 d
0f
b00000000000000000000000000010000 g
b0000000000000101100001111 h
1j
#53
0j
#54
b00000000000001111000001100010011 $
b01111 &
b00110 (
b00000000000000000000000000010100 0
b00000000000000000000000000000100 M
b00000000000000000000000000010000 d
b00000000000000000000000000010000 e
b00000000000000000000000000010100 g
b0000000000000111100000110 h
1j
b00000000000000000000000000000100 m
#55
0j
#56
b00000000011100110111010110010011 $
b00110 &
b00111 '
b01011 (
b0010 *
b00000000000000000000000000000111 .
b00000000000000000000000000000000 /
b00000000000000000000000000011000 0
b00000000000000000000000000000111 7
b00000000000000000000000000000100 D
b111 _
1a
b00000000000000000000000000010100 d
b00000000000000000000000000011011 e
b00000000000000000000000000011000 g
b0000000001110011011101011 h
1j
#57
0j
#58
b00000000000101011001010110010011 $
b01011 &
b00001 '
b0100 *
b00000000000000000000000000000001 .
b00000000000000000000000000011100 0
b00000000000000000000000000000001 7
b00000000000000000000000000001000 8
b00000000000000000000000000001000 :
b00000000000000000000000000001000 ;
b001 _
b00000000000000000000000000011000 d
b00000000000000000000000000011001 e
b00000000000000000000000000011100 g
b0000000000010101100101011 h
1j
#59
0j
#60
b00000000010000110111011000010011 $
b00110 &
b00100 '
b01100 (
b0010 *
b00000000000000000000000000000100 .
b00000000000000000000000000100000 0
b00000000000000000000000000000100 7
b00000000000000000000000000000100 8
b00000000000000000000000000000100 :
b00000000000000000000000000000100 ;
b00000000000000000000000000001000 I
b111 _
b00000000000000000000000000011100 d
b00000000000000000000000000100000 e
b00000000000000000000000000100000 g
b0000000001000011011101100 h
1j
#61
0j
#62
b00000000001001100101011000010011 $
b01100 &
b00010 '
b0110 *
b00000000000000000000000000000010 .
b00000000000000000000000000100100 0
b00000000000000000000000000000010 7
b00000000000000000000000000000001 8
b00000000000000000000000000000001 :
b00000000000000000000000000000001 ;
b00000000000000000000000000000100 J
b101 _
b00000000000000000000000000100000 d
b00000000000000000000000000100010 e
b00000000000000000000000000100100 g
b0000000000100110010101100 h
1j
#63
0j
#64
b00000000100000110111011010010011 $
b00110 &
b01000 '
b01101 (
b0010 *
b00000000000000000000000000001000 .
b00000000000000000000000000101000 0
b00000000000000000000000000001000 7
b00000000000000000000000000000000 8
b00000000000000000000000000000000 :
b00000000000000000000000000000000 ;
b00000000000000000000000000000001 J
b111 _
b00000000000000000000000000100100 d
b00000000000000000000000000101100 e
b00000000000000000000000000101000 g
b0000000010000011011101101 h
1j
#65
0j
#66
b00000000001101101101011010010011 $
b01101 &
b00011 '
b0110 *
b00000000000000000000000000000011 .
b00000000000000000000000000101100 0
b00000000000000000000000000000000 5
b00000000000000000000000000000011 7
b101 _
b00000000000000000000000000101000 d
b00000000000000000000000000101011 e
b00000000000000000000000000101100 g
b0000000000110110110101101 h
1j
#67
0j
#68
b00000000110101100100001110110011 $
b01100 &
b01101 '
b00111 (
0)
b1001 *
b00000000000000000000000000001101 .
b00000000000000000000000000110000 0
b00000000000000000000000000000001 5
b00000000000000000000000000000000 7
b00000000000000000000000000000001 8
b00000000000000000000000000000001 :
b00000000000000000000000000000001 ;
b0110011 ^
b100 _
0a
b00000000000000000000000000101100 d
b00000000000000000000000000111001 e
b00000000000000000000000000110000 g
b0000000011010110010000111 h
1j
#69
0j
#70
b00000000011101011000010110110011 $
b01011 &
b00111 '
b01011 (
b0000 *
b00000000000000000000000000000111 .
b00000000000000000000000000001001 /
b00000000000000000000000000110100 0
b00000000000000000000000000001000 5
b00000000000000000000000000000001 6
b00000000000000000000000000000001 7
b00000000000000000000000000001001 8
b00000000000000000000000000001001 :
b00000000000000000000000000001001 ;
b00000000000000000000000000000001 E
b000 _
b00000000000000000000000000110000 d
b00000000000000000000000000110111 e
b00000000000000000000000000110100 g
b0000000001110101100001011 h
1j
#71
0j
#72
0#
b11111100000010001000110011100011 $
1%
b10001 &
b00000 '
b11001 (
b0001 *
1+
b11111111111111111111111111011000 .
b00000000000000000000000000000000 /
b00000000000000000000000000111000 0
b010 1
b00000000000000000000000000000000 5
b00000000000000000000000000000000 6
b00000000000000000000000000000000 7
b00000000000000000000000000000000 8
b00000000000000000000000000000000 :
b00000000000000000000000000000000 ;
b00000000000000000000000000001001 I
b1100011 ^
1`
1a
1b
b01 c
b00000000000000000000000000110100 d
b00000000000000000000000000001100 e
1f
b00000000000000000000000000001100 g
b1111110000001000100011001 h
1j
#73
0j
#74
1#
b00000000000001011000011110010011 $
0%
b01011 &
b01111 (
1)
b0000 *
0+
b00000000000000000000000000000000 .
b00000000000000000000000000001001 /
b00000000000000000000000000010000 0
b000 1
b00000000000000000000000000001001 5
b00000000000000000000000000001001 8
b00000000000000000000000000001001 :
b00000000000000000000000000001001 ;
b0010011 ^
0`
0a
0b
b10 c
b00000000000000000000000000001100 d
0f
b00000000000000000000000000010000 g
b0000000000000101100001111 h
1j
#75
0j
#76
b00000000000001111000001100010011 $
b01111 &
b00110 (
b00000000000000000000000000010100 0
b00000000000000000000000000001001 M
b00000000000000000000000000010000 d
b00000000000000000000000000010000 e
b00000000000000000000000000010100 g
b0000000000000111100000110 h
1j
b00000000000000000000000000001001 m
#77
0j
#78
b00000000011100110111010110010011 $
b00110 &
b00111 '
b01011 (
b0010 *
b00000000000000000000000000000111 .
b00000000000000000000000000000000 /
b00000000000000000000000000011000 0
b00000000000000000000000000000001 6
b00000000000000000000000000000111 7
b00000000000000000000000000000001 8
b00000000000000000000000000000001 :
b00000000000000000000000000000001 ;
b00000000000000000000000000001001 D
b111 _
1a
b00000000000000000000000000010100 d
b00000000000000000000000000011011 e
b00000000000000000000000000011000 g
b0000000001110011011101011 h
1j
#79
0j
#80
b00000000000101011001010110010011 $
b01011 &
b00001 '
b0100 *
b00000000000000000000000000000001 .
b00000000000000000000000000011100 0
b00000000000000000000000000000001 5
b00000000000000000000000000000000 6
b00000000000000000000000000000001 7
b00000000000000000000000000000010 8
b00000000000000000000000000000010 :
b00000000000000000000000000000010 ;
b00000000000000000000000000000001 I
b001 _
b00000000000000000000000000011000 d
b00000000000000000000000000011001 e
b00000000000000000000000000011100 g
b0000000000010101100101011 h
1j
#81
0j
#82
b00000000010000110111011000010011 $
b00110 &
b00100 '
b01100 (
b0010 *
b00000000000000000000000000000100 .
b00000000000000000000000000100000 0
b00000000000000000000000000001001 5
b00000000000000000000000000000100 7
b00000000000000000000000000000000 8
b00000000000000000000000000000000 :
b00000000000000000000000000000000 ;
b00000000000000000000000000000010 I
b111 _
b00000000000000000000000000011100 d
b00000000000000000000000000100000 e
b00000000000000000000000000100000 g
b0000000001000011011101100 h
1j
#83
0j
#84
b00000000001001100101011000010011 $
b01100 &
b00010 '
b0110 *
b00000000000000000000000000000010 .
b00000000000000000000000000100100 0
b00000000000000000000000000000000 5
b00000000000000000000000000000010 7
b00000000000000000000000000000000 J
b101 _
b00000000000000000000000000100000 d
b00000000000000000000000000100010 e
b00000000000000000000000000100100 g
b0000000000100110010101100 h
1j
#85
0j
#86
b00000000100000110111011010010011 $
b00110 &
b01000 '
b01101 (
b0010 *
b00000000000000000000000000001000 .
b00000000000000000000000000101000 0
b00000000000000000000000000001001 5
b00000000000000000000000000001000 7
b00000000000000000000000000001000 8
b00000000000000000000000000001000 :
b00000000000000000000000000001000 ;
b111 _
b00000000000000000000000000100100 d
b00000000000000000000000000101100 e
b00000000000000000000000000101000 g
b0000000010000011011101101 h
1j
#87
0j
#88
b00000000001101101101011010010011 $
b01101 &
b00011 '
b0110 *
b00000000000000000000000000000011 .
b00000000000000000000000000101100 0
b00000000000000000000000000001000 5
b00000000000000000000000000000011 7
b00000000000000000000000000000001 8
b00000000000000000000000000000001 :
b00000000000000000000000000000001 ;
b00000000000000000000000000001000 K
b101 _
b00000000000000000000000000101000 d
b00000000000000000000000000101011 e
b00000000000000000000000000101100 g
b0000000000110110110101101 h
1j
#89
0j
#90
b00000000110101100100001110110011 $
b01100 &
b01101 '
b00111 (
0)
b1001 *
b00000000000000000000000000001101 .
b00000000000000000000000000110000 0
b00000000000000000000000000000000 5
b00000000000000000000000000000001 6
b00000000000000000000000000000001 7
b00000000000000000000000000000001 K
b0110011 ^
b100 _
0a
b00000000000000000000000000101100 d
b00000000000000000000000000111001 e
b00000000000000000000000000110000 g
b0000000011010110010000111 h
1j
#91
0j
#92
b00000000011101011000010110110011 $
b01011 &
b00111 '
b01011 (
b0000 *
b00000000000000000000000000000111 .
b00000000000000000000000000000011 /
b00000000000000000000000000110100 0
b00000000000000000000000000000010 5
b00000000000000000000000000000011 8
b00000000000000000000000000000011 :
b00000000000000000000000000000011 ;
b000 _
b00000000000000000000000000110000 d
b00000000000000000000000000110111 e
b00000000000000000000000000110100 g
b0000000001110101100001011 h
1j
#93
0j
#94
0#
b11111100000010001000110011100011 $
1%
b10001 &
b00000 '
b11001 (
b0001 *
1+
b11111111111111111111111111011000 .
b00000000000000000000000000000000 /
b00000000000000000000000000111000 0
b010 1
b00000000000000000000000000000000 5
b00000000000000000000000000000000 6
b00000000000000000000000000000000 7
b00000000000000000000000000000000 8
b00000000000000000000000000000000 :
b00000000000000000000000000000000 ;
b00000000000000000000000000000011 I
b1100011 ^
1`
1a
1b
b01 c
b00000000000000000000000000110100 d
b00000000000000000000000000001100 e
1f
b00000000000000000000000000001100 g
b1111110000001000100011001 h
1j
#95
0j
